5Te-Labor/5.2/pll_VCO/1_1,5V.csv

X,CH1,CH2,Start,Increment,
Sequence,Volt,Volt,-6.000000e-03,1.000000e-05
0,3.60e+00,-6.80e+00,
1,4.40e+00,-7.20e+00,
2,4.00e+00,-6.80e+00,
3,4.80e+00,-7.20e+00,
4,4.40e+00,-7.20e+00,
5,5.20e+00,-6.80e+00,
6,4.80e+00,-7.20e+00,
7,5.60e+00,8.20e+00,
8,5.60e+00,8.00e+00,
9,4.40e+00,8.40e+00,
10,5.20e+00,8.00e+00,
11,4.40e+00,8.40e+00,
12,4.80e+00,8.00e+00,
13,4.00e+00,8.40e+00,
14,4.40e+00,8.00e+00,
15,3.60e+00,8.40e+00,
16,4.00e+00,8.00e+00,
17,3.20e+00,8.40e+00,
18,3.60e+00,8.00e+00,
19,2.80e+00,8.40e+00,
20,3.20e+00,8.00e+00,
21,2.40e+00,8.40e+00,
22,2.80e+00,8.40e+00,
23,2.00e+00,8.00e+00,
24,2.00e+00,8.00e+00,
25,2.80e+00,8.40e+00,
26,2.00e+00,8.00e+00,
27,1.20e+00,8.40e+00,
28,1.60e+00,8.00e+00,
29,8.00e-01,8.40e+00,
30,1.20e+00,8.40e+00,
31,4.00e-01,8.00e+00,
32,8.00e-01,8.00e+00,
33,0.00e+00,8.40e+00,
34,4.00e-01,8.00e+00,
35,-4.00e-01,8.40e+00,
36,-4.00e-01,8.00e+00,
37,4.00e-01,8.40e+00,
38,0.00e+00,8.00e+00,
39,-8.00e-01,8.40e+00,
40,-4.00e-01,8.00e+00,
41,-1.20e+00,8.40e+00,
42,-8.00e-01,8.00e+00,
43,-1.60e+00,8.40e+00,
44,-1.20e+00,8.40e+00,
45,-2.00e+00,8.00e+00,
46,-1.20e+00,8.40e+00,
47,-2.00e+00,8.00e+00,
48,-1.60e+00,8.00e+00,
49,-2.40e+00,8.40e+00,
50,-2.00e+00,8.00e+00,
51,-2.80e+00,8.40e+00,
52,-2.40e+00,8.40e+00,
53,-3.20e+00,8.00e+00,
54,-2.80e+00,8.00e+00,
55,-3.60e+00,8.40e+00,
56,-3.60e+00,8.00e+00,
57,-2.80e+00,8.40e+00,
58,-3.20e+00,8.00e+00,
59,-4.40e+00,8.40e+00,
60,-4.00e+00,8.00e+00,
61,-4.80e+00,8.40e+00,
62,-4.40e+00,8.00e+00,
63,-5.20e+00,8.40e+00,
64,-4.40e+00,8.00e+00,
65,-5.60e+00,8.40e+00,
66,-4.80e+00,8.40e+00,
67,-5.60e+00,-7.20e+00,
68,-5.60e+00,-7.20e+00,
69,-4.40e+00,-6.80e+00,
70,-5.20e+00,-6.80e+00,
71,-4.00e+00,-7.20e+00,
72,-4.80e+00,-7.20e+00,
73,-3.60e+00,-6.80e+00,
74,-4.00e+00,-7.20e+00,
75,-3.20e+00,-6.80e+00,
76,-3.60e+00,-7.20e+00,
77,-2.80e+00,-6.80e+00,
78,-3.20e+00,-7.20e+00,
79,-2.40e+00,-6.80e+00,
80,-2.80e+00,-7.20e+00,
81,-2.00e+00,-6.80e+00,
82,-2.40e+00,-6.80e+00,
83,-1.60e+00,-7.20e+00,
84,-2.40e+00,-6.80e+00,
85,-1.20e+00,-7.20e+00,
86,-2.00e+00,-6.80e+00,
87,-1.20e+00,-7.20e+00,
88,-1.60e+00,-6.80e+00,
89,-8.00e-01,-7.20e+00,
90,-1.20e+00,-6.80e+00,
91,-4.00e-01,-7.20e+00,
92,-8.00e-01,-7.20e+00,
93,0.00e+00,-6.80e+00,
94,-4.00e-01,-6.80e+00,
95,4.00e-01,-7.20e+00,
96,4.00e-01,-7.20e+00,
97,-4.00e-01,-6.80e+00,
98,0.00e+00,-6.80e+00,
99,8.00e-01,-7.20e+00,
100,4.00e-01,-6.80e+00,
101,1.20e+00,-7.20e+00,
102,8.00e-01,-6.80e+00,
103,1.60e+00,-7.20e+00,
104,1.20e+00,-6.80e+00,
105,2.00e+00,-7.20e+00,
106,2.40e+00,-6.80e+00,
107,2.00e+00,-7.20e+00,
108,2.00e+00,-7.20e+00,
109,2.80e+00,-6.80e+00,
110,2.40e+00,-7.20e+00,
111,3.20e+00,-6.80e+00,
112,2.80e+00,-7.20e+00,
113,3.60e+00,-6.80e+00,
114,3.20e+00,-6.80e+00,
115,4.00e+00,-7.20e+00,
116,4.00e+00,-6.80e+00,
117,3.20e+00,-7.20e+00,
118,3.60e+00,-7.20e+00,
119,4.40e+00,-6.80e+00,
120,4.00e+00,-6.80e+00,
121,4.80e+00,-7.20e+00,
122,4.40e+00,-7.20e+00,
123,5.20e+00,-6.80e+00,
124,4.80e+00,-7.20e+00,
125,5.60e+00,-5.20e+00,
126,5.60e+00,-4.80e+00,
127,4.80e+00,8.40e+00,
128,5.20e+00,8.00e+00,
129,4.40e+00,8.40e+00,
130,4.80e+00,8.00e+00,
131,4.00e+00,8.40e+00,
132,4.40e+00,8.00e+00,
133,3.60e+00,8.40e+00,
134,4.00e+00,8.00e+00,
135,3.20e+00,8.40e+00,
136,3.60e+00,8.00e+00,
137,2.80e+00,8.40e+00,
138,3.20e+00,8.00e+00,
139,2.40e+00,8.40e+00,
140,2.40e+00,8.40e+00,
141,3.20e+00,8.00e+00,
142,2.80e+00,8.00e+00,
143,2.00e+00,8.40e+00,
144,2.00e+00,8.00e+00,
145,1.20e+00,8.40e+00,
146,1.60e+00,8.00e+00,
147,8.00e-01,8.40e+00,
148,1.20e+00,8.00e+00,
149,4.00e-01,8.40e+00,
150,8.00e-01,8.00e+00,
151,0.00e+00,8.40e+00,
152,0.00e+00,8.00e+00,
153,8.00e-01,8.40e+00,
154,4.00e-01,8.00e+00,
155,-4.00e-01,8.40e+00,
156,0.00e+00,8.00e+00,
157,-8.00e-01,8.40e+00,
158,-4.00e-01,8.40e+00,
159,-1.20e+00,8.00e+00,
160,-8.00e-01,8.00e+00,
161,-1.60e+00,8.40e+00,
162,-8.00e-01,8.00e+00,
163,-1.60e+00,8.40e+00,
164,-1.20e+00,8.00e+00,
165,-2.00e+00,8.40e+00,
166,-1.60e+00,8.40e+00,
167,-2.40e+00,8.00e+00,
168,-2.00e+00,8.40e+00,
169,-2.80e+00,8.00e+00,
170,-2.40e+00,8.00e+00,
171,-3.20e+00,8.40e+00,
172,-2.40e+00,8.40e+00,
173,-3.20e+00,8.00e+00,
174,-3.60e+00,8.00e+00,
175,-2.80e+00,8.40e+00,
176,-3.20e+00,8.40e+00,
177,-4.40e+00,8.00e+00,
178,-4.00e+00,8.00e+00,
179,-4.80e+00,8.40e+00,
180,-4.00e+00,8.40e+00,
181,-5.20e+00,8.00e+00,
182,-4.40e+00,8.00e+00,
183,-5.60e+00,8.40e+00,
184,-4.80e+00,8.40e+00,
185,-5.60e+00,-7.20e+00,
186,-5.60e+00,-6.80e+00,
187,-4.40e+00,-7.20e+00,
188,-5.20e+00,-7.20e+00,
189,-4.00e+00,-6.80e+00,
190,-4.00e+00,-7.20e+00,
191,-4.80e+00,-6.80e+00,
192,-4.00e+00,-6.80e+00,
193,-3.20e+00,-7.20e+00,
194,-3.60e+00,-6.80e+00,
195,-2.80e+00,-7.20e+00,
196,-3.20e+00,-6.80e+00,
197,-2.40e+00,-7.20e+00,
198,-2.80e+00,-6.80e+00,
199,-2.00e+00,-7.20e+00,
200,-2.80e+00,-6.80e+00,
201,-1.60e+00,-7.20e+00,
202,-2.40e+00,-6.80e+00,
203,-1.60e+00,-7.20e+00,
204,-2.00e+00,-6.80e+00,
205,-1.20e+00,-7.20e+00,
206,-1.60e+00,-6.80e+00,
207,-8.00e-01,-7.20e+00,
208,-1.20e+00,-7.20e+00,
209,-4.00e-01,-6.80e+00,
210,-8.00e-01,-6.80e+00,
211,0.00e+00,-7.20e+00,
212,-8.00e-01,-6.80e+00,
213,0.00e+00,-7.20e+00,
214,-4.00e-01,-6.80e+00,
215,4.00e-01,-7.20e+00,
216,0.00e+00,-7.20e+00,
217,8.00e-01,-6.80e+00,
218,4.00e-01,-6.80e+00,
219,1.20e+00,-7.20e+00,
220,8.00e-01,-6.80e+00,
221,1.60e+00,-7.20e+00,
222,1.60e+00,-6.80e+00,
223,1.20e+00,-7.20e+00,
224,1.60e+00,-7.20e+00,
225,2.40e+00,-6.80e+00,
226,2.00e+00,-7.20e+00,
227,2.80e+00,-6.80e+00,
228,2.40e+00,-7.20e+00,
229,3.20e+00,-6.80e+00,
230,2.80e+00,-7.20e+00,
231,3.60e+00,-6.80e+00,
232,3.20e+00,-6.80e+00,
233,3.60e+00,-7.20e+00,
234,3.20e+00,-6.80e+00,
235,4.00e+00,-7.20e+00,
236,3.60e+00,-6.80e+00,
237,4.40e+00,-7.20e+00,
238,4.00e+00,-6.80e+00,
239,4.80e+00,-7.20e+00,
240,4.40e+00,-6.80e+00,
241,5.20e+00,-7.20e+00,
242,4.40e+00,-7.20e+00,
243,5.20e+00,-6.80e+00,
244,4.80e+00,-7.20e+00,
245,5.60e+00,8.40e+00,
246,5.20e+00,8.00e+00,
247,4.40e+00,8.40e+00,
248,4.80e+00,8.00e+00,
249,4.00e+00,8.40e+00,
250,4.40e+00,8.00e+00,
251,3.60e+00,8.40e+00,
252,4.00e+00,8.00e+00,
253,3.20e+00,8.40e+00,
254,3.20e+00,8.00e+00,
255,3.60e+00,8.40e+00,
256,3.60e+00,8.00e+00,
257,2.80e+00,8.40e+00,
258,2.40e+00,8.00e+00,
259,3.20e+00,8.40e+00,
260,2.80e+00,8.00e+00,
261,2.00e+00,8.40e+00,
262,2.40e+00,8.00e+00,
263,1.20e+00,8.40e+00,
264,1.60e+00,8.00e+00,
265,8.00e-01,8.40e+00,
266,1.20e+00,8.00e+00,
267,4.00e-01,8.40e+00,
268,4.00e-01,8.00e+00,
269,1.20e+00,8.40e+00,
270,8.00e-01,8.00e+00,
271,0.00e+00,8.40e+00,
272,4.00e-01,8.00e+00,
273,-4.00e-01,8.40e+00,
274,0.00e+00,8.00e+00,
275,-8.00e-01,8.40e+00,
276,-4.00e-01,8.00e+00,
277,-1.20e+00,8.40e+00,
278,-4.00e-01,8.40e+00,
279,-1.20e+00,8.00e+00,
280,-8.00e-01,8.40e+00,
281,-1.60e+00,8.00e+00,
282,-1.20e+00,8.00e+00,
283,-2.00e+00,8.40e+00,
284,-1.60e+00,8.00e+00,
285,-2.40e+00,8.40e+00,
286,-2.00e+00,8.40e+00,
287,-2.80e+00,8.00e+00,
288,-2.00e+00,8.40e+00,
289,-3.20e+00,8.00e+00,
290,-3.20e+00,8.00e+00,
291,-2.40e+00,8.40e+00,
292,-2.80e+00,8.00e+00,
293,-3.60e+00,8.40e+00,
294,-3.20e+00,8.40e+00,
295,-4.00e+00,8.00e+00,
296,-4.00e+00,8.40e+00,
297,-4.40e+00,8.00e+00,
298,-4.00e+00,8.00e+00,
299,-4.80e+00,8.40e+00,
300,-4.40e+00,8.00e+00,
301,-5.20e+00,8.40e+00,
302,-4.80e+00,8.40e+00,
303,-5.60e+00,-5.20e+00,
304,-5.60e+00,-5.80e+00,
305,-4.80e+00,-7.20e+00,
306,-5.20e+00,-7.20e+00,
307,-4.40e+00,-6.80e+00,
308,-4.80e+00,-7.20e+00,
309,-4.00e+00,-6.80e+00,
310,-4.40e+00,-7.20e+00,
311,-3.20e+00,-6.80e+00,
312,-3.60e+00,-7.20e+00,
313,-2.80e+00,-6.80e+00,
314,-3.20e+00,-6.80e+00,
315,-2.40e+00,-7.20e+00,
316,-3.20e+00,-7.20e+00,
317,-2.00e+00,-6.80e+00,
318,-2.80e+00,-7.20e+00,
319,-2.00e+00,-6.80e+00,
320,-2.40e+00,-7.20e+00,
321,-1.60e+00,-6.80e+00,
322,-2.00e+00,-6.80e+00,
323,-1.20e+00,-7.20e+00,
324,-1.60e+00,-6.80e+00,
325,-8.00e-01,-7.20e+00,
326,-1.20e+00,-6.80e+00,
327,-4.00e-01,-7.20e+00,
328,-1.20e+00,-6.80e+00,
329,0.00e+00,-7.20e+00,
330,-8.00e-01,-6.80e+00,
331,0.00e+00,-7.20e+00,
332,-4.00e-01,-6.80e+00,
333,4.00e-01,-7.20e+00,
334,0.00e+00,-7.20e+00,
335,8.00e-01,-6.80e+00,
336,4.00e-01,-7.20e+00,
337,1.20e+00,-6.80e+00,
338,8.00e-01,-7.20e+00,
339,1.60e+00,-6.80e+00,
340,1.60e+00,-6.80e+00,
341,8.00e-01,-7.20e+00,
342,1.20e+00,-7.20e+00,
343,2.00e+00,-6.80e+00,
344,2.00e+00,-7.20e+00,
345,2.80e+00,-6.80e+00,
346,2.40e+00,-6.80e+00,
347,3.20e+00,-7.20e+00,
348,2.80e+00,-7.20e+00,
349,3.20e+00,-6.80e+00,
350,3.60e+00,-6.80e+00,
351,2.80e+00,-7.20e+00,
352,3.20e+00,-6.80e+00,
353,4.00e+00,-7.20e+00,
354,3.60e+00,-6.80e+00,
355,4.40e+00,-7.20e+00,
356,4.00e+00,-7.20e+00,
357,4.80e+00,-6.80e+00,
358,4.00e+00,-7.20e+00,
359,4.80e+00,-6.80e+00,
360,4.40e+00,-7.20e+00,
361,5.20e+00,-6.80e+00,
362,4.80e+00,-7.20e+00,
363,5.60e+00,8.40e+00,
364,5.20e+00,8.00e+00,
365,4.40e+00,8.40e+00,
366,4.80e+00,8.00e+00,
367,4.00e+00,8.40e+00,
368,4.40e+00,8.00e+00,
369,3.60e+00,8.40e+00,
370,3.60e+00,8.40e+00,
371,4.40e+00,8.00e+00,
372,4.00e+00,8.40e+00,
373,3.20e+00,8.00e+00,
374,3.60e+00,8.00e+00,
375,2.80e+00,8.40e+00,
376,3.20e+00,8.00e+00,
377,2.40e+00,8.40e+00,
378,2.80e+00,8.00e+00,
379,2.00e+00,8.40e+00,
380,2.00e+00,8.00e+00,
381,1.60e+00,8.40e+00,
382,2.00e+00,8.00e+00,
383,1.20e+00,8.40e+00,
384,8.00e-01,8.00e+00,
385,1.60e+00,8.40e+00,
386,1.20e+00,8.00e+00,
387,4.00e-01,8.40e+00,
388,8.00e-01,8.00e+00,
389,0.00e+00,8.40e+00,
390,4.00e-01,8.00e+00,
391,-4.00e-01,8.40e+00,
392,0.00e+00,8.00e+00,
393,-8.00e-01,8.40e+00,
394,0.00e+00,8.00e+00,
395,-8.00e-01,8.40e+00,
396,-4.00e-01,8.00e+00,
397,-1.20e+00,8.40e+00,
398,-8.00e-01,8.00e+00,
399,-1.60e+00,8.40e+00,
400,-1.20e+00,8.00e+00,
401,-2.00e+00,8.40e+00,
402,-1.60e+00,8.40e+00,
403,-2.40e+00,8.00e+00,
404,-2.40e+00,8.40e+00,
405,-1.60e+00,8.00e+00,
406,-2.00e+00,8.00e+00,
407,-2.80e+00,8.40e+00,
408,-2.40e+00,8.40e+00,
409,-3.20e+00,8.00e+00,
410,-2.80e+00,8.40e+00,
411,-3.60e+00,8.00e+00,
412,-3.20e+00,8.00e+00,
413,-4.00e+00,8.40e+00,
414,-3.60e+00,8.00e+00,
415,-4.40e+00,8.40e+00,
416,-4.00e+00,8.40e+00,
417,-4.80e+00,8.00e+00,
418,-4.40e+00,8.00e+00,
419,-5.20e+00,8.40e+00,
420,-4.80e+00,8.40e+00,
421,-5.60e+00,7.80e+00,
422,-4.80e+00,7.80e+00,
423,-6.00e+00,-7.20e+00,
424,-5.20e+00,-7.20e+00,
425,-4.40e+00,-6.80e+00,
426,-4.80e+00,-7.20e+00,
427,-4.00e+00,-6.80e+00,
428,-4.40e+00,-6.80e+00,
429,-3.20e+00,-7.20e+00,
430,-4.00e+00,-7.20e+00,
431,-3.20e+00,-6.80e+00,
432,-3.60e+00,-7.20e+00,
433,-2.80e+00,-6.80e+00,
434,-3.20e+00,-7.20e+00,
435,-2.40e+00,-6.80e+00,
436,-2.80e+00,-7.20e+00,
437,-2.00e+00,-6.80e+00,
438,-2.40e+00,-6.80e+00,
439,-1.60e+00,-7.20e+00,
440,-2.00e+00,-6.80e+00,
441,-1.20e+00,-7.20e+00,
442,-1.60e+00,-7.20e+00,
443,-8.00e-01,-6.80e+00,
444,-8.00e-01,-6.80e+00,
445,-1.60e+00,-7.20e+00,
446,-4.00e-01,-6.80e+00,
447,-1.20e+00,-7.20e+00,
448,-8.00e-01,-6.80e+00,
449,0.00e+00,-7.20e+00,
450,-4.00e-01,-6.80e+00,
451,4.00e-01,-7.20e+00,
452,0.00e+00,-6.80e+00,
453,8.00e-01,-7.20e+00,
454,4.00e-01,-7.20e+00,
455,1.20e+00,-6.80e+00,
456,1.20e+00,-6.80e+00,
457,4.00e-01,-7.20e+00,
458,8.00e-01,-6.80e+00,
459,1.60e+00,-7.20e+00,
460,1.20e+00,-6.80e+00,
461,2.00e+00,-7.20e+00,
462,2.00e+00,-6.80e+00,
463,2.80e+00,-7.20e+00,
464,2.40e+00,-7.20e+00,
465,2.80e+00,-6.80e+00,
466,2.40e+00,-7.20e+00,
467,3.20e+00,-6.80e+00,
468,2.80e+00,-7.20e+00,
469,3.60e+00,-6.80e+00,
470,3.20e+00,-6.80e+00,
471,4.00e+00,-7.20e+00,
472,3.60e+00,-7.20e+00,
473,4.40e+00,-6.80e+00,
474,4.00e+00,-7.20e+00,
475,4.40e+00,-6.80e+00,
476,4.00e+00,-6.80e+00,
477,4.80e+00,-7.20e+00,
478,4.40e+00,-7.20e+00,
479,5.20e+00,-6.80e+00,
480,4.80e+00,-7.20e+00,
481,5.60e+00,8.20e+00,
482,5.20e+00,8.00e+00,
483,4.40e+00,8.40e+00,
484,4.80e+00,8.00e+00,
485,4.00e+00,8.40e+00,
486,4.00e+00,8.00e+00,
487,4.80e+00,8.40e+00,
488,4.40e+00,8.00e+00,
489,3.60e+00,8.40e+00,
490,4.00e+00,8.00e+00,
491,3.20e+00,8.40e+00,
492,3.60e+00,8.00e+00,
493,2.80e+00,8.40e+00,
494,3.20e+00,8.00e+00,
495,2.40e+00,8.40e+00,
496,2.80e+00,8.00e+00,
497,2.00e+00,8.40e+00,
498,2.40e+00,8.00e+00,
499,1.60e+00,8.40e+00,
500,2.00e+00,8.40e+00,
501,1.20e+00,8.00e+00,
502,1.60e+00,8.00e+00,
503,8.00e-01,8.40e+00,
504,1.20e+00,8.00e+00,
505,4.00e-01,8.40e+00,
506,8.00e-01,8.00e+00,
507,0.00e+00,8.40e+00,
508,4.00e-01,8.00e+00,
509,-4.00e-01,8.40e+00,
510,4.00e-01,8.00e+00,
511,-4.00e-01,8.40e+00,
512,0.00e+00,8.00e+00,
513,-8.00e-01,8.40e+00,
514,-4.00e-01,8.00e+00,
515,-1.20e+00,8.40e+00,
516,-8.00e-01,8.00e+00,
517,-1.60e+00,8.40e+00,
518,-1.20e+00,8.00e+00,
519,-2.00e+00,8.40e+00,
520,-2.00e+00,8.00e+00,
521,-1.20e+00,8.40e+00,
522,-2.40e+00,8.00e+00,
523,-1.60e+00,8.40e+00,
524,-2.00e+00,8.00e+00,
525,-2.80e+00,8.40e+00,
526,-2.40e+00,8.00e+00,
527,-3.20e+00,8.40e+00,
528,-2.80e+00,8.40e+00,
529,-3.60e+00,8.00e+00,
530,-2.80e+00,8.00e+00,
531,-4.00e+00,8.40e+00,
532,-4.40e+00,8.00e+00,
533,-3.20e+00,8.40e+00,
534,-4.00e+00,8.00e+00,
535,-4.80e+00,8.40e+00,
536,-4.40e+00,8.40e+00,
537,-5.20e+00,8.00e+00,
538,-4.40e+00,8.40e+00,
539,-5.60e+00,8.00e+00,
540,-4.80e+00,8.40e+00,
541,-6.00e+00,-7.20e+00,
542,-5.20e+00,-7.20e+00,
543,-4.40e+00,-6.80e+00,
544,-5.20e+00,-7.20e+00,
545,-4.00e+00,-6.80e+00,
546,-4.40e+00,-6.80e+00,
547,-3.60e+00,-7.20e+00,
548,-4.00e+00,-6.80e+00,
549,-3.20e+00,-7.20e+00,
550,-3.60e+00,-6.80e+00,
551,-2.80e+00,-7.20e+00,
552,-3.20e+00,-7.20e+00,
553,-2.40e+00,-6.80e+00,
554,-2.80e+00,-6.80e+00,
555,-2.00e+00,-7.20e+00,
556,-2.40e+00,-6.80e+00,
557,-1.60e+00,-7.20e+00,
558,-2.00e+00,-7.20e+00,
559,-1.20e+00,-6.80e+00,
560,-2.00e+00,-6.80e+00,
561,-8.00e-01,-7.20e+00,
562,-1.60e+00,-6.80e+00,
563,-8.00e-01,-7.20e+00,
564,-1.20e+00,-6.80e+00,
565,-4.00e-01,-7.20e+00,
566,-8.00e-01,-6.80e+00,
567,0.00e+00,-7.20e+00,
568,-4.00e-01,-6.80e+00,
569,4.00e-01,-7.20e+00,
570,0.00e+00,-6.80e+00,
571,8.00e-01,-7.20e+00,
572,8.00e-01,-6.80e+00,
573,0.00e+00,-7.20e+00,
574,4.00e-01,-6.80e+00,
575,1.20e+00,-7.20e+00,
576,8.00e-01,-6.80e+00,
577,1.60e+00,-7.20e+00,
578,1.20e+00,-6.80e+00,
579,2.00e+00,-7.20e+00,
580,2.00e+00,-6.80e+00,
581,2.80e+00,-7.20e+00,
582,2.00e+00,-6.80e+00,
583,2.80e+00,-7.20e+00,
584,2.40e+00,-7.20e+00,
585,3.20e+00,-6.80e+00,
586,2.80e+00,-6.80e+00,
587,3.60e+00,-7.20e+00,
588,3.20e+00,-7.20e+00,
589,4.00e+00,-6.80e+00,
590,4.00e+00,-6.80e+00,
591,3.60e+00,-7.20e+00,
592,3.60e+00,-7.20e+00,
593,4.40e+00,-6.80e+00,
594,4.00e+00,-7.20e+00,
595,4.80e+00,-6.80e+00,
596,4.40e+00,-7.20e+00,
597,5.20e+00,-6.80e+00,
598,4.80e+00,-7.20e+00,
599,5.60e+00,-4.00e-01,
600,4.80e+00,2.00e-01,
601,5.60e+00,8.40e+00,
602,5.20e+00,8.00e+00,
603,4.40e+00,8.40e+00,
604,4.80e+00,8.00e+00,
605,4.00e+00,8.40e+00,
606,4.40e+00,8.00e+00,
607,3.60e+00,8.40e+00,
608,4.00e+00,8.00e+00,
609,3.20e+00,8.40e+00,
610,3.60e+00,8.00e+00,
611,2.80e+00,8.40e+00,
612,3.20e+00,8.00e+00,
613,2.40e+00,8.40e+00,
614,2.80e+00,8.00e+00,
615,2.40e+00,8.40e+00,
616,2.80e+00,8.00e+00,
617,2.00e+00,8.40e+00,
618,2.00e+00,8.00e+00,
619,1.20e+00,8.40e+00,
620,1.60e+00,8.00e+00,
621,8.00e-01,8.40e+00,
622,1.20e+00,8.00e+00,
623,4.00e-01,8.40e+00,
624,8.00e-01,8.00e+00,
625,0.00e+00,8.40e+00,
626,8.00e-01,8.00e+00,
627,0.00e+00,8.40e+00,
628,4.00e-01,8.00e+00,
629,-4.00e-01,8.40e+00,
630,0.00e+00,8.40e+00,
631,-8.00e-01,8.00e+00,
632,-4.00e-01,8.00e+00,
633,-1.20e+00,8.40e+00,
634,-8.00e-01,8.00e+00,
635,-1.60e+00,8.40e+00,
636,-8.00e-01,8.00e+00,
637,-2.00e+00,8.40e+00,
638,-2.00e+00,8.00e+00,
639,-1.20e+00,8.40e+00,
640,-1.60e+00,8.40e+00,
641,-2.40e+00,8.00e+00,
642,-2.00e+00,8.00e+00,
643,-2.80e+00,8.40e+00,
644,-2.40e+00,8.40e+00,
645,-3.20e+00,8.00e+00,
646,-2.80e+00,8.40e+00,
647,-3.60e+00,8.00e+00,
648,-3.60e+00,8.00e+00,
649,-2.80e+00,8.40e+00,
650,-3.20e+00,8.00e+00,
651,-4.00e+00,8.40e+00,
652,-4.00e+00,8.00e+00,
653,-4.80e+00,8.40e+00,
654,-4.40e+00,8.00e+00,
655,-5.20e+00,8.40e+00,
656,-4.40e+00,8.00e+00,
657,-5.60e+00,8.40e+00,
658,-4.80e+00,8.40e+00,
659,-6.00e+00,-7.20e+00,
660,-5.60e+00,-7.20e+00,
661,-4.40e+00,-6.80e+00,
662,-5.20e+00,-6.80e+00,
663,-4.00e+00,-7.20e+00,
664,-4.40e+00,-7.20e+00,
665,-4.00e+00,-6.80e+00,
666,-3.20e+00,-7.20e+00,
667,-4.40e+00,-6.80e+00,
668,-3.60e+00,-6.80e+00,
669,-2.80e+00,-7.20e+00,
670,-3.20e+00,-6.80e+00,
671,-2.40e+00,-7.20e+00,
672,-2.80e+00,-7.20e+00,
673,-2.00e+00,-6.80e+00,
674,-2.80e+00,-6.80e+00,
675,-1.60e+00,-7.20e+00,
676,-1.60e+00,-6.80e+00,
677,-2.40e+00,-7.20e+00,
678,-2.00e+00,-7.20e+00,
679,-1.20e+00,-6.80e+00,
680,-1.60e+00,-6.80e+00,
681,-8.00e-01,-7.20e+00,
682,-1.20e+00,-6.80e+00,
683,-4.00e-01,-7.20e+00,
684,-8.00e-01,-6.80e+00,
685,0.00e+00,-7.20e+00,
686,0.00e+00,-7.20e+00,
687,-4.00e-01,-6.80e+00,
688,4.00e-01,-6.80e+00,
689,-4.00e-01,-7.20e+00,
690,0.00e+00,-6.80e+00,
691,8.00e-01,-7.20e+00,
692,4.00e-01,-6.80e+00,
693,1.20e+00,-7.20e+00,
694,8.00e-01,-7.20e+00,
695,1.60e+00,-6.80e+00,
696,1.20e+00,-6.80e+00,
697,2.00e+00,-7.20e+00,
698,2.00e+00,-7.20e+00,
699,1.20e+00,-6.80e+00,
700,2.00e+00,-6.80e+00,
701,2.80e+00,-7.20e+00,
702,2.40e+00,-7.20e+00,
703,3.20e+00,-6.80e+00,
704,2.80e+00,-7.20e+00,
705,3.60e+00,-6.80e+00,
706,3.20e+00,-6.80e+00,
707,4.00e+00,-7.20e+00,
708,4.00e+00,-6.80e+00,
709,3.20e+00,-7.20e+00,
710,3.60e+00,-6.80e+00,
711,4.40e+00,-7.20e+00,
712,4.00e+00,-7.20e+00,
713,4.80e+00,-6.80e+00,
714,4.40e+00,-7.20e+00,
715,5.20e+00,-6.80e+00,
716,4.80e+00,-6.80e+00,
717,5.20e+00,-7.20e+00,
718,5.60e+00,-7.00e+00,
719,4.80e+00,8.40e+00,
720,5.20e+00,8.00e+00,
721,4.40e+00,8.40e+00,
722,4.80e+00,8.00e+00,
723,4.00e+00,8.40e+00,
724,4.40e+00,8.00e+00,
725,3.60e+00,8.40e+00,
726,4.00e+00,8.00e+00,
727,3.20e+00,8.40e+00,
728,3.60e+00,8.00e+00,
729,2.80e+00,8.40e+00,
730,2.80e+00,8.00e+00,
731,3.60e+00,8.40e+00,
732,3.20e+00,8.00e+00,
733,2.40e+00,8.40e+00,
734,2.80e+00,8.00e+00,
735,2.00e+00,8.40e+00,
736,2.00e+00,8.00e+00,
737,1.20e+00,8.40e+00,
738,1.60e+00,8.40e+00,
739,8.00e-01,8.00e+00,
740,1.20e+00,8.00e+00,
741,4.00e-01,8.40e+00,
742,1.20e+00,8.00e+00,
743,4.00e-01,8.40e+00,
744,8.00e-01,8.00e+00,
745,0.00e+00,8.40e+00,
746,4.00e-01,8.00e+00,
747,-4.00e-01,8.40e+00,
748,0.00e+00,8.00e+00,
749,-8.00e-01,8.40e+00,
750,-4.00e-01,8.00e+00,
751,-1.20e+00,8.40e+00,
752,-8.00e-01,8.00e+00,
753,-1.20e+00,8.40e+00,
754,-1.60e+00,8.00e+00,
755,-8.00e-01,8.40e+00,
756,-1.20e+00,8.00e+00,
757,-2.00e+00,8.40e+00,
758,-1.60e+00,8.00e+00,
759,-2.40e+00,8.40e+00,
760,-2.00e+00,8.00e+00,
761,-2.80e+00,8.40e+00,
762,-2.00e+00,8.00e+00,
763,-3.20e+00,8.40e+00,
764,-3.20e+00,8.00e+00,
765,-2.40e+00,8.40e+00,
766,-2.80e+00,8.00e+00,
767,-3.60e+00,8.40e+00,
768,-3.20e+00,8.00e+00,
769,-4.00e+00,8.40e+00,
770,-4.00e+00,8.40e+00,
771,-4.80e+00,8.00e+00,
772,-4.00e+00,8.00e+00,
773,-5.20e+00,8.40e+00,
774,-5.20e+00,8.40e+00,
775,-4.40e+00,8.00e+00,
776,-4.80e+00,8.40e+00,
777,-6.00e+00,-7.20e+00,
778,-5.60e+00,-6.80e+00,
779,-4.40e+00,-7.20e+00,
780,-4.40e+00,-6.80e+00,
781,-5.20e+00,-7.20e+00,
782,-4.80e+00,-6.80e+00,
783,-4.00e+00,-7.20e+00,
784,-4.40e+00,-7.20e+00,
785,-3.20e+00,-6.80e+00,
786,-3.60e+00,-7.20e+00,
787,-2.80e+00,-6.80e+00,
788,-3.20e+00,-7.20e+00,
789,-2.40e+00,-6.80e+00,
790,-3.20e+00,-7.20e+00,
791,-2.00e+00,-6.80e+00,
792,-2.80e+00,-6.80e+00,
793,-2.00e+00,-7.20e+00,
794,-2.40e+00,-6.80e+00,
795,-1.60e+00,-7.20e+00,
796,-2.00e+00,-7.20e+00,
797,-1.20e+00,-6.80e+00,
798,-1.60e+00,-6.80e+00,
799,-8.00e-01,-7.20e+00,
800,-1.20e+00,-7.20e+00,
801,-4.00e-01,-6.80e+00,
802,-8.00e-01,-6.80e+00,
803,0.00e+00,-7.20e+00,
804,-8.00e-01,-6.80e+00,
805,0.00e+00,-7.20e+00,
806,-4.00e-01,-7.20e+00,
807,4.00e-01,-6.80e+00,
808,0.00e+00,-6.80e+00,
809,8.00e-01,-7.20e+00,
810,4.00e-01,-6.80e+00,
811,1.20e+00,-7.20e+00,
812,8.00e-01,-6.80e+00,
813,1.60e+00,-7.20e+00,
814,1.20e+00,-6.80e+00,
815,1.60e+00,-7.20e+00,
816,1.20e+00,-6.80e+00,
817,2.00e+00,-7.20e+00,
818,2.00e+00,-6.80e+00,
819,2.80e+00,-7.20e+00,
820,2.40e+00,-6.80e+00,
821,3.20e+00,-7.20e+00,
822,2.80e+00,-7.20e+00,
823,3.20e+00,-6.80e+00,
824,2.80e+00,-6.80e+00,
825,3.60e+00,-7.20e+00,
826,3.20e+00,-6.80e+00,
827,4.00e+00,-7.20e+00,
828,3.60e+00,-7.20e+00,
829,4.40e+00,-6.80e+00,
830,4.00e+00,-6.80e+00,
831,4.80e+00,-7.20e+00,
832,4.80e+00,-6.80e+00,
833,4.40e+00,-7.20e+00,
834,4.40e+00,-7.20e+00,
