5Te-Labor/5.2/pll_VCO/1_2V.csv

X,CH1,CH2,Start,Increment,
Sequence,Volt,Volt,-3.000000e-03,5.000000e-06
0,-4.00e-01,-7.40e+00,
1,4.00e-01,-7.00e+00,
2,4.00e-01,-7.00e+00,
3,-4.00e-01,-7.40e+00,
4,0.00e+00,-7.40e+00,
5,8.00e-01,-7.00e+00,
6,4.00e-01,-7.00e+00,
7,8.00e-01,-7.40e+00,
8,4.00e-01,-7.00e+00,
9,1.20e+00,-7.40e+00,
10,1.20e+00,-7.00e+00,
11,8.00e-01,-7.40e+00,
12,8.00e-01,-7.40e+00,
13,1.60e+00,-7.00e+00,
14,1.60e+00,-7.40e+00,
15,1.20e+00,-7.00e+00,
16,1.20e+00,-7.40e+00,
17,2.00e+00,-7.00e+00,
18,2.00e+00,-7.40e+00,
19,2.40e+00,-7.00e+00,
20,2.00e+00,-7.00e+00,
21,2.80e+00,-7.40e+00,
22,2.40e+00,-7.40e+00,
23,3.20e+00,-7.00e+00,
24,2.40e+00,-7.00e+00,
25,3.20e+00,-7.40e+00,
26,2.80e+00,-7.00e+00,
27,3.60e+00,-7.40e+00,
28,2.80e+00,-7.40e+00,
29,3.60e+00,-7.00e+00,
30,3.20e+00,-7.40e+00,
31,4.00e+00,-7.00e+00,
32,3.20e+00,-7.40e+00,
33,4.00e+00,-7.00e+00,
34,3.60e+00,-7.40e+00,
35,4.40e+00,-7.00e+00,
36,3.60e+00,-7.40e+00,
37,4.40e+00,-7.00e+00,
38,4.00e+00,-7.40e+00,
39,4.80e+00,-7.00e+00,
40,4.40e+00,-7.40e+00,
41,4.80e+00,-7.00e+00,
42,4.40e+00,-7.40e+00,
43,5.20e+00,-7.00e+00,
44,4.80e+00,-7.40e+00,
45,5.20e+00,-7.00e+00,
46,4.80e+00,-7.00e+00,
47,5.60e+00,-7.40e+00,
48,5.20e+00,-7.40e+00,
49,6.00e+00,8.60e+00,
50,5.60e+00,8.20e+00,
51,4.80e+00,8.40e+00,
52,5.20e+00,8.20e+00,
53,4.40e+00,8.40e+00,
54,4.40e+00,8.20e+00,
55,5.20e+00,8.40e+00,
56,4.80e+00,8.60e+00,
57,4.00e+00,8.20e+00,
58,4.00e+00,8.20e+00,
59,4.40e+00,8.40e+00,
60,4.40e+00,8.20e+00,
61,3.60e+00,8.60e+00,
62,3.60e+00,8.60e+00,
63,4.00e+00,8.20e+00,
64,3.20e+00,8.20e+00,
65,4.00e+00,8.60e+00,
66,3.60e+00,8.20e+00,
67,2.80e+00,8.60e+00,
68,3.20e+00,8.20e+00,
69,2.80e+00,8.60e+00,
70,3.20e+00,8.20e+00,
71,2.40e+00,8.60e+00,
72,2.40e+00,8.20e+00,
73,2.80e+00,8.60e+00,
74,2.80e+00,8.20e+00,
75,2.00e+00,8.60e+00,
76,2.00e+00,8.20e+00,
77,2.40e+00,8.60e+00,
78,2.00e+00,8.20e+00,
79,1.20e+00,8.60e+00,
80,1.60e+00,8.20e+00,
81,8.00e-01,8.60e+00,
82,1.60e+00,8.20e+00,
83,8.00e-01,8.60e+00,
84,1.20e+00,8.20e+00,
85,4.00e-01,8.60e+00,
86,1.20e+00,8.20e+00,
87,4.00e-01,8.60e+00,
88,8.00e-01,8.60e+00,
89,0.00e+00,8.20e+00,
90,0.00e+00,8.20e+00,
91,4.00e-01,8.60e+00,
92,4.00e-01,8.60e+00,
93,-4.00e-01,8.20e+00,
94,0.00e+00,8.20e+00,
95,-4.00e-01,8.60e+00,
96,0.00e+00,8.60e+00,
97,-8.00e-01,8.20e+00,
98,-8.00e-01,8.20e+00,
99,-4.00e-01,8.60e+00,
100,-4.00e-01,8.20e+00,
101,-1.20e+00,8.60e+00,
102,-8.00e-01,8.20e+00,
103,-1.60e+00,8.60e+00,
104,-1.60e+00,8.20e+00,
105,-8.00e-01,8.60e+00,
106,-1.20e+00,8.60e+00,
107,-2.00e+00,8.20e+00,
108,-1.20e+00,8.20e+00,
109,-2.00e+00,8.60e+00,
110,-1.60e+00,8.60e+00,
111,-2.40e+00,8.20e+00,
112,-1.60e+00,8.20e+00,
113,-2.40e+00,8.60e+00,
114,-2.00e+00,8.20e+00,
115,-2.80e+00,8.60e+00,
116,-2.00e+00,8.20e+00,
117,-2.80e+00,8.60e+00,
118,-2.40e+00,8.60e+00,
119,-3.20e+00,8.20e+00,
120,-3.20e+00,8.60e+00,
121,-2.80e+00,8.20e+00,
122,-2.80e+00,8.60e+00,
123,-3.60e+00,8.20e+00,
124,-3.60e+00,8.20e+00,
125,-3.20e+00,8.60e+00,
126,-3.20e+00,8.20e+00,
127,-4.40e+00,8.60e+00,
128,-4.00e+00,8.20e+00,
129,-4.40e+00,8.60e+00,
130,-4.00e+00,8.20e+00,
131,-4.80e+00,8.60e+00,
132,-4.40e+00,8.20e+00,
133,-5.20e+00,8.60e+00,
134,-4.40e+00,8.20e+00,
135,-5.20e+00,8.60e+00,
136,-4.80e+00,8.20e+00,
137,-5.60e+00,8.60e+00,
138,-4.80e+00,8.20e+00,
139,-5.60e+00,8.60e+00,
140,-5.20e+00,8.60e+00,
141,-6.00e+00,-7.40e+00,
142,-5.60e+00,-7.40e+00,
143,-4.80e+00,-7.00e+00,
144,-5.20e+00,-7.40e+00,
145,-4.40e+00,-7.00e+00,
146,-4.40e+00,-7.40e+00,
147,-5.20e+00,-7.00e+00,
148,-4.80e+00,-7.00e+00,
149,-4.00e+00,-7.40e+00,
150,-4.00e+00,-7.00e+00,
151,-4.40e+00,-7.40e+00,
152,-4.40e+00,-7.00e+00,
153,-3.20e+00,-7.40e+00,
154,-4.00e+00,-7.00e+00,
155,-3.20e+00,-7.40e+00,
156,-3.60e+00,-7.40e+00,
157,-2.80e+00,-7.00e+00,
158,-3.20e+00,-7.40e+00,
159,-2.40e+00,-7.00e+00,
160,-3.20e+00,-7.00e+00,
161,-2.40e+00,-7.40e+00,
162,-2.80e+00,-7.00e+00,
163,-2.00e+00,-7.40e+00,
164,-2.00e+00,-7.40e+00,
165,-2.80e+00,-7.00e+00,
166,-2.40e+00,-7.00e+00,
167,-1.60e+00,-7.40e+00,
168,-2.00e+00,-7.00e+00,
169,-1.60e+00,-7.40e+00,
170,-2.00e+00,-7.40e+00,
171,-1.20e+00,-7.00e+00,
172,-1.60e+00,-7.00e+00,
173,-1.20e+00,-7.40e+00,
174,-1.60e+00,-7.40e+00,
175,-8.00e-01,-7.00e+00,
176,-1.20e+00,-7.00e+00,
177,-4.00e-01,-7.40e+00,
178,-4.00e-01,-7.40e+00,
179,-1.20e+00,-7.00e+00,
180,-8.00e-01,-7.40e+00,
181,0.00e+00,-7.00e+00,
182,0.00e+00,-7.00e+00,
183,-8.00e-01,-7.40e+00,
184,-4.00e-01,-7.40e+00,
185,4.00e-01,-7.00e+00,
186,4.00e-01,-7.00e+00,
187,0.00e+00,-7.40e+00,
188,0.00e+00,-7.40e+00,
189,8.00e-01,-7.00e+00,
190,8.00e-01,-7.00e+00,
191,4.00e-01,-7.40e+00,
192,4.00e-01,-7.40e+00,
193,1.20e+00,-7.00e+00,
194,1.20e+00,-7.00e+00,
195,8.00e-01,-7.40e+00,
196,8.00e-01,-7.40e+00,
197,1.60e+00,-7.00e+00,
198,1.20e+00,-7.00e+00,
199,2.00e+00,-7.40e+00,
200,2.40e+00,-7.40e+00,
201,1.20e+00,-7.00e+00,
202,2.00e+00,-7.40e+00,
203,2.80e+00,-7.00e+00,
204,2.00e+00,-7.40e+00,
205,2.80e+00,-7.00e+00,
206,2.40e+00,-7.00e+00,
207,3.20e+00,-7.40e+00,
208,3.20e+00,-7.00e+00,
209,2.40e+00,-7.40e+00,
210,2.80e+00,-7.40e+00,
211,3.60e+00,-7.00e+00,
212,2.80e+00,-7.00e+00,
213,3.60e+00,-7.40e+00,
214,3.20e+00,-7.00e+00,
215,4.00e+00,-7.40e+00,
216,4.00e+00,-7.00e+00,
217,3.20e+00,-7.40e+00,
218,3.60e+00,-7.00e+00,
219,4.40e+00,-7.40e+00,
220,4.00e+00,-7.40e+00,
221,4.40e+00,-7.00e+00,
222,4.00e+00,-7.40e+00,
223,4.80e+00,-7.00e+00,
224,4.80e+00,-7.00e+00,
225,4.40e+00,-7.40e+00,
226,4.40e+00,-7.40e+00,
227,5.20e+00,-7.00e+00,
228,4.80e+00,-7.40e+00,
229,5.20e+00,-7.00e+00,
230,4.80e+00,-7.40e+00,
231,5.60e+00,-6.80e+00,
232,6.00e+00,-7.20e+00,
233,4.80e+00,8.60e+00,
234,5.60e+00,8.20e+00,
235,4.80e+00,8.60e+00,
236,5.20e+00,8.20e+00,
237,4.40e+00,8.60e+00,
238,5.20e+00,8.20e+00,
239,4.40e+00,8.60e+00,
240,4.80e+00,8.20e+00,
241,4.00e+00,8.60e+00,
242,4.00e+00,8.20e+00,
243,4.40e+00,8.60e+00,
244,4.40e+00,8.20e+00,
245,3.60e+00,8.60e+00,
246,4.00e+00,8.20e+00,
247,3.20e+00,8.60e+00,
248,4.00e+00,8.20e+00,
249,3.20e+00,8.60e+00,
250,3.60e+00,8.20e+00,
251,2.80e+00,8.60e+00,
252,3.20e+00,8.20e+00,
253,2.80e+00,8.60e+00,
254,3.20e+00,8.20e+00,
255,2.40e+00,8.60e+00,
256,2.40e+00,8.20e+00,
257,2.80e+00,8.60e+00,
258,2.80e+00,8.20e+00,
259,2.00e+00,8.60e+00,
260,2.00e+00,8.20e+00,
261,2.00e+00,8.60e+00,
262,2.00e+00,8.60e+00,
263,1.20e+00,8.20e+00,
264,1.60e+00,8.20e+00,
265,8.00e-01,8.60e+00,
266,1.60e+00,8.20e+00,
267,8.00e-01,8.60e+00,
268,1.20e+00,8.20e+00,
269,4.00e-01,8.60e+00,
270,8.00e-01,8.20e+00,
271,4.00e-01,8.60e+00,
272,8.00e-01,8.20e+00,
273,0.00e+00,8.60e+00,
274,4.00e-01,8.20e+00,
275,0.00e+00,8.60e+00,
276,4.00e-01,8.20e+00,
277,-4.00e-01,8.60e+00,
278,0.00e+00,8.20e+00,
279,-4.00e-01,8.60e+00,
280,0.00e+00,8.20e+00,
281,-8.00e-01,8.60e+00,
282,-4.00e-01,8.20e+00,
283,-8.00e-01,8.60e+00,
284,-1.20e+00,8.60e+00,
285,-4.00e-01,8.20e+00,
286,-8.00e-01,8.20e+00,
287,-1.60e+00,8.60e+00,
288,-8.00e-01,8.20e+00,
289,-1.60e+00,8.60e+00,
290,-1.20e+00,8.20e+00,
291,-2.00e+00,8.60e+00,
292,-1.60e+00,8.60e+00,
293,-2.00e+00,8.20e+00,
294,-1.60e+00,8.60e+00,
295,-2.40e+00,8.20e+00,
296,-2.40e+00,8.20e+00,
297,-2.00e+00,8.60e+00,
298,-2.00e+00,8.20e+00,
299,-2.80e+00,8.60e+00,
300,-2.80e+00,8.60e+00,
301,-2.40e+00,8.20e+00,
302,-3.20e+00,8.20e+00,
303,-2.40e+00,8.60e+00,
304,-3.20e+00,8.60e+00,
305,-2.80e+00,8.20e+00,
306,-3.60e+00,8.20e+00,
307,-2.80e+00,8.60e+00,
308,-3.20e+00,8.60e+00,
309,-4.00e+00,8.20e+00,
310,-4.40e+00,8.20e+00,
311,-3.20e+00,8.60e+00,
312,-4.00e+00,8.20e+00,
313,-4.80e+00,8.60e+00,
314,-4.00e+00,8.60e+00,
315,-4.80e+00,8.20e+00,
316,-4.40e+00,8.20e+00,
317,-5.20e+00,8.60e+00,
318,-4.40e+00,8.20e+00,
319,-5.20e+00,8.60e+00,
320,-4.80e+00,8.20e+00,
321,-5.60e+00,8.60e+00,
322,-4.80e+00,8.60e+00,
323,-5.60e+00,7.40e+00,
324,-5.20e+00,7.00e+00,
325,-6.00e+00,-7.40e+00,
326,-4.80e+00,-7.40e+00,
327,-5.60e+00,-7.00e+00,
328,-5.20e+00,-7.00e+00,
329,-4.40e+00,-7.40e+00,
330,-4.40e+00,-7.40e+00,
331,-5.20e+00,-7.00e+00,
332,-4.80e+00,-7.00e+00,
333,-4.00e+00,-7.40e+00,
334,-4.40e+00,-7.40e+00,
335,-4.00e+00,-7.00e+00,
336,-3.20e+00,-7.00e+00,
337,-4.40e+00,-7.40e+00,
338,-3.60e+00,-7.40e+00,
339,-2.80e+00,-7.00e+00,
340,-3.60e+00,-7.40e+00,
341,-2.80e+00,-7.00e+00,
342,-3.20e+00,-7.00e+00,
343,-2.40e+00,-7.40e+00,
344,-3.20e+00,-7.00e+00,
345,-2.40e+00,-7.40e+00,
346,-2.80e+00,-7.00e+00,
347,-2.00e+00,-7.40e+00,
348,-2.00e+00,-7.00e+00,
349,-2.40e+00,-7.40e+00,
350,-2.40e+00,-7.00e+00,
351,-1.60e+00,-7.40e+00,
352,-2.00e+00,-7.40e+00,
353,-1.60e+00,-7.00e+00,
354,-2.00e+00,-7.00e+00,
355,-1.20e+00,-7.40e+00,
356,-1.60e+00,-7.40e+00,
357,-8.00e-01,-7.00e+00,
358,-8.00e-01,-7.40e+00,
359,-1.60e+00,-7.00e+00,
360,-1.20e+00,-7.40e+00,
361,-4.00e-01,-7.00e+00,
362,-4.00e-01,-7.00e+00,
363,-1.20e+00,-7.40e+00,
364,-8.00e-01,-7.00e+00,
365,0.00e+00,-7.40e+00,
366,0.00e+00,-7.40e+00,
367,-4.00e-01,-7.00e+00,
368,-4.00e-01,-7.00e+00,
369,4.00e-01,-7.40e+00,
370,0.00e+00,-7.00e+00,
371,4.00e-01,-7.40e+00,
372,0.00e+00,-7.00e+00,
373,8.00e-01,-7.40e+00,
374,8.00e-01,-7.40e+00,
375,4.00e-01,-7.00e+00,
376,4.00e-01,-7.00e+00,
377,1.20e+00,-7.40e+00,
378,8.00e-01,-7.00e+00,
379,1.60e+00,-7.40e+00,
380,1.60e+00,-7.40e+00,
381,8.00e-01,-7.00e+00,
382,1.20e+00,-7.00e+00,
383,2.00e+00,-7.40e+00,
384,1.60e+00,-7.40e+00,
385,2.40e+00,-7.00e+00,
386,2.00e+00,-7.40e+00,
387,2.80e+00,-7.00e+00,
388,2.00e+00,-7.40e+00,
389,2.80e+00,-7.00e+00,
390,2.40e+00,-7.40e+00,
391,3.20e+00,-7.00e+00,
392,2.80e+00,-7.00e+00,
393,3.20e+00,-7.40e+00,
394,2.80e+00,-7.00e+00,
395,3.60e+00,-7.40e+00,
396,3.20e+00,-7.40e+00,
397,3.60e+00,-7.00e+00,
398,3.20e+00,-7.00e+00,
399,4.00e+00,-7.40e+00,
400,3.60e+00,-7.40e+00,
401,4.00e+00,-7.00e+00,
402,3.60e+00,-7.00e+00,
403,4.40e+00,-7.40e+00,
404,4.00e+00,-7.40e+00,
405,4.40e+00,-7.00e+00,
406,4.00e+00,-7.40e+00,
407,4.80e+00,-7.00e+00,
408,4.40e+00,-7.40e+00,
409,4.80e+00,-7.00e+00,
410,4.40e+00,-7.40e+00,
411,5.20e+00,-7.00e+00,
412,4.80e+00,-7.40e+00,
413,5.60e+00,-7.00e+00,
414,5.60e+00,-7.40e+00,
415,4.80e+00,-5.40e+00,
416,6.00e+00,-5.00e+00,
417,4.80e+00,8.60e+00,
418,5.60e+00,8.20e+00,
419,4.80e+00,8.60e+00,
420,5.20e+00,8.20e+00,
421,4.40e+00,8.60e+00,
422,4.80e+00,8.20e+00,
423,4.40e+00,8.60e+00,
424,4.80e+00,8.60e+00,
425,4.00e+00,8.20e+00,
426,4.40e+00,8.20e+00,
427,3.60e+00,8.60e+00,
428,3.60e+00,8.20e+00,
429,4.40e+00,8.60e+00,
430,4.00e+00,8.20e+00,
431,3.20e+00,8.60e+00,
432,4.00e+00,8.60e+00,
433,3.20e+00,8.20e+00,
434,3.60e+00,8.20e+00,
435,2.80e+00,8.60e+00,
436,2.80e+00,8.60e+00,
437,3.20e+00,8.20e+00,
438,3.20e+00,8.20e+00,
439,2.40e+00,8.60e+00,
440,2.80e+00,8.20e+00,
441,2.00e+00,8.60e+00,
442,2.40e+00,8.20e+00,
443,2.00e+00,8.60e+00,
444,2.40e+00,8.20e+00,
445,1.60e+00,8.60e+00,
446,2.00e+00,8.20e+00,
447,1.20e+00,8.60e+00,
448,1.60e+00,8.20e+00,
449,8.00e-01,8.60e+00,
450,1.20e+00,8.20e+00,
451,8.00e-01,8.60e+00,
452,1.20e+00,8.60e+00,
453,4.00e-01,8.20e+00,
454,8.00e-01,8.20e+00,
455,4.00e-01,8.60e+00,
456,8.00e-01,8.20e+00,
457,0.00e+00,8.60e+00,
458,4.00e-01,8.20e+00,
459,0.00e+00,8.60e+00,
460,4.00e-01,8.20e+00,
461,-4.00e-01,8.60e+00,
462,0.00e+00,8.20e+00,
463,-8.00e-01,8.60e+00,
464,0.00e+00,8.20e+00,
465,-8.00e-01,8.60e+00,
466,-4.00e-01,8.20e+00,
467,-1.20e+00,8.60e+00,
468,-4.00e-01,8.20e+00,
469,-1.20e+00,8.60e+00,
470,-8.00e-01,8.20e+00,
471,-1.60e+00,8.60e+00,
472,-8.00e-01,8.20e+00,
473,-1.60e+00,8.60e+00,
474,-1.20e+00,8.20e+00,
475,-2.00e+00,8.60e+00,
476,-1.60e+00,8.60e+00,
477,-2.00e+00,8.20e+00,
478,-1.60e+00,8.20e+00,
479,-2.40e+00,8.60e+00,
480,-2.40e+00,8.20e+00,
481,-2.00e+00,8.60e+00,
482,-2.00e+00,8.20e+00,
483,-2.80e+00,8.60e+00,
484,-2.40e+00,8.20e+00,
485,-3.20e+00,8.60e+00,
486,-3.20e+00,8.60e+00,
487,-2.40e+00,8.20e+00,
488,-2.80e+00,8.60e+00,
489,-3.60e+00,8.20e+00,
490,-3.60e+00,8.20e+00,
491,-2.80e+00,8.60e+00,
492,-3.20e+00,8.20e+00,
493,-4.00e+00,8.60e+00,
494,-3.60e+00,8.20e+00,
495,-4.00e+00,8.60e+00,
496,-4.00e+00,8.20e+00,
497,-4.80e+00,8.60e+00,
498,-4.00e+00,8.20e+00,
499,-4.80e+00,8.60e+00,
500,-4.40e+00,8.20e+00,
501,-5.20e+00,8.60e+00,
502,-4.40e+00,8.20e+00,
503,-5.20e+00,8.60e+00,
504,-4.80e+00,8.20e+00,
505,-5.60e+00,8.60e+00,
506,-4.80e+00,8.60e+00,
507,-5.60e+00,2.40e+00,
508,-6.00e+00,2.40e+00,
509,-4.80e+00,-7.40e+00,
510,-5.60e+00,-7.40e+00,
511,-4.80e+00,-7.00e+00,
512,-5.20e+00,-7.00e+00,
513,-4.40e+00,-7.40e+00,
514,-5.20e+00,-7.40e+00,
515,-4.40e+00,-7.00e+00,
516,-4.80e+00,-7.00e+00,
517,-4.00e+00,-7.40e+00,
518,-4.40e+00,-7.00e+00,
519,-3.60e+00,-7.40e+00,
520,-4.40e+00,-7.40e+00,
521,-3.20e+00,-7.00e+00,
522,-3.60e+00,-7.00e+00,
523,-2.80e+00,-7.40e+00,
524,-3.60e+00,-7.00e+00,
525,-2.80e+00,-7.40e+00,
526,-3.20e+00,-7.00e+00,
527,-2.40e+00,-7.40e+00,
528,-3.20e+00,-7.40e+00,
529,-2.40e+00,-7.00e+00,
530,-2.80e+00,-7.00e+00,
531,-2.00e+00,-7.40e+00,
532,-2.00e+00,-7.00e+00,
533,-2.40e+00,-7.40e+00,
534,-2.40e+00,-7.00e+00,
535,-1.60e+00,-7.40e+00,
536,-2.00e+00,-7.00e+00,
537,-1.20e+00,-7.40e+00,
538,-2.00e+00,-7.00e+00,
539,-1.20e+00,-7.40e+00,
540,-1.60e+00,-7.00e+00,
541,-8.00e-01,-7.40e+00,
542,-1.60e+00,-7.40e+00,
543,-8.00e-01,-7.00e+00,
544,-1.20e+00,-7.00e+00,
545,-4.00e-01,-7.40e+00,
546,-8.00e-01,-7.40e+00,
547,-4.00e-01,-7.00e+00,
548,-8.00e-01,-7.40e+00,
549,0.00e+00,-7.00e+00,
550,0.00e+00,-7.00e+00,
551,-4.00e-01,-7.40e+00,
552,-4.00e-01,-7.40e+00,
553,4.00e-01,-7.00e+00,
554,4.00e-01,-7.40e+00,
555,0.00e+00,-7.00e+00,
556,0.00e+00,-7.00e+00,
557,8.00e-01,-7.40e+00,
558,4.00e-01,-7.40e+00,
559,1.20e+00,-7.00e+00,
560,1.20e+00,-7.40e+00,
561,4.00e-01,-7.00e+00,
562,8.00e-01,-7.00e+00,
563,1.60e+00,-7.40e+00,
564,1.60e+00,-7.00e+00,
565,8.00e-01,-7.40e+00,
566,1.20e+00,-7.00e+00,
567,2.00e+00,-7.40e+00,
568,2.00e+00,-7.00e+00,
569,2.00e+00,-7.40e+00,
570,2.00e+00,-7.40e+00,
571,2.80e+00,-7.00e+00,
572,2.40e+00,-7.40e+00,
573,2.80e+00,-7.00e+00,
574,2.40e+00,-7.40e+00,
575,3.20e+00,-7.00e+00,
576,3.20e+00,-7.40e+00,
577,2.80e+00,-7.00e+00,
578,2.80e+00,-7.40e+00,
579,3.60e+00,-7.00e+00,
580,3.20e+00,-7.00e+00,
581,3.60e+00,-7.40e+00,
582,3.20e+00,-7.00e+00,
583,4.00e+00,-7.40e+00,
584,3.60e+00,-7.40e+00,
585,4.00e+00,-7.00e+00,
586,4.40e+00,-7.00e+00,
587,3.60e+00,-7.40e+00,
588,4.00e+00,-7.40e+00,
589,4.80e+00,-7.00e+00,
590,4.80e+00,-7.00e+00,
591,4.00e+00,-7.40e+00,
592,4.40e+00,-7.40e+00,
593,5.20e+00,-7.00e+00,
594,5.20e+00,-7.40e+00,
595,4.40e+00,-7.00e+00,
596,4.80e+00,-7.40e+00,
597,5.60e+00,-7.00e+00,
598,5.60e+00,-7.40e+00,
599,4.80e+00,-4.00e-01,
600,6.00e+00,2.00e-01,
601,4.80e+00,8.60e+00,
602,4.80e+00,8.20e+00,
603,5.60e+00,8.60e+00,
604,5.20e+00,8.20e+00,
605,4.40e+00,8.60e+00,
606,4.80e+00,8.20e+00,
607,4.40e+00,8.60e+00,
608,4.80e+00,8.20e+00,
609,4.00e+00,8.60e+00,
610,4.40e+00,8.20e+00,
611,3.60e+00,8.60e+00,
612,4.40e+00,8.20e+00,
613,3.60e+00,8.60e+00,
614,4.00e+00,8.20e+00,
615,3.20e+00,8.60e+00,
616,3.20e+00,8.20e+00,
617,3.60e+00,8.60e+00,
618,3.60e+00,8.20e+00,
619,2.80e+00,8.60e+00,
620,2.80e+00,8.20e+00,
621,3.20e+00,8.60e+00,
622,2.40e+00,8.20e+00,
623,3.20e+00,8.60e+00,
624,2.80e+00,8.20e+00,
625,2.00e+00,8.60e+00,
626,2.00e+00,8.20e+00,
627,2.80e+00,8.60e+00,
628,2.40e+00,8.60e+00,
629,1.20e+00,8.20e+00,
630,2.00e+00,8.20e+00,
631,1.20e+00,8.60e+00,
632,1.60e+00,8.20e+00,
633,8.00e-01,8.60e+00,
634,1.20e+00,8.20e+00,
635,8.00e-01,8.60e+00,
636,1.20e+00,8.20e+00,
637,4.00e-01,8.60e+00,
638,8.00e-01,8.60e+00,
639,4.00e-01,8.20e+00,
640,8.00e-01,8.20e+00,
641,0.00e+00,8.60e+00,
642,4.00e-01,8.20e+00,
643,-4.00e-01,8.60e+00,
644,4.00e-01,8.60e+00,
645,-4.00e-01,8.20e+00,
646,0.00e+00,8.20e+00,
647,-8.00e-01,8.60e+00,
648,0.00e+00,8.20e+00,
649,-8.00e-01,8.60e+00,
650,-4.00e-01,8.20e+00,
651,-1.20e+00,8.60e+00,
652,-1.20e+00,8.20e+00,
653,-8.00e-01,8.60e+00,
654,-8.00e-01,8.20e+00,
655,-1.60e+00,8.60e+00,
656,-1.20e+00,8.20e+00,
657,-1.60e+00,8.60e+00,
658,-1.20e+00,8.20e+00,
659,-2.00e+00,8.60e+00,
660,-1.60e+00,8.20e+00,
661,-2.00e+00,8.60e+00,
662,-1.60e+00,8.20e+00,
663,-2.40e+00,8.60e+00,
664,-2.00e+00,8.20e+00,
665,-2.40e+00,8.60e+00,
666,-2.00e+00,8.20e+00,
667,-2.80e+00,8.60e+00,
668,-2.40e+00,8.20e+00,
669,-3.20e+00,8.60e+00,
670,-3.20e+00,8.20e+00,
671,-2.40e+00,8.60e+00,
672,-2.80e+00,8.60e+00,
673,-3.60e+00,8.20e+00,
674,-3.60e+00,8.20e+00,
675,-2.80e+00,8.60e+00,
676,-3.20e+00,8.60e+00,
677,-4.40e+00,8.20e+00,
678,-3.60e+00,8.20e+00,
679,-4.40e+00,8.60e+00,
680,-4.00e+00,8.20e+00,
681,-4.80e+00,8.60e+00,
682,-4.00e+00,8.20e+00,
683,-4.80e+00,8.60e+00,
684,-4.40e+00,8.20e+00,
685,-5.20e+00,8.60e+00,
686,-4.40e+00,8.60e+00,
687,-5.20e+00,8.20e+00,
688,-4.80e+00,8.60e+00,
689,-5.60e+00,8.20e+00,
690,-4.80e+00,8.60e+00,
691,-6.00e+00,-4.60e+00,
692,-5.60e+00,-4.60e+00,
693,-4.80e+00,-7.40e+00,
694,-4.80e+00,-7.00e+00,
695,-5.60e+00,-7.40e+00,
696,-5.20e+00,-7.00e+00,
697,-4.40e+00,-7.40e+00,
698,-4.40e+00,-7.40e+00,
699,-5.20e+00,-7.00e+00,
700,-4.00e+00,-7.00e+00,
701,-4.80e+00,-7.40e+00,
702,-3.60e+00,-7.00e+00,
703,-4.40e+00,-7.40e+00,
704,-3.20e+00,-7.40e+00,
705,-4.00e+00,-7.00e+00,
706,-3.60e+00,-7.40e+00,
707,-2.80e+00,-7.00e+00,
708,-3.60e+00,-7.40e+00,
709,-2.80e+00,-7.00e+00,
710,-3.20e+00,-7.40e+00,
711,-2.40e+00,-7.00e+00,
712,-2.80e+00,-7.40e+00,
713,-2.40e+00,-7.00e+00,
714,-2.80e+00,-7.00e+00,
715,-2.00e+00,-7.40e+00,
716,-2.00e+00,-7.40e+00,
717,-2.40e+00,-7.00e+00,
718,-1.60e+00,-7.00e+00,
719,-2.40e+00,-7.40e+00,
720,-2.00e+00,-7.00e+00,
721,-1.20e+00,-7.40e+00,
722,-2.00e+00,-7.00e+00,
723,-1.20e+00,-7.40e+00,
724,-1.60e+00,-7.00e+00,
725,-8.00e-01,-7.40e+00,
726,-8.00e-01,-7.00e+00,
727,-1.20e+00,-7.40e+00,
728,-1.20e+00,-7.00e+00,
729,-4.00e-01,-7.40e+00,
730,-8.00e-01,-7.40e+00,
731,-4.00e-01,-7.00e+00,
732,-8.00e-01,-7.00e+00,
733,0.00e+00,-7.40e+00,
734,0.00e+00,-7.40e+00,
735,-4.00e-01,-7.00e+00,
736,-4.00e-01,-7.00e+00,
737,4.00e-01,-7.40e+00,
738,0.00e+00,-7.00e+00,
739,8.00e-01,-7.40e+00,
740,0.00e+00,-7.40e+00,
741,8.00e-01,-7.00e+00,
742,4.00e-01,-7.40e+00,
743,1.20e+00,-7.00e+00,
744,4.00e-01,-7.00e+00,
745,1.20e+00,-7.40e+00,
746,8.00e-01,-7.40e+00,
747,1.60e+00,-7.00e+00,
748,1.20e+00,-7.40e+00,
749,1.60e+00,-7.00e+00,
750,1.20e+00,-7.40e+00,
751,2.40e+00,-7.00e+00,
752,2.00e+00,-7.40e+00,
753,2.00e+00,-7.00e+00,
754,2.00e+00,-7.40e+00,
755,2.80e+00,-7.00e+00,
756,2.40e+00,-7.40e+00,
757,2.80e+00,-7.00e+00,
758,2.40e+00,-7.00e+00,
759,3.20e+00,-7.40e+00,
760,2.80e+00,-7.40e+00,
761,3.20e+00,-7.00e+00,
762,2.80e+00,-7.00e+00,
763,3.60e+00,-7.40e+00,
764,3.20e+00,-7.40e+00,
765,4.00e+00,-7.00e+00,
766,4.00e+00,-7.40e+00,
767,3.20e+00,-7.00e+00,
768,3.60e+00,-7.40e+00,
769,4.40e+00,-7.00e+00,
770,4.40e+00,-7.00e+00,
771,3.60e+00,-7.40e+00,
772,4.00e+00,-7.40e+00,
773,4.80e+00,-7.00e+00,
774,4.00e+00,-7.00e+00,
775,4.80e+00,-7.40e+00,
776,4.40e+00,-7.40e+00,
777,5.20e+00,-7.00e+00,
778,5.20e+00,-7.40e+00,
779,4.40e+00,-7.00e+00,
780,4.80e+00,-7.40e+00,
781,5.60e+00,-7.00e+00,
782,4.80e+00,-7.40e+00,
783,6.00e+00,6.40e+00,
784,5.60e+00,6.60e+00,
785,4.80e+00,8.60e+00,
786,5.20e+00,8.20e+00,
787,4.80e+00,8.60e+00,
788,5.20e+00,8.60e+00,
789,4.40e+00,8.20e+00,
790,4.80e+00,8.20e+00,
791,4.00e+00,8.60e+00,
792,4.80e+00,8.20e+00,
793,4.00e+00,8.60e+00,
794,4.40e+00,8.20e+00,
795,3.60e+00,8.60e+00,
796,4.40e+00,8.20e+00,
797,3.60e+00,8.60e+00,
798,4.00e+00,8.20e+00,
799,3.20e+00,8.60e+00,
800,3.20e+00,8.20e+00,
801,3.60e+00,8.60e+00,
802,3.60e+00,8.20e+00,
803,2.80e+00,8.60e+00,
804,3.20e+00,8.20e+00,
805,2.40e+00,8.60e+00,
806,3.20e+00,8.20e+00,
807,2.40e+00,8.60e+00,
808,2.80e+00,8.20e+00,
809,2.00e+00,8.60e+00,
810,2.40e+00,8.20e+00,
811,2.00e+00,8.60e+00,
812,2.40e+00,8.20e+00,
813,1.20e+00,8.60e+00,
814,1.60e+00,8.20e+00,
815,1.20e+00,8.60e+00,
816,1.60e+00,8.20e+00,
817,8.00e-01,8.60e+00,
818,1.20e+00,8.20e+00,
819,8.00e-01,8.60e+00,
820,1.20e+00,8.20e+00,
821,4.00e-01,8.60e+00,
822,8.00e-01,8.60e+00,
823,0.00e+00,8.20e+00,
824,8.00e-01,8.60e+00,
825,0.00e+00,8.20e+00,
826,4.00e-01,8.20e+00,
827,-4.00e-01,8.60e+00,
828,4.00e-01,8.20e+00,
829,-4.00e-01,8.60e+00,
830,0.00e+00,8.60e+00,
831,-8.00e-01,8.20e+00,
832,-8.00e-01,8.60e+00,
833,0.00e+00,8.20e+00,
834,-4.00e-01,8.20e+00,
835,-1.20e+00,8.60e+00,
836,-8.00e-01,8.20e+00,
