4Te_Labor/4.2/NE555_einstellbare_tastgrad/Ne555_variable_2_2.csv

#Digilent WaveForms Oscilloscope Acquisition
#Device Name: Discovery2
#Serial Number: SN:210321AA2AFF
#Date Time: 2024-01-16 21:13:33.901
#Sample rate: 1.25e+07Hz
#Samples: 8192
#Trigger: Source: Channel 2 Type: Edge Condition: Rising Level: 2 V Hyst.: 0 V HoldOff: 0 s
#Channel 1: Range: 5 V/div Offset: 0 V Attenuation: 1 X Sample Mode: Average
#Channel 2: Range: 5 V/div Offset: 0 V Attenuation: 1 X Sample Mode: Average

Time (s),Channel 1 (V),Channel 2 (V)
-0.0005299667755102041,5.390737859943409,11.40792687065513
-0.000529886775510204,5.40188052501412,11.40792687065513
-0.0005298067755102041,5.413023190084815,11.40792687065513
-0.0005297267755102041,5.420451633465277,11.40792687065513
-0.0005296467755102041,5.427880076845755,11.40048362384988
-0.0005295667755102041,5.442736963606683,11.40792687065513
-0.000529486775510204,5.725017812064297,11.41164849405776
-0.0005294067755102041,5.546735170933125,11.41537011746038
-0.0005293267755102041,5.312739204448497,11.41909174086301
-0.000529246775510204,5.2421689923341,11.41164849405776
-0.0005291667755102041,5.346167199660602,11.41164849405776
-0.000529086775510204,5.535592505862625,11.41537011746038
-0.0005290067755102041,5.639590713189068,11.41164849405776
-0.0005289267755102041,5.613591161357443,11.41537011746038
-0.000528846775510204,5.513307175721067,11.40792687065513
-0.0005287667755102041,5.446451185296919,11.41164849405775
-0.0005286867755102041,5.450165406987149,11.40792687065513
-0.0005286067755102041,5.513307175721161,11.40048362384988
-0.0005285267755102041,5.587591609525806,11.39676200044725
-0.000528446775510204,5.613591161357429,11.39676200044725
-0.0005283667755102041,5.598734274596495,11.39304037704463
-0.0005282867755102041,5.57273472276487,11.39304037704463
-0.000528206775510204,5.550449392623476,11.39676200044725
-0.0005281267755102041,5.561592057694168,11.39304037704463
-0.0005280467755102041,5.587591609525794,11.39304037704463
-0.0005279667755102041,5.617305383047686,11.39676200044725
-0.0005278867755102041,5.639590713189079,11.389318753642
-0.000527806775510204,5.647019156569538,11.38931875364201
-0.0005277267755102041,5.63587649149884,11.39676200044725
-0.0005276467755102041,5.624733826428145,11.39676200044725
-0.0005275667755102041,5.632162269808619,11.40048362384988
-0.0005274867755102041,5.647019156569548,11.39676200044725
-0.000527406775510204,5.665590265020731,11.40420524725251
-0.0005273267755102041,5.680447151781657,11.40420524725251
-0.0005272467755102041,5.68787559516212,11.40420524725251
-0.000527166775510204,5.342452977970993,11.39676200044726
-0.0005270867755102041,6.029583990663489,11.40420524725251
-0.0005270067755102041,5.699018260232973,11.40420524725251
-0.0005269267755102041,5.60616271797709,11.40420524725251
-0.0005268467755102041,5.85872979291288,11.40792687065513
-0.000526766775510204,5.624733826428337,11.40420524725251
-0.0005266867755102041,5.836444462771416,11.40792687065513
-0.0005266067755102041,5.702732481923056,11.40048362384988
-0.000526526775510204,5.777016915727721,11.4042052472525
-0.0005264467755102041,5.762160028966798,11.40048362384988
-0.000526366775510204,5.762160028966819,11.40048362384988
-0.0005262867755102041,5.784445359108202,11.40048362384988
-0.0005262067755102041,5.784445359108202,11.40420524725251
-0.000526126775510204,5.788159580798456,11.40420524725251
-0.0005260467755102041,5.810444910939838,11.40792687065513
-0.0005259667755102041,5.806730689249605,11.40792687065513
-0.0005258867755102041,5.825301797700773,11.40792687065513
-0.0005258067755102041,5.821587576010541,11.40792687065513
-0.000525726775510204,5.829016019391026,11.41164849405776
-0.0005256467755102041,5.847587127842171,11.41164849405775
-0.0005255667755102041,5.832730241081243,11.40420524725251
-0.000525486775510204,5.851301349532419,11.40420524725251
-0.0005254067755102041,5.85872979291288,11.40420524725251
-0.0005253267755102041,5.866158236293344,11.40048362384988
-0.0005252467755102041,5.881015123054279,11.40048362384988
-0.0005251667755102041,5.873586679673815,11.40048362384988
-0.000525086775510204,5.892157788124992,11.40048362384988
-0.0005250067755102041,5.899586231505459,11.40048362384988
-0.0005249267755102041,5.914443118266388,11.40420524725251
-0.0005248467755102041,5.91444311826639,11.4042052472525
-0.0005247667755102041,5.918157339956622,11.40048362384988
-0.000524686775510204,5.933014226717558,11.40048362384988
-0.0005246067755102041,5.933014226717565,11.40420524725251
-0.0005245267755102041,5.947871113478493,11.40420524725251
-0.000524446775510204,5.955299556858974,11.39676200044726
-0.0005243667755102041,5.970156443619895,11.40048362384988
-0.0005242867755102041,5.966442221929665,11.39304037704463
-0.0005242067755102041,5.981299108690602,11.38931875364201
-0.0005241267755102041,5.988727552071066,11.40048362384988
-0.000524046775510204,5.996155995451544,11.39676200044726
-0.0005239667755102041,6.007298660522236,11.4042052472525
-0.0005238867755102041,6.007298660522236,11.39676200044725
-0.000523806775510204,6.018441325592945,11.39304037704463
-0.0005237267755102041,6.025869768973405,11.39676200044725
-0.0005236467755102041,6.03329821235387,11.39676200044725
-0.0005235667755102041,6.040726655734344,11.40048362384988
-0.0005234867755102041,6.048155099114808,11.40048362384988
-0.000523406775510204,6.05558354249528,11.40048362384988
-0.0005233267755102041,6.059297764185514,11.39676200044726
-0.0005232467755102041,6.066726207565978,11.40420524725251
-0.0005231667755102041,6.077868872636682,11.4042052472525
-0.0005230867755102041,6.081583094326914,11.40048362384988
-0.000523006775510204,6.092725759397623,11.40420524725251
-0.0005229267755102041,6.10015420277809,11.41164849405775
-0.0005228467755102041,6.115011089539019,11.40792687065513
-0.000522766775510204,6.118725311229253,11.41164849405776
-0.0005226867755102041,6.11872531122926,11.41164849405775
-0.0005226067755102041,6.133582197990181,11.40792687065513
-0.0005225267755102041,6.137296419680426,11.41164849405775
-0.0005224467755102041,6.14472486306089,11.40792687065513
-0.000522366775510204,6.1447248630609,11.41164849405775
-0.0005222867755102041,6.155867528131595,11.40792687065513
-0.0005222067755102041,6.16329597151206,11.40792687065513
-0.000522126775510204,6.174438636582765,11.40420524725251
-0.0005220467755102041,6.181867079963229,11.41164849405776
-0.000521966775510204,6.18558130165347,11.40420524725251
-0.0005218867755102041,6.193009745033934,11.40420524725251
-0.0005218067755102041,6.200438188414399,11.40420524725251
-0.000521726775510204,6.207866631794876,11.40420524725251
-0.0005216467755102041,6.219009296865572,11.40792687065513
-0.0005215667755102041,6.226437740246032,11.40792687065513
-0.0005214867755102041,6.237580405316738,11.41164849405775
-0.0005214067755102041,6.237580405316738,11.40420524725251
-0.000521326775510204,6.245008848697215,11.40420524725251
-0.0005212467755102041,6.256151513767909,11.40420524725251
-0.0005211667755102041,6.259865735458141,11.40792687065513
-0.000521086775510204,6.263579957148385,11.40792687065513
-0.0005210067755102041,6.274722622219077,11.40420524725251
-0.0005209267755102041,6.278436843909309,11.40792687065513
-0.0005208467755102041,6.297007952360478,11.40048362384989
-0.0005207667755102041,6.293293730670246,11.41164849405776
-0.000520686775510204,6.304436395740957,11.40420524725251
-0.0005206067755102041,6.315579060811651,11.40420524725251
-0.0005205267755102041,6.319293282501883,11.40420524725251
-0.0005204467755102041,6.323007504192119,11.40420524725251
-0.0005203667755102041,6.326721725882351,11.41164849405776
-0.000520286775510204,6.33786439095306,11.40792687065513
-0.0005202067755102041,6.345292834333529,11.40792687065513
-0.0005201267755102041,6.36386394278469,11.41164849405776
-0.000520046775510204,6.363863942784697,11.40420524725251
-0.0005199667755102041,6.371292386165163,11.40792687065513
-0.0005198867755102041,6.382435051235854,11.40048362384988
-0.0005198067755102041,6.386149272926095,11.40048362384989
-0.0005197267755102041,6.389863494616328,11.41164849405776
-0.000519646775510204,6.397291937996815,11.40420524725251
-0.0005195667755102041,6.419577268138207,11.4042052472525
-0.0005194867755102041,6.438148376589368,11.40048362384988
-0.000519406775510204,6.434434154899121,11.40048362384989
-0.0005193267755102041,6.419577268138198,11.40792687065513
-0.000519246775510204,6.404720381377266,11.41164849405776
-0.0005191667755102041,6.408434603067501,11.41537011746038
-0.0005190867755102041,6.415863046447964,11.41164849405776
-0.000519006775510204,6.441862598279615,11.41537011746038
-0.0005189267755102041,6.456719485040541,11.41537011746038
-0.0005188467755102041,6.464147928421002,11.40420524725251
-0.0005187667755102041,6.479004815181947,11.41164849405776
-0.0005186867755102041,6.493861701942876,11.41164849405776
-0.000518606775510204,6.471576371801497,11.39676200044726
-0.0005185267755102041,6.497575923633108,11.40420524725251
-0.0005184467755102041,6.493861701942876,11.40420524725251
-0.000518366775510204,6.501290145323354,11.40792687065513
-0.0005182867755102041,6.512432810394046,11.40792687065513
-0.0005182067755102041,6.512432810394046,11.40792687065513
-0.0005181267755102041,6.534718140535454,11.40420524725251
-0.0005180467755102041,6.545860805606151,11.40420524725251
-0.000517966775510204,6.553289248986611,11.40420524725251
-0.0005178867755102041,6.545860805606146,11.41164849405775
-0.0005178067755102041,6.534718140535449,11.40792687065513
-0.0005177267755102041,6.542146583915926,11.41164849405775
-0.0005176467755102041,6.560717692367087,11.40420524725251
-0.000517566775510204,6.568146135747564,11.40792687065513
-0.0005174867755102041,6.579288800818262,11.40420524725251
-0.0005174067755102041,6.590431465888957,11.40420524725251
-0.000517326775510204,6.586717244198744,11.40792687065513
-0.0005172467755102041,6.609002574340138,11.40792687065513
-0.0005171667755102041,6.635002126171753,11.41164849405775
-0.0005170867755102041,6.612716796030371,11.40420524725251
-0.0005170067755102041,6.635002126171765,11.40420524725251
-0.000516926775510204,6.635002126171765,11.41164849405775
-0.0005168467755102041,6.635002126171768,11.40420524725251
-0.0005167667755102041,6.642430569552232,11.40792687065513
-0.000516686775510204,6.657287456313171,11.40420524725251
-0.0005166067755102041,6.661001678003402,11.40792687065513
-0.000516526775510204,6.675858564764337,11.41164849405776
-0.0005164467755102041,6.675858564764336,11.419091740863
-0.0005163667755102041,6.672144343074104,11.41164849405776
-0.000516286775510204,6.672144343074104,11.40792687065513
-0.0005162067755102041,6.672144343074109,11.40792687065513
-0.0005161267755102041,6.683287008144805,11.41537011746038
-0.0005160467755102041,6.698143894905746,11.40792687065512
-0.0005159667755102041,6.709286559976443,11.39676200044725
-0.000515886775510204,6.713000781666683,11.40792687065513
-0.0005158067755102041,6.720429225047149,11.41164849405775
-0.0005157267755102041,6.731571890117846,11.40420524725251
-0.000515646775510204,6.739000333498306,11.40420524725251
-0.0005155667755102041,6.731571890117846,11.40420524725251
-0.0005154867755102041,6.753857220259239,11.40792687065513
-0.0005154067755102041,6.750142998569021,11.40792687065513
-0.0005153267755102041,6.761285663639717,11.40792687065513
-0.000515246775510204,6.779856772090897,11.40048362384988
-0.0005151667755102041,6.790999437161586,11.4042052472525
-0.0005150867755102041,6.787285215471354,11.40048362384988
-0.000515006775510204,6.794713658851822,11.40048362384989
-0.0005149267755102041,6.794713658851822,11.41164849405776
-0.000514846775510204,6.790999437161601,11.41164849405775
-0.0005147667755102041,6.805856323922527,11.40420524725251
-0.0005146867755102041,6.813284767302991,11.41164849405776
-0.000514606775510204,6.820713210683469,11.40420524725251
-0.0005145267755102041,6.831855875754163,11.41164849405776
-0.0005144467755102041,6.835570097444394,11.41164849405776
-0.0005143667755102041,6.842998540824863,11.40792687065513
-0.0005142867755102041,6.842998540824863,11.40792687065513
-0.000514206775510204,6.861569649276039,11.40792687065513
-0.0005141267755102041,6.868998092656494,11.40792687065513
-0.0005140467755102041,6.857855427585799,11.40420524725251
-0.000513966775510204,6.876426536036975,11.40792687065513
-0.0005138867755102041,6.883854979417436,11.41164849405776
-0.0005138067755102041,6.8912834227979,11.40420524725251
-0.0005137267755102041,6.898711866178373,11.40792687065513
-0.0005136467755102041,6.902426087868605,11.40420524725251
-0.000513566775510204,6.90985453124908,11.40792687065513
-0.0005134867755102041,6.917282974629539,11.40420524725251
-0.0005134067755102041,6.913568752939307,11.41537011746038
-0.0005133267755102041,6.917282974629546,11.4042052472525
-0.0005132467755102041,6.928425639700243,11.40048362384988
-0.000513166775510204,6.93585408308071,11.40420524725251
-0.0005130867755102041,6.935854083080714,11.4042052472525
-0.0005130067755102041,6.943282526461178,11.40048362384988
-0.000512926775510204,6.954425191531883,11.40792687065513
-0.0005128467755102041,6.958139413222117,11.40420524725251
-0.0005127667755102041,6.965567856602578,11.40420524725251
-0.0005126867755102041,6.976710521673285,11.39304037704463
-0.0005126067755102041,6.980424743363517,11.39304037704463
-0.000512526775510204,6.984138965053765,11.39676200044725
-0.0005124467755102041,6.998995851814686,11.39676200044726
-0.0005123667755102041,6.998995851814686,11.40048362384988
-0.000512286775510204,7.01013851688539,11.40048362384988
-0.0005122067755102041,7.013852738575622,11.40420524725251
-0.000512126775510204,7.021281181956094,11.40048362384988
-0.0005120467755102041,7.024995403646322,11.4042052472525
-0.0005119667755102041,7.02128118195609,11.40048362384988
-0.000511886775510204,7.039852290407263,11.39304037704464
-0.0005118067755102041,7.043566512097495,11.40420524725251
-0.0005117267755102041,7.047280733787725,11.40420524725251
-0.0005116467755102041,7.054709177168198,11.40048362384988
-0.0005115667755102041,7.062137620548663,11.40048362384988
-0.000511486775510204,7.069566063929138,11.40420524725251
-0.0005114067755102041,7.076994507309604,11.40420524725251
-0.0005113267755102041,7.0881371723803,11.40420524725251
-0.000511246775510204,7.095565615760768,11.40048362384988
-0.0005111667755102041,7.095565615760768,11.40420524725251
-0.0005110867755102041,7.106708280831464,11.40048362384988
-0.0005110067755102041,7.114136724211938,11.40420524725251
-0.0005109267755102041,7.114136724211938,11.40420524725251
-0.000510846775510204,7.125279389282646,11.40420524725251
-0.0005107667755102041,7.132707832663105,11.40792687065513
-0.0005106867755102041,7.128993610972873,11.40792687065513
-0.0005106067755102041,7.14756471942404,11.40792687065513
-0.0005105267755102041,7.143850497733808,11.40420524725251
-0.000510446775510204,7.143850497733812,11.4042052472525
-0.0005103667755102041,7.147564719424046,11.40048362384988
-0.0005102867755102041,7.15499316280451,11.40420524725251
-0.000510206775510204,7.162421606184985,11.40420524725251
-0.0005101267755102041,7.16985004956545,11.4042052472525
-0.0005100467755102041,7.17727849294591,11.40048362384988
-0.0005099667755102041,7.188421158016619,11.41164849405775
-0.0005098867755102041,7.195849601397083,11.40792687065513
-0.000509806775510204,7.203278044777554,11.40792687065513
-0.0005097267755102041,7.206992266467789,11.40792687065513
-0.0005096467755102041,7.214420709848253,11.41164849405776
-0.000509566775510204,7.225563374918962,11.41537011746038
-0.0005094867755102041,7.232991818299422,11.41537011746038
-0.000509406775510204,7.229277596609202,11.41164849405776
-0.0005093267755102041,7.244134483370122,11.41164849405776
-0.0005092467755102041,7.24042026167989,11.41164849405776
-0.000509166775510204,7.247848705060368,11.41537011746037
-0.0005090867755102041,7.258991370131061,11.40792687065513
-0.0005090067755102041,7.262705591821294,11.40048362384988
-0.0005089267755102041,7.266419813511529,11.40792687065513
-0.0005088467755102041,7.270134035201761,11.40792687065513
-0.000508766775510204,7.277562478582232,11.40420524725251
-0.0005086867755102041,7.281276700272467,11.40792687065513
-0.0005086067755102041,7.288705143652931,11.40048362384988
-0.000508526775510204,7.292419365343171,11.40048362384988
-0.0005084467755102041,7.299847808723633,11.40420524725251
-0.0005083667755102041,7.307276252104097,11.40048362384988
-0.0005082867755102041,7.310990473794337,11.39676200044725
-0.0005082067755102041,7.318418917174802,11.39676200044725
-0.000508126775510204,7.325847360555279,11.40048362384988
-0.0005080467755102041,7.336990025625973,11.39676200044726
-0.0005079667755102041,7.340704247316205,11.40048362384988
-0.0005078867755102041,7.348132690696673,11.39676200044725
-0.0005078067755102041,7.348132690696673,11.39304037704463
-0.000507726775510204,7.362989577457602,11.40048362384988
-0.0005076467755102041,7.355561134077147,11.4042052472525
-0.0005075667755102041,7.366703799147842,11.39676200044725
-0.000507486775510204,7.366703799147852,11.40792687065512
-0.0005074067755102041,7.37784646421855,11.39676200044726
-0.0005073267755102041,7.38898912928924,11.4042052472525
-0.0005072467755102041,7.392703350979482,11.40048362384988
-0.0005071667755102041,7.396417572669714,11.40048362384988
-0.000507086775510204,7.403846016050191,11.40048362384988
-0.0005070067755102041,7.414988681120883,11.40048362384988
-0.0005069267755102041,7.414988681120883,11.40792687065513
-0.000506846775510204,7.422417124501354,11.4042052472525
-0.0005067667755102041,7.426131346191585,11.40048362384988
-0.0005066867755102041,7.444702454642745,11.4042052472525
-0.0005066067755102041,7.440988232952522,11.40792687065513
-0.0005065267755102041,7.444702454642754,11.40048362384988
-0.000506446775510204,7.452130898023222,11.40048362384988
-0.0005063667755102041,7.452130898023226,11.40048362384988
-0.0005062867755102041,7.45955934140369,11.40048362384988
-0.0005062067755102041,7.466987784784162,11.39676200044725
-0.0005061267755102041,7.474416228164626,11.39676200044725
-0.000506046775510204,7.478130449854863,11.40048362384988
-0.0005059667755102041,7.481844671545095,11.4042052472525
-0.0005058867755102041,7.485558893235328,11.40048362384988
-0.000505806775510204,7.489273114925568,11.40048362384988
-0.0005057267755102041,7.496701558306029,11.4042052472525
-0.0005056467755102041,7.496701558306029,11.40048362384988
-0.0005055667755102041,7.511558445066966,11.39676200044726
-0.0005054867755102041,7.515272666757198,11.40792687065513
-0.000505406775510204,7.5264153318279,11.40048362384988
-0.0005053267755102041,7.5264153318279,11.39676200044726
-0.0005052467755102041,7.5264153318279,11.40420524725251
-0.000505166775510204,7.541272218588834,11.40792687065513
-0.0005050867755102041,7.537557996898602,11.40792687065513
-0.000505006775510204,7.548700661969311,11.40420524725251
-0.0005049267755102041,7.556129105349773,11.40792687065513
-0.0005048467755102041,7.559843327040006,11.40048362384988
-0.000504766775510204,7.570985992110703,11.40420524725251
-0.0005046867755102041,7.567271770420477,11.4042052472525
-0.0005046067755102041,7.574700213800937,11.40048362384988
-0.0005045267755102041,7.585842878871643,11.40048362384988
-0.0005044467755102041,7.585842878871643,11.40048362384988
-0.000504366775510204,7.600699765632578,11.39304037704463
-0.0005042867755102041,7.600699765632584,11.39676200044726
-0.0005042067755102041,7.611842430703279,11.40048362384988
-0.000504126775510204,7.619270874083751,11.39304037704464
-0.0005040467755102041,7.622985095773982,11.40048362384988
-0.0005039667755102041,7.61927087408375,11.40048362384988
-0.0005038867755102041,7.634127760844684,11.38931875364201
-0.0005038067755102041,7.634127760844684,11.39304037704463
-0.000503726775510204,7.648984647605622,11.40048362384987
-0.0005036467755102041,7.652698869295855,11.39304037704463
-0.0005035667755102041,7.656413090986087,11.39304037704463
-0.0005034867755102041,7.663841534366556,11.39304037704463
-0.0005034067755102041,7.667555756056788,11.39304037704463
