4Te_Labor/4.2/NE555_einstellbare_tastgrad/Ne555_variable_2_2_kleiner.csv

#Digilent WaveForms Oscilloscope Acquisition
#Device Name: Discovery2
#Serial Number: SN:210321AA2AFF
#Date Time: 2024-01-16 21:14:13.288
#Sample rate: 1.25e+07Hz
#Samples: 8192
#Trigger: Source: Channel 2 Type: Edge Condition: Rising Level: 2 V Hyst.: 0 V HoldOff: 0 s
#Channel 1: Range: 5 V/div Offset: 0 V Attenuation: 1 X Sample Mode: Average
#Channel 2: Range: 5 V/div Offset: 0 V Attenuation: 1 X Sample Mode: Average

Time (s),Channel 1 (V),Channel 2 (V)
-0.0005299505007153076,5.680447151781653,-0.03234346901560102
-0.0005298705007153075,5.676732930091409,-0.03606509241822312
-0.0005297905007153076,5.665590265020717,-0.03234346901560102
-0.0005297105007153076,5.665590265020717,-0.03234346901560102
-0.0005296305007153077,5.658161821640256,-0.03606509241822312
-0.0005295505007153076,5.658161821640249,-0.0360650924182265
-0.0005294705007153075,5.654447599950005,-0.03606509241822312
-0.0005293905007153076,5.643304934879314,-0.03234346901559933
-0.0005293105007153076,5.643304934879314,-0.02862184561297554
-0.0005292305007153076,5.643304934879314,-0.03234346901559933
-0.0005291505007153076,5.639590713189079,-0.03234346901560102
-0.0005290705007153075,5.639590713189076,-0.02862184561298231
-0.0005289905007153076,5.635876491498848,-0.03606509241822481
-0.0005289105007153076,5.639590713189079,-0.03234346901560102
-0.0005288305007153076,5.628448048118384,-0.03234346901560102
-0.0005287505007153076,5.632162269808607,-0.0360650924182265
-0.0005286705007153076,5.621019604737915,-0.0360650924182265
-0.0005285905007153075,5.617305383047676,-0.03606509241822312
-0.0005285105007153076,5.617305383047676,-0.02862184561297554
-0.0005284305007153076,5.613591161357444,-0.03234346901559933
-0.0005283505007153077,5.609876939667212,-0.03606509241822312
-0.0005282705007153076,5.609876939667209,-0.04350833922347747
-0.0005281905007153075,5.606162717976972,-0.02862184561298231
-0.0005281105007153076,5.60244849628674,-0.0360650924182265
-0.0005280305007153076,5.598734274596509,-0.0360650924182265
-0.0005279505007153077,5.595020052906277,-0.03234346901560441
-0.0005278705007153076,5.591305831216039,-0.03234346901560102
-0.0005277905007153075,5.591305831216032,-0.0397867158208486
-0.0005277105007153076,5.583877387835567,-0.0360650924182265
-0.0005276305007153076,5.576448944455104,-0.0360650924182265
-0.0005275505007153077,5.580163166145334,-0.03234346901560441
-0.0005274705007153076,5.576448944455104,-0.02862184561297554
-0.0005273905007153075,5.57273472276487,-0.02862184561298231
-0.0005273105007153076,5.572734722764866,-0.0360650924182265
-0.0005272305007153076,5.565306279384401,-0.0360650924182265
-0.0005271505007153076,5.565306279384401,-0.02862184561297892
-0.0005270705007153076,5.5541636143137,-0.02862184561297554
-0.0005269905007153076,5.5541636143137,-0.02862184561297554
-0.0005269105007153075,5.550449392623465,-0.02490022221035175
-0.0005268305007153076,5.546735170933232,-0.02862184561297554
-0.0005267505007153076,5.543020949243,-0.03234346901559933
-0.0005266705007153077,5.531878284172307,-0.02117859880773473
-0.0005265905007153076,5.531878284172297,-0.03234346901560102
-0.0005265105007153075,5.531878284172297,-0.03606509241821635
-0.0005264305007153076,5.531878284172297,-0.02490022221035006
-0.0005263505007153076,5.528164062482064,-0.03234346901559763
-0.0005262705007153077,5.528164062482062,-0.03606509241822312
-0.0005261905007153076,5.524449840791829,-0.03234346901560102
-0.0005261105007153075,5.513307175721124,-0.0360650924182265
-0.0005260305007153076,5.509592954030893,-0.0360650924182265
-0.0005259505007153076,5.509592954030893,-0.0360650924182265
-0.0005258705007153077,5.509592954030893,-0.03234346901560441
-0.0005257905007153076,5.505878732340659,-0.03234346901560102
-0.0005257105007153075,5.498450288960192,-0.03234346901560441
-0.0005256305007153076,5.498450288960195,-0.0360650924182265
-0.0005255505007153076,5.505878732340659,-0.0360650924182265
-0.0005254705007153076,5.494736067269963,-0.03234346901560271
-0.0005253905007153076,5.498450288960192,-0.0360650924182265
-0.0005253105007153076,5.483593402199263,-0.02490022221035514
-0.0005252305007153076,5.479879180509024,-0.02862184561297554
-0.0005251505007153076,5.483593402199256,-0.02862184561297554
-0.0005250705007153076,5.483593402199256,-0.02490022221035175
-0.0005249905007153076,5.47616495881879,-0.02490022221035006
-0.0005249105007153076,5.479879180509022,-0.02490022221035006
-0.0005248305007153075,5.47245073712855,-0.02862184561297385
-0.0005247505007153076,5.465022293748087,-0.02490022221035006
-0.0005246705007153076,5.465022293748087,-0.03234346901559763
-0.0005245905007153077,5.457593850367626,-0.02490022221035683
-0.0005245105007153076,5.461308072057853,-0.03234346901560102
-0.0005244305007153075,5.453879628677385,-0.03234346901559087
-0.0005243505007153076,5.453879628677381,-0.02117859880772796
-0.0005242705007153076,5.446451185296921,-0.02862184561297215
-0.0005241905007153077,5.446451185296917,-0.02862184561297554
-0.0005241105007153076,5.446451185296917,-0.02862184561297554
-0.0005240305007153075,5.450165406987141,-0.02862184561297554
-0.0005239505007153076,5.439022741916448,-0.02862184561297554
-0.0005238705007153076,5.435308520226215,-0.02862184561297554
-0.0005237905007153076,5.431594298535983,-0.02862184561297554
-0.0005237105007153076,5.427880076845748,-0.03234346901560102
-0.0005236305007153076,5.439022741916444,-0.02117859880772965
-0.0005235505007153076,5.405594746704356,-0.02862184561297385
-0.0005234705007153076,5.431594298535981,-0.02490022221035006
-0.0005233905007153076,5.413023190084821,-0.02490022221035006
-0.0005233105007153076,5.431594298535972,-0.02862184561297385
-0.0005232305007153076,5.409308968394578,-0.02490022221035006
-0.0005231505007153075,5.41302319008481,-0.02862184561297385
-0.0005230705007153076,5.409308968394578,-0.02490022221035006
-0.0005229905007153076,5.409308968394578,-0.02490022221035006
-0.0005229105007153077,5.398166303323886,-0.02862184561297215
-0.0005228305007153076,5.394452081633642,-0.02490022221035006
-0.0005227505007153075,5.394452081633635,-0.03234346901559763
-0.0005226705007153076,5.387023638253175,-0.02862184561297554
-0.0005225905007153076,5.387023638253175,-0.02862184561297554
-0.0005225105007153077,5.383309416562945,-0.02862184561297554
-0.0005224305007153076,5.379595194872707,-0.02862184561297554
-0.0005223505007153075,5.383309416562928,-0.02490022221035683
-0.0005222705007153076,5.368452529802007,-0.03234346901560102
-0.0005221905007153076,5.372166751492239,-0.03234346901560102
-0.0005221105007153076,5.364738308111779,-0.03234346901560102
-0.0005220305007153076,5.364738308111772,-0.02862184561297554
-0.0005219505007153075,5.357309864731307,-0.02862184561297215
-0.0005218705007153076,5.361024086421535,-0.02490022221035006
-0.0005217905007153076,5.357309864731303,-0.02490022221035006
-0.0005217105007153076,5.353595643041071,-0.02117859880772627
-0.0005216305007153076,5.346167199660604,-0.02490022221035344
-0.0005215505007153076,5.349881421350834,-0.03234346901559763
-0.0005214705007153075,5.364738308111748,-0.02490022221035175
-0.0005213905007153076,5.312739204448497,-0.02862184561297554
-0.0005213105007153076,5.342452977970354,-0.02862184561297554
-0.0005212305007153077,5.320167647828985,-0.02862184561297554
-0.0005211505007153076,5.338738756280134,-0.02862184561297554
-0.0005210705007153075,5.342452977970358,-0.02490022221034667
-0.0005209905007153076,5.331310312899666,-0.02117859880772457
-0.0005209105007153076,5.327596091209434,-0.02490022221034836
-0.0005208305007153077,5.323881869519202,-0.02117859880772796
-0.0005207505007153076,5.323881869519198,-0.02490022221035006
-0.0005206705007153075,5.316453426138731,-0.02490022221035006
-0.0005205905007153076,5.316453426138732,-0.02490022221034836
-0.0005205105007153076,5.320167647828964,-0.02117859880772457
-0.0005204305007153077,5.309024982758273,-0.02490022221034667
-0.0005203505007153076,5.312739204448497,-0.02490022221035006
-0.0005202705007153075,5.305310761068029,-0.02117859880772796
-0.0005201905007153076,5.305310761068025,-0.02490022221034836
-0.0005201105007153076,5.297882317687561,-0.02117859880772457
-0.0005200305007153076,5.294168095997329,-0.02862184561297215
-0.0005199505007153076,5.294168095997329,-0.02490022221035006
-0.0005198705007153076,5.297882317687559,-0.02490022221035006
-0.0005197905007153076,5.283025430926627,-0.02862184561297215
-0.0005197105007153076,5.286739652616859,-0.02117859880772457
-0.0005196305007153076,5.279311209236395,-0.02490022221034836
-0.0005195505007153077,5.283025430926622,-0.02117859880772796
-0.0005194705007153076,5.275596987546158,-0.02862184561297554
-0.0005193905007153075,5.271882765855921,-0.02490022221035006
-0.0005193105007153076,5.26816854416569,-0.02490022221035006
-0.0005192305007153076,5.26816854416569,-0.02490022221035006
-0.0005191505007153077,5.264454322475459,-0.02117859880772796
-0.0005190705007153076,5.253311657404755,-0.02117859880772457
-0.0005189905007153075,5.260740100785209,-0.02490022221035006
-0.0005189105007153076,5.245883214024288,-0.02490022221034836
-0.0005188305007153076,5.249597435714518,-0.02117859880772627
-0.0005187505007153077,5.238454770643829,-0.02490022221034667
-0.0005186705007153076,5.242168992334053,-0.02117859880772457
-0.0005185905007153075,5.238454770643815,-0.03234346901559763
-0.0005185105007153076,5.234740548953587,-0.02862184561297554
-0.0005184305007153076,5.238454770643819,-0.02862184561297554
-0.0005183505007153076,5.231026327263354,-0.02862184561297554
-0.0005182705007153076,5.223597883882883,-0.02117859880772457
-0.0005181905007153076,5.223597883882883,-0.02490022221034836
-0.0005181105007153076,5.223597883882881,-0.01745697540510248
-0.0005180305007153076,5.219883662192649,-0.02490022221035006
-0.0005179505007153076,5.219883662192649,-0.02117859880772627
-0.0005178705007153076,5.212455218812179,-0.02117859880772627
-0.0005177905007153076,5.208740997121947,-0.02490022221035006
-0.0005177105007153075,5.201312553741478,-0.01745697540510417
-0.0005176305007153076,5.197598332051246,-0.02862184561297554
-0.0005175505007153076,5.20502677543171,-0.02490022221035175
-0.0005174705007153077,5.205026775431714,-0.01745697540510586
-0.0005173905007153076,5.20131255374148,-0.02117859880772457
-0.0005173105007153075,5.197598332051243,-0.01745697540509909
-0.0005172305007153076,5.193884110361012,-0.01745697540510079
-0.0005171505007153076,5.193884110361012,-0.02117859880772288
-0.0005170705007153077,5.186455666980551,-0.01373535200248038
-0.0005169905007153076,5.18274144529031,-0.01373535200247361
-0.0005169105007153075,5.18274144529031,-0.01745697540509571
-0.0005168305007153076,5.182741445290309,-0.01373535200247361
-0.0005167505007153076,5.179027223600077,-0.01373535200247361
-0.0005166705007153076,5.186455666980541,-0.0174569754050974
-0.0005165905007153076,5.175313001909842,-0.01745697540509909
-0.0005165105007153075,5.175313001909835,-0.01373535200248038
-0.0005164305007153076,5.167884558529371,-0.02117859880772627
-0.0005163505007153076,5.160456115148907,-0.02490022221035006
-0.0005162705007153076,5.156741893458674,-0.01745697540510248
-0.0005161905007153076,5.153027671768441,-0.01745697540509909
-0.0005161105007153076,5.156741893458673,-0.01745697540509909
-0.0005160305007153075,5.149313450078205,-0.013735352002477
-0.0005159505007153076,5.149313450078205,-0.02117859880772457
-0.0005158705007153076,5.141885006697741,-0.01745697540510079
-0.0005157905007153077,5.138170785007507,-0.01745697540509909
-0.0005157105007153076,5.127028119936802,-0.02117859880772457
-0.0005156305007153075,5.134456563317266,-0.02490022221034667
-0.0005155505007153076,5.130742341627036,-0.02117859880772457
-0.0005154705007153076,5.134456563317268,-0.01745697540510079
-0.0005153905007153077,5.134456563317269,-0.01745697540509909
-0.0005153105007153076,5.123313898246568,-0.01373535200247361
-0.0005152305007153075,5.119599676556334,-0.01745697540509909
-0.0005151505007153076,5.119599676556332,-0.0174569754050974
-0.0005150705007153076,5.1158854548661,-0.01373535200247361
-0.0005149905007153077,5.11217123317587,-0.01745697540509571
-0.0005149105007153076,5.112171233175866,-0.01745697540509909
-0.0005148305007153075,5.108457011485629,-0.02117859880771781
-0.0005147505007153076,5.104742789795397,-0.01373535200247361
-0.0005146705007153076,5.101028568105164,-0.01373535200247361
-0.0005145905007153076,5.101028568105164,-0.0174569754050974
-0.0005145105007153076,5.097314346414927,-0.02490022221034667
-0.0005144305007153076,5.089885903034467,-0.01745697540510248
-0.0005143505007153075,5.086171681344229,-0.01373535200247361
-0.0005142705007153076,5.086171681344229,-0.01373535200247361
-0.0005141905007153076,5.078743237963764,-0.01373535200247361
-0.0005141105007153077,5.071314794583301,-0.006292105197229417
-0.0005140305007153076,5.071314794583293,-0.01745697540509909
-0.0005139505007153075,5.06760057289306,-0.01373535200247361
-0.0005138705007153076,5.06760057289306,-0.01373535200247361
-0.0005137905007153076,5.071314794583292,-0.01373535200247361
-0.0005137105007153077,5.067600572893063,-0.01373535200247361
-0.0005136305007153076,5.063886351202825,-0.01373535200247361
-0.0005135505007153075,5.071314794583284,-0.01373535200247361
-0.0005134705007153076,5.06017212951259,-0.0137353520024753
-0.0005133905007153076,5.056457907822358,-0.01745697540509909
-0.0005133105007153077,5.052743686132128,-0.013735352002477
-0.0005132305007153076,5.056457907822358,-0.01745697540509909
-0.0005131505007153075,5.060172129512582,-0.01745697540509571
-0.0005130705007153076,5.04902946444189,-0.01373535200247361
-0.0005129905007153076,5.04902946444189,-0.01373535200247361
-0.0005129105007153076,5.045315242751657,-0.01373535200247361
-0.0005128305007153076,5.045315242751656,-0.01373535200247361
-0.0005127505007153076,5.045315242751656,-0.01373535200247361
-0.0005126705007153076,5.037886799371188,-0.01373535200247192
-0.0005125905007153076,5.037886799371188,-0.01001372859984813
-0.0005125105007153076,5.030458355990724,-0.01001372859984813
-0.0005124305007153077,5.034172577680951,-0.01001372859984813
-0.0005123505007153076,5.026744134300486,-0.01001372859984813
-0.0005122705007153075,5.019315690920017,-0.006292105197224339
-0.0005121905007153076,5.015601469229785,-0.01001372859984813
-0.0005121105007153076,5.015601469229785,-0.00257048179460055
-0.0005120305007153077,5.015601469229785,-0.01001372859984136
-0.0005119505007153076,5.008173025849317,-0.01001372859984813
-0.0005118705007153075,5.008173025849313,-0.01373535200247361
-0.0005117905007153076,5.004458804159083,-0.01373535200247361
-0.0005117105007153076,5.004458804159083,-0.01373535200247361
-0.0005116305007153077,5.004458804159083,-0.02117859880771781
-0.0005115505007153076,5.000744582468849,-0.01373535200247361
-0.0005114705007153075,4.997030360778616,-0.01373535200247361
-0.0005113905007153076,4.997030360778612,-0.0137353520024753
-0.0005113105007153076,4.989601917398147,-0.01745697540509909
-0.0005112305007153076,4.982173474017683,-0.01001372859985151
-0.0005111505007153076,4.989601917398147,-0.002570481794597165
-0.0005110705007153076,4.989601917398147,-0.01373535200246853
-0.0005109905007153076,4.974745030637212,-0.01001372859984813
-0.0005109105007153076,4.974745030637212,-0.01001372859984813
-0.0005108305007153076,4.982173474017676,-0.01745697540509571
-0.0005107505007153076,4.974745030637212,-0.006292105197227725
-0.0005106705007153076,4.974745030637212,-0.01745697540509909
-0.0005105905007153075,4.971030808946978,-0.006292105197222647
-0.0005105105007153076,4.971030808946978,-0.006292105197222647
-0.0005104305007153076,4.967316587256746,-0.002570481794598858
-0.0005103505007153077,4.971030808946974,-0.01373535200246346
-0.0005102705007153076,4.956173922186043,-0.002570481794597165
-0.0005101905007153075,4.956173922186039,-0.006292105197226032
-0.0005101105007153076,4.952459700495808,-0.01001372859984474
-0.0005100305007153076,4.952459700495808,-0.00257048179460055
-0.0005099505007153077,4.948745478805578,-0.01001372859984136
-0.0005098705007153076,4.948745478805574,-0.01001372859984813
-0.0005097905007153075,4.945031257115334,-0.01373535200247023
-0.0005097105007153076,4.937602813734873,-0.01001372859984982
-0.0005096305007153076,4.937602813734873,-0.01373535200247361
-0.0005095505007153076,4.937602813734873,-0.006292105197226032
-0.0005094705007153076,4.933888592044639,-0.01373535200247361
-0.0005093905007153075,4.930174370354412,-0.01373535200247361
-0.0005093105007153076,4.93760281373487,-0.01373535200247361
-0.0005092305007153076,4.930174370354405,-0.01373535200247361
-0.0005091505007153076,4.930174370354405,-0.01373535200247361
-0.0005090705007153076,4.919031705283706,-0.01001372859984644
-0.0005089905007153076,4.922745926973938,-0.006292105197222647
-0.0005089105007153075,4.919031705283702,-0.0137353520024753
-0.0005088305007153076,4.915317483593469,-0.01745697540509909
-0.0005087505007153076,4.922745926973934,-0.01001372859985151
-0.0005086705007153077,4.915317483593476,-0.01001372859984813
-0.0005085905007153076,4.911603261903235,-0.01373535200247361
-0.0005085105007153075,4.915317483593462,-0.01001372859985151
-0.0005084305007153076,4.907889040213002,-0.01373535200247361
-0.0005083505007153076,4.90417481852277,-0.01001372859984982
-0.0005082705007153077,4.896746375142307,-0.01001372859984813
-0.0005081905007153076,4.8967463751423,-0.006292105197222647
-0.0005081105007153075,4.896746375142293,-0.006292105197215877
-0.0005080305007153076,4.88931793176183,0.001151141608024932
-0.0005079505007153076,4.885603710071599,-0.006292105197222647
-0.0005078705007153077,4.881889488381368,-0.00257048179460055
-0.0005077905007153076,4.881889488381365,-0.006292105197222647
-0.0005077105007153075,4.87817526669112,0.004872765010640259
-0.0005076305007153076,4.867032601620429,-0.01001372859984644
-0.0005075505007153076,4.867032601620429,-0.006292105197222647
-0.0005074705007153076,4.867032601620429,-0.006292105197222647
-0.0005073905007153076,4.863318379930194,-0.002570481794597165
-0.0005073105007153076,4.859604158239963,-0.002570481794597165
-0.0005072305007153075,4.86331837993019,-0.01001372859984644
-0.0005071505007153076,4.852175714859493,-0.006292105197222647
-0.0005070705007153076,4.855889936549725,-0.006292105197222647
-0.0005069905007153077,4.855889936549727,-0.01001372859984474
-0.0005069105007153076,4.844747271479026,-0.006292105197222647
-0.0005068305007153075,4.85217571485949,-0.01001372859984813
-0.0005067505007153076,4.84846149316926,-0.01001372859984813
-0.0005066705007153076,4.841033049788795,-0.00257048179460055
-0.0005065905007153077,4.837318828098561,-0.01001372859984136
-0.0005065105007153076,4.841033049788791,-0.006292105197222647
-0.0005064305007153075,4.83360460640832,0.001151141608028317
-0.0005063505007153076,4.829890384718092,0.001151141608024932
-0.0005062705007153076,4.833604606408324,-0.006292105197222647
-0.0005061905007153077,4.829890384718094,-0.006292105197222647
-0.0005061105007153076,4.818747719647388,-0.002570481794597165
-0.0005060305007153075,4.818747719647392,-0.002570481794597165
-0.0005059505007153076,4.82246194133762,-0.00257048179460055
-0.0005058705007153076,4.818747719647388,-0.01001372859984813
-0.0005057905007153076,4.815033497957156,0.001151141608023239
-0.0005057105007153076,4.811319276266921,-0.006292105197219263
-0.0005056305007153076,4.811319276266921,0.001151141608024932
-0.0005055505007153076,4.80389083288645,-0.002570481794597165
-0.0005054705007153076,4.800176611196219,-0.002570481794597165
-0.0005053905007153076,4.800176611196219,-0.006292105197220955
-0.0005053105007153077,4.796462389505988,-0.006292105197222647
-0.0005052305007153076,4.792748167815751,-0.01373535200247361
-0.0005051505007153075,4.800176611196219,-0.01001372859984982
-0.0005050705007153076,4.800176611196219,-0.01373535200247361
-0.0005049905007153076,4.796462389505987,-0.01001372859984982
-0.0005049105007153077,4.781605502745062,-0.002570481794603935
-0.0005048305007153076,4.785319724435283,-0.01373535200247361
