4Te_Labor/4.1/Phasenschieber_oszillator/Messwerte_oszilator_3_ordnung_hp_120_120k.csv

#Digilent WaveForms Oscilloscope Acquisition
#Device Name: Discovery2
#Serial Number: SN:210321AA2AFF
#Date Time: 2024-01-16 18:56:45.630
#Sample rate: 1.53846e+06Hz
#Samples: 8192
#Trigger: Source: Channel 2 Type: Edge Condition: Rising Level: 0 V Hyst.: Auto HoldOff: 0 s
#Channel 1: Range: 5 mV/div Offset: 0 V Attenuation: 1 X Sample Mode: Average
#Channel 2: Range: 5 V/div Offset: -500 mV Attenuation: 1 X Sample Mode: Average

Time (s),Channel 1 (V),Channel 2 (V)
0.01220328819431544,-0.002139764874648714,5.610468655026492
0.01220393819431544,-0.002139764874649175,5.584417291208055
0.01220458819431544,-0.002477672945178056,5.5583659273897
0.01220523819431544,-0.002477672945178056,5.532314563571333
0.01220588819431544,-0.003153489086236431,5.513706446558215
0.01220653819431544,-0.002477672945178978,5.491376706142484
0.01220718819431544,-0.001801856804119066,5.461603718921422
0.01220783819431544,-0.001463948733590032,5.431830731700446
0.01220848819431544,-0.002139764874648407,5.402057744479454
0.01220913819431544,-0.002139764874648714,5.376006380661088
0.01220978819431544,-0.002815581015706475,5.349955016842721
0.01221043819431544,-0.002477672945177748,5.323903653024296
0.01221108819431544,-0.001801856804119373,5.301573912608553
0.01221173819431544,-0.001801856804119373,5.275522548790199
0.01221238819431544,-0.002139764874649636,5.245749561569131
0.01221303819431544,-0.002815581015706475,5.21597657434815
0.01221368819431544,-0.001801856804119373,5.19736845733504
0.01221433819431544,-0.0007881325925318098,5.16759547011405
0.01221498819431544,-0.001126040663060383,5.141544106295682
0.01221563819431544,-0.002139764874648714,5.115492742477253
0.01221628819431544,-0.002139764874648714,5.085719755256265
0.01221693819431544,-0.002139764874648714,5.059668391437897
0.01221758819431544,-0.00180185680411968,5.041060274424786
0.01221823819431544,-0.001801856804119373,5.011287287203807
0.01221888819431544,-0.002139764874648714,4.981514299982751
0.01221953819431544,-0.002139764874648714,4.955462936164384
0.01222018819431544,-0.001463948733590339,4.929411572346017
0.01222083819431544,-0.001126040663061151,4.907081831930222
0.01222148819431544,-0.001463948733590339,4.884752091514473
0.01222213819431544,-0.001801856804119527,4.854979104293482
0.01222278819431544,-0.002139764874648561,4.825206117072505
0.01222343819431544,-0.002477672945177748,4.802876376656759
0.01222408819431544,-0.001463948733590493,4.776825012838319
0.01222473819431544,-0.001801856804119373,4.747052025617344
0.01222538819431544,-0.001801856804119373,4.717279038396352
0.01222603819431544,-0.002139764874648561,4.683784427772738
0.01222668819431544,-0.002139764874648714,4.65773306395438
0.01222733819431544,-0.001463948733590646,4.635403323538568
0.01222798819431544,-0.002139764874648868,4.609351959720203
0.01222863819431544,-0.002477672945177902,4.583300595901847
0.01222928819431544,-0.002477672945178056,4.557249232083481
0.01222993819431544,-0.002477672945178056,4.534919491667734
0.01223058819431544,-0.002139764874648714,4.50514650444669
0.01223123819431544,-0.002139764874648714,4.479095140628322
0.01223188819431544,-0.002477672945177902,4.453043776809955
0.01223253819431544,-0.002139764874648253,4.42327078958891
0.01223318819431544,-0.001801856804118758,4.400941049173163
0.01223383819431544,-0.00112604066306069,4.374889685354809
0.01223448819431544,-0.001463948733589878,4.352559944939066
0.01223513819431544,-0.001801856804119066,4.322786957718078
0.01223578819431544,-0.002477672945178363,4.293013970497018
0.01223643819431544,-0.00281558101570709,4.259519359873408
0.01223708819431544,-0.002139764874648714,4.23346799605504
0.01223773819431544,-0.002139764874648714,4.207416632236685
0.01223838819431544,-0.001463948733590954,4.177643645015699
0.01223903819431544,-0.00180185680411968,4.151592281197256
0.01223968819431544,-0.002139764874648714,4.125540917378901
0.01224033819431544,-0.002139764874648714,4.103211176963158
0.01224098819431544,-0.001463948733589571,4.077159813144735
0.01224163819431544,-0.001126040663060997,4.051108449326366
0.01224228819431544,-0.001463948733590339,4.021335462105376
0.01224293819431544,-0.002139764874648714,3.995284098287009
0.01224358819431544,-0.002139764874648714,3.969232734468655
0.01224423819431544,-0.002139764874648714,3.943181370650212
0.01224488819431544,-0.002139764874648714,3.913408383429237
0.01224553819431544,-0.002139764874648714,3.88735701961087
0.01224618819431544,-0.001463948733590339,3.85758403238988
0.01224683819431544,-0.001801856804118912,3.827811045168903
0.01224748819431544,-0.002477672945178056,3.801759681350457
0.01224813819431544,-0.002477672945178056,3.771986694129469
0.01224878819431544,-0.002477672945178056,3.745935330311114
0.01224943819431544,-0.001801856804119988,3.723605589895369
0.01225008819431544,-0.001801856804119373,3.693832602674386
0.01225073819431544,-0.002477672945177748,3.667781238855955
0.01225138819431544,-0.001801856804119373,3.641729875037589
0.01225203819431544,-0.001126040663060998,3.615678511219222
0.01225268819431544,-0.001463948733590493,3.593348770803422
0.01225333819431544,-0.001801856804119988,3.567297406985052
0.01225398819431544,-0.002477672945178056,3.537524419764062
0.01225463819431544,-0.002477672945178056,3.507751432543085
0.01225528819431544,-0.001801856804119988,3.477978445322095
0.01225593819431544,-0.001463948733590646,3.451927081503666
0.01225658819431544,-0.002139764874648714,3.425875717685301
0.01225723819431544,-0.002139764874648714,3.403545977269558
0.01225788819431544,-0.00180185680411968,3.370051366645959
0.01225853819431544,-0.001463948733590493,3.347721626230206
0.01225918819431544,-0.001801856804119373,3.317948639009148
0.01225983819431544,-0.001801856804119373,3.291897275190793
0.01226048819431544,-0.002139764874648561,3.269567534775051
0.01226113819431544,-0.002477672945175597,3.236072924151363
0.01226178819431544,-0.001126040663063149,3.21002156033308
0.01226243819431544,-0.001126040663060844,3.180248573112019
0.01226308819431544,-0.001463948733590032,3.157918832696276
0.01226373819431544,-0.001801856804119066,3.124424222072677
0.01226438819431544,-0.002139764874647792,3.102094481656853
0.01226503819431544,-0.001463948733589724,3.072321494435867
0.01226568819431544,-0.00112604066306069,3.046270130617512
0.01226633819431544,-0.0007881325925315026,3.023940390201769
0.01226698819431544,-0.002139764874647485,2.994167402980782
0.01226763819431544,-0.002139764874648714,2.964394415759731
0.01226828819431544,-0.002139764874648561,2.942064675343986
0.01226893819431544,-0.001801856804119527,2.916013311525631
0.01226958819431544,-0.001126040663061305,2.886240324304643
0.01227023819431544,-0.001463948733589571,2.856467337083652
0.01227088819431544,-0.001801856804119219,2.826694349862595
0.01227153819431544,-0.001463948733590032,2.796921362641604
0.01227218819431544,-0.001126040663060844,2.774591622225862
0.01227283819431544,-0.0007881325925318098,2.752261881810058
0.01227348819431544,-0.001126040663061612,2.722488894589071
0.01227413819431544,-0.002139764874648714,2.696437530770703
0.01227478819431544,-0.002139764874648714,2.666664543549726
0.01227543819431544,-0.002477672945177748,2.640613179731357
0.01227608819431544,-0.001801856804118912,2.61456181591292
0.01227673819431544,-0.001463948733590185,2.588510452094565
0.01227738819431544,-0.001801856804119373,2.562459088276199
0.01227803819431544,-0.001801856804119373,2.536407724457832
0.01227868819431544,-0.001126040663061612,2.506634737236857
0.01227933819431544,-0.00112604066306069,2.476861750015789
0.01227998819431544,-0.00112604066306069,2.450810386197435
0.01228063819431544,-0.002815581015706629,2.421037398976444
0.01228128819431544,-0.002477672945178363,2.398707658560698
0.01228193819431544,-0.002477672945178056,2.372656294742347
0.01228258819431544,-0.001463948733590185,2.339161684118658
0.01228323819431544,-0.001801856804119373,2.313110320300292
0.01228388819431544,-0.002139764874648407,2.287058956481937
0.01228453819431544,-0.002139764874647792,2.264729216066115
0.01228518819431544,-0.001463948733589417,2.231234605442507
0.01228583819431544,-0.0007881325925313488,2.205183241624153
0.01228648819431544,-0.001126040663060536,2.18285350120841
0.01228713819431544,-0.001801856804118759,2.153080513987423
0.01228778819431544,-0.001801856804119066,2.127029150168994
0.01228843819431544,-0.001463948733589878,2.100977786350626
0.01228908819431544,-0.00112604066306069,2.071204799129635
0.01228973819431544,-0.000112316451473588,2.041431811908658
0.01229038819431544,-0.0004502245220015464,2.011658824687668
0.01229103819431544,-0.001126040663061151,1.985607460869238
0.01229168819431544,-0.002139764874648714,1.959556097050871
0.01229233819431544,-0.001801856804119527,1.929783109829881
0.01229298819431544,-0.001801856804118912,1.907453369414073
0.01229363819431544,-0.001463948733590646,1.877680382193083
0.01229428819431544,-0.002139764874648714,1.847907394972095
0.01229493819431544,-0.002139764874648714,1.82185603115374
0.01229558819431544,-0.002815581015706783,1.799526290737995
0.01229623819431544,-0.002477672945176673,1.773474926919561
0.01229688819431544,-0.001463948733590339,1.747423563101208
0.01229753819431544,-0.002139764874648714,1.725093822685466
0.01229818819431544,-0.002477672945177902,1.691599212061851
0.01229883819431544,-0.002477672945178056,1.665547848243493
0.01229948819431544,-0.001801856804119066,1.63577486102243
0.01230013819431544,-0.001463948733590185,1.609723497204064
0.01230078819431544,-0.001801856804119219,1.583672133385709
0.01230143819431544,-0.002477672945177441,1.55389914616472
0.01230208819431544,-0.002477672945178056,1.527847782346351
0.01230273819431544,-0.001801856804118912,1.501796418527923
0.01230338819431544,-0.0007881325925313488,1.472023431306933
0.01230403819431544,-0.001126040663060383,1.442250444085956
0.01230468819431544,-0.001801856804119834,1.41992070367014
0.01230533819431544,-0.002139764874648407,1.393869339851771
0.01230598819431544,-0.001801856804119373,1.364096352630794
0.01230663819431544,-0.001126040663060998,1.334323365409803
0.01230728819431544,-0.00112604066306069,1.315715248396679
0.01230793819431544,-0.001463948733590954,1.28966388457826
0.01230858819431544,-0.002477672945178056,1.26361252075989
0.01230923819431544,-0.002477672945178056,1.230117910136276
0.01230988819431544,-0.001463948733590954,1.2003449229153
0.01231053819431544,-0.0007881325925322708,1.17429355909693
0.01231118819431544,-0.001126040663060997,1.151963818681118
0.01231183819431544,-0.001463948733590032,1.125912454862763
0.01231248819431544,-0.001801856804119219,1.096139467641773
0.01231313819431544,-0.001126040663060229,1.06636648042072
0.01231378819431544,-0.0007881325925310415,1.04031511660235
0.01231443819431544,-0.0004502245220023147,1.010542129381359
0.01231508819431544,-0.001126040663060383,0.9807691421603827
0.01231573819431544,-0.001801856804118759,0.9547177783420144
0.01231638819431544,-0.001801856804118451,0.9323880379262024
0.01231703819431544,-0.001126040663060997,0.906336674107846
0.01231768819431544,-0.001801856804119373,0.8765636868868556
0.01231833819431544,-0.0007881325925318098,0.8467906996658654
0.01231898819431544,-0.00146394873358911,0.8207393358475089
0.01231963819431544,-0.001801856804119066,0.7909663486264527
0.01232028819431544,-0.001463948733590032,0.7723582316133337
0.01232093819431544,-0.001463948733590032,0.7537501146002232
0.01232158819431544,-0.001801856804119066,0.7276987507818601
0.01232223819431544,-0.002139764874648253,0.6942041401582528
0.01232288819431544,-0.002477672945177748,0.6644311529371912
0.01232353819431544,-0.001801856804119373,0.6383797891188248
0.01232418819431544,-0.001463948733590185,0.6123284253004583
0.01232483819431544,-0.001463948733590954,0.5862770614820274
0.01232548819431544,-0.002139764874649022,0.5565040742610371
0.01232613819431544,-0.002477672945178056,0.5267310870400603
0.01232678819431544,-0.001463948733590493,0.5006797232216939
0.01232743819431544,-0.001463948733590032,0.4746283594033273
0.01232808819431544,-0.001463948733590954,0.4485769955848982
0.01232873819431544,-0.002477672945178056,0.4188040083639112
0.01232938819431544,-0.002477672945178056,0.3964742679481685
0.01233003819431544,-0.00281558101570709,0.3667012807271917
0.01233068819431544,-0.001126040663062995,0.3406499169088218
0.01233133819431544,-0.0007881325925325781,0.3108769296877553
0.01233198819431544,-0.002139764874648714,0.2811039424667786
0.01233263819431544,-0.00281558101570709,0.2587742020510358
0.01233328819431544,-0.00213976487464687,0.2290012148299812
0.01233393819431544,-0.001126040663062534,0.2066714744143095
0.01233458819431544,-0.001463948733590339,0.1768984871932532
0.01233523819431544,-0.002139764874648714,0.1508471233748867
0.01233588819431544,-0.002815581015706783,0.1285173829591541
0.01233653819431544,-0.001801856804118451,0.1024660191407199
0.01233718819431544,-0.00112604066306069,0.07641465532236516
0.01233783819431544,-0.00112604066306069,0.05036329150399865
0.01233848819431544,-0.00112604066306069,0.02059030428300834
0.01233913819431544,-0.001463948733589724,-0.009182682937981978
0.01233978819431544,-0.002139764874647792,-0.03895567015903661
0.01234043819431544,-0.001126040663060536,-0.06500703397740312
0.01234108819431544,-0.0007881325925315026,-0.09105839779575778
0.01234173819431544,-0.001463948733589417,-0.1171097616141243
0.01234238819431544,-0.002477672945176673,-0.1431611254324908
0.01234303819431544,-0.002139764874648714,-0.169212489250915
0.01234368819431544,-0.002139764874648714,-0.1915422296666577
0.01234433819431544,-0.001463948733590339,-0.221315216887648
0.01234498819431544,-0.001126040663061612,-0.2473665807060805
0.01234563819431544,-0.00180185680411968,-0.2771395679270675
0.01234628819431544,-0.002139764874648714,-0.3031909317454339
0.01234693819431544,-0.002139764874648714,-0.3292422955637886
0.01234758819431544,-0.002477672945177748,-0.3552936593821551
0.01234823819431544,-0.002139764874648714,-0.3776233997979672
0.01234888819431544,-0.002139764874649022,-0.4036747636163254
0.01234953819431544,-0.002815581015707397,-0.4371693742399394
0.01235018819431544,-0.002815581015707397,-0.4669423614609298
0.01235083819431544,-0.002477672945178517,-0.4929937252792862
0.01235148819431544,-0.001463948733590339,-0.5153234656951016
0.01235213819431544,-0.001801856804119373,-0.5450964529160784
0.01235278819431544,-0.001801856804119373,-0.5748694401370686
0.01235343819431544,-0.001463948733590032,-0.5971991805528961
0.01235408819431544,-0.001463948733590032,-0.6306937911764036
0.01235473819431544,-0.001126040663060383,-0.653023531592231
0.01235538819431544,-0.0004502245220020074,-0.6827965188132212
0.01235603819431544,-0.001126040663060076,-0.7088478826315759
0.01235668819431544,-0.001801856804120295,-0.7348992464500186
0.01235733819431544,-0.002477672945177748,-0.7646722336710056
0.01235798819431544,-0.002139764874648714,-0.7907235974893603
0.01235863819431544,-0.001463948733590339,-0.8167749613077268
0.01235928819431544,-0.001801856804119066,-0.8465479485287153
0.01235993819431544,-0.002139764874649329,-0.87632093574977
0.01236058819431544,-0.00281558101570709,-0.9023722995681366
0.01236123819431544,-0.002139764874648714,-0.9284236633865031
0.01236188819431544,-0.002139764874648714,-0.9507534038022357
0.01236253819431544,-0.001801856804119834,-0.9768047676205989
0.01236318819431544,-0.001801856804119373,-1.002856131439026
0.01236383819431544,-0.001801856804119373,-1.032629118660016
0.01236448819431544,-0.001801856804119373,-1.054958859075759
0.01236513819431544,-0.001801856804118451,-1.084731846296814
0.01236578819431544,-0.00112604066306069,-1.114504833517804
0.01236643819431544,-0.001126040663060997,-1.144277820738794
0.01236708819431544,-0.001801856804119066,-1.174050807959771
0.01236773819431544,-0.001463948733590339,-1.196380548375518
0.01236838819431544,-0.001463948733590493,-1.218710288791326
0.01236903819431544,-0.001801856804119373,-1.244761652609684
0.01236968819431544,-0.001801856804119373,-1.278256263233298
0.01237033819431544,-0.002477672945177748,-1.304307627051665
0.01237098819431544,-0.002815581015706936,-1.33035899087002
0.01237163819431544,-0.002477672945176519,-1.352688731285832
0.01237228819431544,-0.0007881325925316562,-1.378740095104202
0.01237293819431544,-0.001463948733589724,-1.4122347057278
0.01237358819431544,-0.0021397648746481,-1.434564446143548
0.01237423819431544,-0.002477672945177595,-1.464337433364532
0.01237488819431544,-0.001801856804119219,-1.490388797182961
0.01237553819431544,-0.001463948733590032,-1.512718537598704
0.01237618819431544,-0.001126040663060997,-1.542491524819681
0.01237683819431544,-0.001801856804119834,-1.575986135443367
0.01237748819431544,-0.002139764874648407,-1.59831587585911
0.01237813819431544,-0.001801856804119373,-1.620645616274843
0.01237878819431544,-0.0007881325925318098,-1.650418603495833
0.01237943819431544,-0.001126040663060383,-1.680191590716823
0.01238008819431544,-0.001463948733590032,-1.706242954535252
0.01238073819431544,-0.001463948733590493,-1.732294318353621
0.01238138819431544,-0.002477672945178056,-1.762067305574611
0.01238203819431544,-0.001801856804119988,-1.784397045990344
0.01238268819431544,-0.001126040663061612,-1.817891656613948
0.01238333819431544,-0.002139764874648714,-1.84022139702977
0.01238398819431544,-0.002139764874648714,-1.866272760848124
0.01238463819431544,-0.002477672945177902,-1.896045748069115
0.01238528819431544,-0.001801856804119373,-1.925818735290173
0.01238593819431544,-0.00180185680411968,-1.95559172251116
0.01238658819431544,-0.002139764874649022,-1.981643086329528
0.01238723819431544,-0.00281558101570709,-2.011416073550505
0.01238788819431544,-0.002815581015707397,-2.037467437368873
0.01238853819431544,-0.002139764874648714,-2.05979717778469
0.01238918819431544,-0.002139764874648868,-2.089570165005667
0.01238983819431544,-0.002477672945178056,-2.119343152226657
0.01239048819431544,-0.001801856804119681,-2.145394516045024
0.01239113819431544,-0.002139764874648253,-2.171445879863378
0.01239178819431544,-0.0007881325925316562,-2.197497243681819
0.01239243819431544,-0.001126040663060844,-2.22727023090281
0.01239308819431544,-0.001463948733589878,-2.257043218123787
0.01239373819431544,-0.0021397648746481,-2.279372958539533
0.01239438819431544,-0.002815581015706475,-2.305424322357896
0.01239503819431544,-0.001801856804119066,-2.331475686176323
0.01239568819431544,-0.00112604066306069,-2.361248673397314
0.01239633819431544,-0.001801856804119066,-2.391021660618304
0.01239698819431544,-0.002477672945178978,-2.424516271241977
0.01239763819431544,-0.003153489086236431,-2.446846011657723
0.01239828819431544,-0.002815581015707397,-2.472897375476078
0.01239893819431544,-0.002477672945178209,-2.502670362697069
0.01239958819431544,-0.002139764874649022,-2.532443349918059
0.01240023819431544,-0.001463948733590339,-2.558494713736488
0.01240088819431544,-0.001801856804119527,-2.584546077554856
0.01240153819431544,-0.002139764874648714,-2.614319064775847
0.01240218819431544,-0.002477672945177748,-2.640370428594201
0.01240283819431544,-0.001463948733591415,-2.673865039217808
0.01240348819431544,-0.0007881325925316562,-2.699916403036256
0.01240413819431544,-0.00112604066306069,-2.725967766854611
0.01240478819431544,-0.001801856804119066,-2.755740754075601
0.01240543819431544,-0.001801856804118758,-2.781792117894047
0.01240608819431544,-0.001463948733590646,-2.811565105114943
0.01240673819431544,-0.002139764874648714,-2.837616468933387
0.01240738819431544,-0.002139764874648714,-2.863667832751754
0.01240803819431544,-0.002477672945177748,-2.893440819972731
0.01240868819431544,-0.002477672945177134,-2.923213807193792
0.01240933819431544,-0.001801856804119219,-2.945543547609526
0.01240998819431544,-0.001463948733590032,-2.971594911427893
0.01241063819431544,-0.001126040663060844,-3.008811145454131
0.01241128819431544,-0.001801856804118759,-3.03114088586988
0.01241193819431544,-0.002139764874648714,-3.057192249688299
0.01241258819431544,-0.002139764874648407,-3.079521990104046
