4Te_Labor/4.1/Phasenschieber_oszillator/Messwerte_oszillator_invert_opv_hp_808hz.csv

#Digilent WaveForms Oscilloscope Acquisition
#Device Name: Discovery2
#Serial Number: SN:210321AA2AFF
#Date Time: 2024-01-16 18:58:20.504
#Sample rate: 446429Hz
#Samples: 8192
#Trigger: Source: Channel 2 Type: Edge Condition: Rising Level: 0 V Hyst.: Auto HoldOff: 0 s
#Channel 2: Range: 5 V/div Offset: -500 mV Attenuation: 1 X Sample Mode: Average

Time (s),Channel 2 (V)
0.002789583353434303,10.99565771862554
0.002791823353434303,10.99937934202817
0.002794063353434304,10.99937934202817
0.002796303353434303,11.00682258883342
0.002798543353434303,11.01054421223604
0.002800783353434304,11.01426583563867
0.002803023353434303,11.02543070584654
0.002805263353434303,11.02543070584654
0.002807503353434304,11.02915232924917
0.002809743353434303,11.03659557605442
0.002811983353434303,11.04403882285967
0.002814223353434304,11.05148206966492
0.002816463353434303,11.04031719945705
0.002818703353434303,11.02170908244392
0.002820943353434304,11.01054421223603
0.002823183353434303,10.99193609522291
0.002825423353434303,10.98077122501504
0.002827663353434304,10.96960635480715
0.002829903353434303,10.95471986119667
0.002832143353434303,10.93239012078091
0.002834383353434304,10.91378200376777
0.002836623353434303,10.89889551015728
0.002838863353434303,10.86540089953365
0.002841103353434304,10.84307115911788
0.002843343353434303,10.81701979529953
0.002845583353434303,10.78352518467589
0.002847823353434304,10.7574738208575
0.002850063353434303,10.73142245703914
0.002852303353434303,10.69420622301288
0.002854543353434304,10.66443323579185
0.002856783353434303,10.62721700176563
0.002859023353434303,10.58255752093411
0.002861263353434304,10.54534128690784
0.002863503353434303,10.50440342947899
0.002865743353434303,10.45974394864747
0.002867983353434304,10.41508446781594
0.002870223353434303,10.36670336358186
0.002872463353434303,10.3183222593477
0.002874703353434304,10.26994115511355
0.002876943353434303,10.21783842747684
0.002879183353434303,10.16201407643743
0.002881423353434304,10.10618972539802
0.002883663353434303,10.04664375095607
0.002885903353434303,9.99081939991666
0.002888143353434304,9.923830178669373
0.002890383353434302,9.860562580824796
0.002892623353434303,9.801016606382762
0.002894863353434304,9.734027385135473
0.002897103353434302,9.670759787290898
0.002899343353434303,9.600048942640985
0.002901583353434304,9.529338097991065
0.002903823353434302,9.451184006536002
0.002906063353434303,9.384194785288706
0.002908303353434304,9.313483940638788
0.002910543353434302,9.235329849183723
0.002912783353434303,9.153454134325926
0.002915023353434304,9.071578419468132
0.002917263353434302,8.997145951415691
0.002919503353434303,8.915270236557896
0.002921743353434304,8.822229651492259
0.002923983353434302,8.747797183439783
0.002926223353434303,8.658478221776738
0.002928463353434304,8.576602506918977
0.002930703353434302,8.487283545256007
0.002932943353434303,8.40168620699558
0.002935183353434304,8.312367245332569
0.002937423353434302,8.219326660266974
0.002939663353434303,8.13000769860392
0.002941903353434304,8.036967113538283
0.002944143353434302,7.943926528472689
0.002946383353434303,7.850885943407009
0.002948623353434304,7.75040211153612
0.002950863353434302,7.653639903067903
0.002953103353434303,7.560599318002222
0.002955343353434304,7.460115486131333
0.002957583353434302,7.367074901065738
0.002959823353434303,7.262869445792182
0.002962063353434304,7.166107237323921
0.002964303353434302,7.061901782050454
0.002966543353434303,6.953974703374268
0.002968783353434304,6.853490871503379
0.002971023353434302,6.756728663035162
0.002973263353434303,6.652523207761604
0.002975503353434304,6.540874505682838
0.002977743353434302,6.440390673811996
0.002979983353434303,6.336185218538438
0.002982223353434304,6.228258139862298
0.002984463353434302,6.120331061186209
0.002986703353434303,6.016125605912647
0.002988943353434304,5.911920150639133
0.002991183353434302,5.800271448560419
0.002993423353434303,5.692344369884228
0.002995663353434303,5.580695667805465
0.002997903353434302,5.472768589129374
0.003000143353434303,5.368563133855812
0.003002383353434303,5.256914431777048
0.003004623353434302,5.145265729698333
0.003006863353434303,5.037338651022145
0.003009103353434303,4.918246702138129
0.003011343353434302,4.810319623462038
0.003013583353434303,4.698670921383226
0.003015823353434303,4.587022219304462
0.003018063353434302,4.471651893823124
0.003020303353434303,4.360003191744307
0.003022543353434303,4.248354489665543
0.003024783353434302,4.136705787586828
0.003027023353434303,4.032500332313264
0.003029263353434303,3.917130006831874
0.003031503353434302,3.801759681350537
0.003033743353434303,3.686389355869094
0.003035983353434303,3.57474065379033
0.003038223353434302,3.463091951711616
0.003040463353434303,3.351443249632801
0.003042703353434303,3.239794547554037
0.003044943353434302,3.128145845475323
0.003047183353434303,3.012775519993882
0.003049423353434303,2.901126817915118
0.003051663353434302,2.78575649243378
0.003053903353434303,2.677829413757589
0.003056143353434303,2.562459088276199
0.003058383353434302,2.447088762794861
0.003060623353434303,2.327996813910794
0.003062863353434303,2.22379135863728
0.003065103353434304,2.112142656558465
0.003067343353434303,2.000493954479751
0.003069583353434303,1.888845252400987
0.003071823353434304,1.773474926919548
0.003074063353434303,1.665547848243458
0.003076303353434303,1.553899146164693
0.003078543353434304,1.442250444085877
0.003080783353434303,1.326880118604539
0.003083023353434303,1.222674663331025
0.003085263353434304,1.107304337849585
0.003087503353434303,0.995655635770871
0.003089743353434303,0.8877285570947321
0.003091983353434304,0.7760798550159169
0.003094223353434303,0.6644311529372031
0.003096463353434303,0.5602256976636897
0.003098703353434304,0.4485769955848728
0.003100943353434303,0.3332066701035353
0.003103183353434303,0.2252795914273963
0.003105423353434304,0.1210741361538304
0.003107663353434303,0.005703810672492871
0.003109903353434303,-0.1059448914062716
0.003112143353434304,-0.2101503466798358
0.003114383353434303,-0.3217990487585495
0.003116623353434303,-0.4297261274346885
0.003118863353434304,-0.5413748295135036
0.003121103353434303,-0.6530235315922175
0.003123343353434303,-0.7609506102683563
0.003125583353434304,-0.8688776889445444
0.003127823353434303,-0.9768047676206344
0.003130063353434303,-1.081010222894148
0.003132303353434304,-1.196380548375587
0.003134543353434303,-1.304307627051677
0.003136783353434303,-1.412234705727816
0.003139023353434304,-1.520161784404004
0.003141263353434303,-1.628088863080094
0.003143503353434303,-1.732294318353607
0.003145743353434304,-1.840221397029797
0.003147983353434303,-1.951870099108511
0.003150223353434303,-2.059797177784649
0.003152463353434304,-2.164002633058214
0.003154703353434303,-2.275651335136927
0.003156943353434303,-2.383578413813066
0.003159183353434304,-2.49522711589188
0.003161423353434303,-2.60315419456797
0.003163663353434303,-2.711081273244109
0.003165903353434304,-2.819008351920298
0.003168143353434303,-2.930657053999012
0.003170383353434303,-3.038584132675151
0.003172623353434304,-3.146511211351339
0.003174863353434303,-3.254438290027429
0.003177103353434303,-3.366086992106194
0.003179343353434304,-3.477735694185009
0.003181583353434303,-3.589384396263723
0.003183823353434303,-3.704754721745112
0.003186063353434304,-3.808960177018678
0.003188303353434303,-3.924330502500016
0.003190543353434303,-4.032257581176156
0.003192783353434304,-4.151349530060219
0.003195023353434303,-4.259276608736309
0.003197263353434303,-4.374646934217699
0.003199503353434304,-4.486295636296517
0.003201743353434303,-4.601665961777854
0.003203983353434303,-4.720757910661868
0.003206223353434304,-4.832406612740685
0.003208463353434303,-4.944055314819347
0.003210703353434303,-5.059425640300788
0.003212943353434304,-5.178517589184856
0.003215183353434303,-5.293887914666141
0.003217423353434303,-5.409258240147583
0.003219663353434304,-5.520906942226403
0.003221903353434303,-5.643720514512933
0.003224143353434303,-5.759090839994379
0.003226383353434304,-5.874461165475823
0.003228623353434303,-5.99355311435973
0.003230863353434303,-6.1126450632438
0.003233103353434304,-6.231737012127868
0.003235343353434303,-6.350828961011776
0.003237583353434303,-6.46619928649322
0.003239823353434304,-6.59273448218254
0.003242063353434303,-6.711826431066448
0.003244303353434303,-6.834640003353142
0.003246543353434304,-6.950010328834586
0.003248783353434303,-7.069102277718494
0.003251023353434303,-7.195637473407814
0.003253263353434304,-7.314729422291887
0.003255503353434303,-7.441264617981038
0.003257743353434303,-7.560356566865112
0.003259983353434304,-7.686891762554432
0.003262223353434303,-7.80598371143834
0.003264463353434303,-7.936240530530286
0.003266703353434304,-8.055332479414361
0.003268943353434303,-8.185589298506134
0.003271183353434303,-8.315846117598085
0.003273423353434304,-8.434938066482159
0.003275663353434302,-8.565194885573934
0.003277903353434303,-8.684286834458007
0.003280143353434304,-8.814543653549958
0.003282383353434302,-8.944800472641733
0.003284623353434303,-9.052727551317931
0.003286863353434304,-9.130881642773099
0.003289103353434302,-9.205314110825542
0.003291343353434303,-9.27602495547546
0.003293583353434304,-9.335570929917489
0.003295823353434302,-9.387673657554201
0.003298063353434303,-9.43977638519098
0.003300303353434304,-9.491879112827737
0.003302543353434302,-9.540260217061848
0.003304783353434303,-9.581198074490748
0.003307023353434304,-9.625857555322254
0.003309263353434302,-9.670517036153742
0.003311503353434303,-9.707733270180015
0.003313743353434304,-9.741227880803644
0.003315983353434302,-9.778444114829881
0.003318223353434303,-9.804495478648278
0.003320463353434304,-9.834268465869281
0.003322703353434302,-9.860319829687647
0.003324943353434303,-9.890092816908664
0.003327183353434304,-9.923587427532294
0.003329423353434302,-9.938473921142789
0.003331663353434303,-9.964525284961173
0.003333903353434304,-9.986855025376926
0.003336143353434302,-10.00174151898742
0.003338383353434303,-10.02407125940318
0.003340623353434304,-10.04640099981893
0.003342863353434302,-10.06128749342943
0.003345103353434303,-10.07617398703994
0.003347343353434304,-10.09478210405307
0.003349583353434302,-10.10594697426094
0.003351823353434303,-10.12083346787144
0.003354063353434304,-10.13199833807932
0.003356303353434302,-10.14688483168982
0.003358543353434303,-10.16177132530032
0.003360783353434304,-10.1729361955082
0.003363023353434302,-10.18410106571607
0.003365263353434303,-10.19526593592395
0.003367503353434304,-10.2027091827292
0.003369743353434302,-10.21387405293708
0.003371983353434303,-10.21759567633971
0.003374223353434304,-10.23248216995021
0.003376463353434302,-10.23992541675546
0.003378703353434303,-10.25109028696334
0.003380943353434303,-10.25853353376859
0.003383183353434302,-10.26597678057383
0.003385423353434303,-10.26969840397646
0.003387663353434303,-10.28086327418434
0.003389903353434302,-10.28458489758696
0.003392143353434303,-10.29202814439222
0.003394383353434303,-10.29574976779484
0.003396623353434302,-10.30691463800271
0.003398863353434303,-10.30691463800272
0.003401103353434303,-10.30691463800272
0.003403343353434302,-10.31063626140534
0.003405583353434303,-10.31807950821059
0.003407823353434303,-10.32180113161322
0.003410063353434302,-10.32552275501584
0.003412303353434303,-10.32552275501584
0.003414543353434303,-10.3329660018211
0.003416783353434302,-10.3329660018211
0.003419023353434303,-10.33668762522372
0.003421263353434303,-10.33668762522372
0.003423503353434302,-10.33668762522372
0.003425743353434303,-10.33668762522372
0.003427983353434303,-10.33668762522372
0.003430223353434302,-10.33668762522372
0.003432463353434303,-10.3329660018211
0.003434703353434303,-10.32924437841847
0.003436943353434302,-10.3180795082106
0.003439183353434303,-10.31063626140534
0.003441423353434303,-10.29574976779484
0.003443663353434304,-10.28830652098958
0.003445903353434303,-10.26969840397646
0.003448143353434303,-10.25853353376859
0.003450383353434304,-10.23992541675545
0.003452623353434303,-10.21387405293708
0.003454863353434303,-10.19526593592395
0.003457103353434304,-10.17293619550819
0.003459343353434303,-10.14688483168982
0.003461583353434303,-10.12083346787144
0.003463823353434304,-10.09478210405305
0.003466063353434303,-10.06873074023469
0.003468303353434303,-10.03523612961106
0.003470543353434304,-9.994298272182164
0.003472783353434303,-9.964525284961173
0.003475023353434303,-9.931030674337544
0.003477263353434304,-9.890092816908645
0.003479503353434303,-9.845433336077159
0.003481743353434303,-9.804495478648278
0.003483983353434304,-9.759835997816754
0.003486223353434303,-9.718898140387891
0.003488463353434303,-9.666795412751135
0.003490703353434304,-9.618414308516984
0.003492943353434303,-9.573754827685498
0.003495183353434303,-9.51420885324349
0.003497423353434304,-9.462106125606709
0.003499663353434303,-9.406281774567351
0.003501903353434303,-9.350457423527969
0.003504143353434304,-9.290911449085931
0.003506383353434303,-9.223922227838703
0.003508623353434303,-9.164376253396695
0.003510863353434304,-9.104830278954656
0.003513103353434303,-9.037841057707428
0.003515343353434303,-8.959686966252294
0.003517583353434304,-8.892697745005007
0.003519823353434303,-8.829430147160402
0.003522063353434303,-8.754997679107891
0.003524303353434304,-8.680565211055349
0.003526543353434303,-8.606132743002872
0.003528783353434303,-8.535421898352988
0.003531023353434304,-8.453546183495193
0.003533263353434303,-8.379113715442719
0.003535503353434303,-8.293516377182332
0.003537743353434304,-8.211640662324534
0.003539983353434303,-8.129764947466811
0.003542223353434303,-8.04788923260905
0.003544463353434304,-7.962291894348624
0.003546703353434303,-7.872972932685652
0.003548943353434303,-7.783653971022641
0.003551183353434304,-7.694335009359589
0.003553423353434303,-7.605016047696617
0.003555663353434303,-7.515697086033606
0.003557903353434304,-7.422656500967924
0.003560143353434303,-7.32217266909708
0.003562383353434303,-7.232853707434069
0.003564623353434304,-7.143534745771014
0.003566863353434303,-7.046772537302795
0.003569103353434303,-6.953731952237158
0.003571343353434304,-6.8495264969636
0.003573583353434303,-6.752764288495381
0.003575823353434303,-6.652280456624494
0.003578063353434304,-6.555518248156186
0.003580303353434303,-6.455034416285343
0.003582543353434303,-6.354550584414456
0.003584783353434304,-6.257788375946144
0.003587023353434303,-6.149861297270102
0.003589263353434303,-6.041934218593916
0.003591503353434304,-5.941450386722981
0.003593743353434303,-5.840966554852185
0.003595983353434303,-5.733039476176
0.003598223353434304,-5.621390774097191
0.003600463353434303,-5.520906942226392
0.003602703353434303,-5.409258240147583
0.003604943353434304,-5.305052784874021
0.003607183353434303,-5.197125706197979
0.003609423353434303,-5.089198627521792
0.003611663353434304,-4.981271548845604
0.003613903353434303,-4.873344470169562
0.003616143353434303,-4.76169576809075
0.003618383353434304,-4.65376868941456
0.003620623353434303,-4.542119987335897
0.003622863353434303,-4.426749661854457
0.003625103353434304,-4.318822583178267
0.003627343353434303,-4.207173881099604
0.003629583353434303,-4.091803555618162
0.003631823353434304,-3.983876476941974
0.003634063353434303,-3.875949398265934
0.003636303353434303,-3.760579072784494
0.003638543353434304,-3.645208747303055
0.003640783353434303,-3.537281668627015
0.003643023353434303,-3.425632966548201
0.003645263353434304,-3.313984264469385
0.003647503353434303,-3.198613938988099
0.003649743353434303,-3.083243613506657
0.003651983353434304,-2.975316534830467
0.003654223353434303,-2.863667832751804
0.003656463353434303,-2.744575883867738
0.003658703353434304,-2.632927181788923
0.003660943353434302,-2.52127847971026
0.003663183353434303,-2.409629777631445
0.003665423353434304,-2.297981075552628
0.003667663353434302,-2.182610750071343
0.003669903353434303,-2.070962047992526
0.003672143353434304,-1.955591722511083
0.003674383353434302,-1.840221397029798
0.003676623353434303,-1.728572694950982
0.003678863353434304,-1.613202369469592
0.003681103353434302,-1.501553667390878
0.003683343353434303,-1.389904965312063
0.003685583353434304,-1.274534639830673
0.003687823353434302,-1.159164314349335
0.003690063353434303,-1.043793988867893
0.003692303353434304,-0.9358669101917541
0.003694543353434302,-0.8204965847104164
0.003696783353434303,-0.7088478826315996
0.003699023353434304,-0.5971991805528352
0.003701263353434302,-0.4892721018767453
0.003703503353434303,-0.3664585295900553
0.003705743353434304,-0.2585314509139163
0.003707983353434302,-0.1431611254325788
0.003710223353434303,-0.03523404675638742
0.003712463353434304,0.08013627872500251
0.003714703353434302,0.19550660420634
0.003716943353434303,0.3071553062851569
0.003719183353434304,0.4225256317665468
0.003721423353434302,0.5341743338452606
0.003723663353434303,0.6458230359240758
0.003725903353434304,0.7574717380028402
0.003728143353434302,0.8653988166789301
0.003730383353434303,0.9807691421603691
0.003732623353434304,1.096139467641759
0.003734863353434302,1.207788169720473
0.003737103353434303,1.315715248396663
0.003739343353434304,1.434807197280678
0.003741583353434302,1.546455899359392
0.003743823353434303,1.658104601438207
0.003746063353434304,1.769753303516971
0.003748303353434302,1.885123628998309
0.003750543353434303,2.000493954479751
0.003752783353434304,2.112142656558516
0.003755023353434302,2.231234605442477
0.003757263353434303,2.33916168411867
0.003759503353434304,2.450810386197435
0.003761743353434302,2.569902335081396
0.003763983353434303,2.681551037160214
0.003766223353434303,2.793199739238979
0.003768463353434302,2.91229168812294
0.003770703353434303,3.03138363700701
0.003772943353434303,3.143032339085774
0.003775183353434302,3.254681041164488
0.003777423353434303,3.370051366645928
0.003779663353434303,3.485421692127318
0.003781903353434302,3.600792017608656
0.003784143353434303,3.708719096284848
0.003786383353434303,3.827811045168863
0.003788623353434302,3.9431813706502
0.003790863353434303,4.058551696131643
0.003793103353434303,4.170200398210407
0.003795343353434302,4.281849100289121
0.003797583353434303,4.397219425770562
0.003799823353434303,4.508868127849325
0.003802063353434302,4.62051682992804
0.003804303353434303,4.735887155409481
0.003806543353434303,4.851257480890871
0.003808783353434302,4.962906182969584
0.003811023353434303,5.078276508451024
0.003813263353434303,5.193646833932414
0.003815503353434302,5.309017159413751
0.003817743353434303,5.416944238089943
0.003819983353434303,5.532314563571333
0.003822223353434304,5.640241642247527
0.003824463353434303,5.759333591131488
0.003826703353434303,5.870982293210252
0.003828943353434304,5.990074242094317
0.003831183353434303,6.098001320770406
0.003833423353434303,6.220814893057048
0.003835663353434304,6.332463595135866
0.003837903353434303,6.451555544019827
0.003840143353434303,6.559482622695967
0.003842383353434304,6.671131324774787
0.003844623353434303,6.793944897061373
0.003846863353434303,6.905593599140136
0.003849103353434304,7.013520677816333
0.003851343353434303,7.140055873505542
0.003853583353434303,7.255426198986932
0.003855823353434304,7.374518147871
0.003858063353434303,7.489888473352337
0.003860303353434303,7.608980422236352
0.003862543353434304,7.724350747717797
0.003864783353434303,7.843442696601757
0.003867023353434303,7.962534645485773
0.003869263353434304,8.081626594369844
0.003871503353434303,8.204440166656429
0.003873743353434303,8.323532115540445
0.003875983353434304,8.438902441021892
0.003878223353434303,8.565437636711101
0.003880463353434303,8.684529585595117
0.003882703353434304,8.811064781284438
0.003884943353434303,8.933878353571023
0.003887183353434303,9.056691925857665
0.003889423353434304,9.179505498144364
0.003891663353434303,9.309762317236197
0.003893903353434303,9.425132642717587
0.003896143353434304,9.55166783840691
0.003898383353434303,9.67820303409612
