4Te_Labor/4.2/NE555_monoflop/Messwerte_Ne555_monoflop.csv

#Digilent WaveForms Oscilloscope Acquisition
#Device Name: Discovery2
#Serial Number: SN:210321AA2AFF
#Date Time: 2024-01-16 20:24:10.514
#Sample rate: 6.66667e+06Hz
#Samples: 8192
#Trigger: Source: Channel 1 Type: Edge Condition: Rising Level: 2 V Hyst.: 0 V HoldOff: 0 s
#Channel 1: Range: 5 V/div Offset: 0 V Attenuation: 1 X Sample Mode: Average
#Channel 2: Range: 5 V/div Offset: 0 V Attenuation: 1 X Sample Mode: Average
#Wavegen Channel 1: Running
#Mode: Simple
#Type: Pulse
#Frequency: 5 kHz
#Period: 200 us
#Amplitude: 5 V
#Offset: 0 V
#Symmetry: 90 %
#Phase: 0 бу

Time (s),Channel 1 (V),Channel 2 (V)
0.01274429123238372,4.989601917398164,-0.02117859880769073
0.01274444123238372,4.993316139088375,-0.01373535200248715
0.01274459123238372,4.993316139088382,-0.02117859880770934
0.01274474123238372,4.993316139088382,-0.01745697540510586
0.01274489123238372,4.993316139088355,-0.01745697540511263
0.01274504123238372,4.98588769570793,-0.02117859880771611
0.01274519123238372,4.993316139088382,-0.02117859880771273
0.01274534123238372,4.993316139088382,-0.01745697540510925
0.01274549123238372,4.997030360778604,-0.02117859880774827
0.01274564123238372,4.993316139088392,-0.02862184561295523
0.01274579123238372,4.989601917398157,-0.02862184561296538
0.01274594123238372,4.99331613908837,-0.0249002222103619
0.01274609123238372,4.993316139088382,-0.02490022221034159
0.01274624123238372,4.993316139088382,-0.02117859880773811
0.01274639123238372,4.985887695707922,-0.02117859880771611
0.01274654123238372,4.989601917398134,-0.01745697540511263
0.01274669123238372,4.98960191739814,-0.01745697540509909
0.01274684123238372,4.985887695707929,-0.01745697540509909
0.01274699123238372,4.985887695707919,-0.02490022221034498
0.01274714123238372,4.98960191739813,-0.0211785988077415
0.01274729123238372,4.989601917398153,-0.0211785988077195
0.01274744123238372,4.993316139088365,-0.01745697540511602
0.01274759123238372,4.993316139088382,-0.01745697540509571
0.01274774123238372,4.993316139088382,-0.01373535200249223
0.01274789123238372,4.997030360778614,-0.013735352002477
0.01274804123238372,4.993316139088402,-0.02117859880768396
0.01274819123238372,4.997030360778616,-0.01373535200247361
0.01274834123238372,4.997030360778616,-0.01373535200247361
0.01274849123238372,4.997030360778616,-0.01373535200247361
0.01274864123238372,4.993316139088404,-0.01373535200247361
0.01274879123238372,4.989601917398149,-0.01373535200247361
0.01274894123238372,4.993316139088382,-0.01001372859984813
0.01274909123238372,4.993316139088382,-0.01001372859984813
0.01274924123238372,4.993316139088419,-0.006292105197278497
0.01274939123238372,5.000744582468842,-0.01745697540508894
0.01274954123238372,4.993316139088399,-0.02117859880772457
0.01274969123238372,4.99703036077861,-0.02117859880772457
0.01274984123238372,4.993316139088365,-0.01745697540508217
0.01274999123238372,4.989601917398154,-0.01373535200248038
0.01275014123238372,4.993316139088397,-0.01373535200250407
0.01275029123238372,4.997030360778608,-0.02117859880771104
0.01275044123238372,4.989601917398161,-0.02117859880771104
0.01275059123238372,4.993316139088373,-0.01745697540510755
0.01275074123238372,4.993316139088382,-0.01745697540508724
0.01275089123238372,4.993316139088382,-0.01373535200248377
0.01275104123238372,4.99331613908837,-0.01745697540512279
0.01275119123238372,4.989601917398157,-0.02490022221032975
0.01275134123238372,4.985887695707904,-0.02117859880770426
0.01275149123238372,4.982173474017691,-0.0137353520024973
0.01275164123238372,4.985887695707897,-0.02490022221031621
0.01275179123238372,4.978459252327473,-0.01001372859990229
0.01275194123238372,4.985887695707905,-0.01373535200246515
0.01275209123238372,4.982173474017693,-0.01001372859986167
0.01275224123238372,4.98217347401768,-0.01373535200247361
0.01275239123238372,4.98217347401768,-0.01373535200247361
0.01275254123238372,4.985887695707913,-0.01373535200248377
0.01275269123238372,4.985887695707913,-0.02117859880769073
0.01275284123238372,4.989601917398147,-0.01001372859985321
0.01275299123238372,4.989601917398147,-0.01373535200245669
0.01275314123238372,4.989601917398147,-0.01373535200247361
0.01275329123238372,4.989601917398147,-0.01373535200247361
0.01275344123238372,4.989601917398147,-0.01001372859984982
0.01275359123238372,4.989601917398147,-0.0137353520024533
0.01275374123238372,4.989601917398147,-0.01373535200247361
0.01275389123238372,4.989601917398125,-0.01373535200245161
0.01275404123238372,4.985887695707913,-0.01001372859984813
0.01275419123238372,4.993316139088338,-0.01001372859984813
0.01275434123238372,4.993316139088382,-0.01373535200247192
0.01275449123238372,4.989601917398188,-0.006292105197242956
0.01275464123238372,4.997030360778612,-0.01001372859984644
0.01275479123238372,5.000744582468831,-0.01001372859986675
0.01275494123238372,4.997030360778619,-0.01373535200247023
0.01275509123238372,4.993316139088365,-0.01373535200247361
0.01275524123238372,4.989601917398153,-0.01373535200247361
0.01275539123238372,4.989601917398164,-0.01001372859984813
0.01275554123238372,4.993316139088375,-0.01001372859984813
0.01275569123238372,4.989601917398162,-0.01001372859984813
0.01275584123238372,4.993316139088375,-0.01001372859984813
0.01275599123238372,4.993316139088368,-0.01001372859983459
0.01275614123238372,4.989601917398156,-0.006292105197231109
0.01275629123238372,4.989601917398136,-0.01001372859985998
0.01275644123238372,4.985887695707923,-0.01373535200246346
0.01275659123238372,4.99331613908837,-0.002570481794597165
0.01275674123238372,4.989601917398157,-0.002570481794597165
0.01275689123238372,4.989601917398137,-0.006292105197212493
0.01275704123238372,4.985887695707925,-0.002570481794609012
0.01275719123238372,4.989601917398138,-0.006292105197231109
0.01275734123238372,4.985887695707927,-0.01001372859983459
0.01275749123238372,4.989601917398147,-0.01001372859984813
0.01275764123238372,4.989601917398147,-0.01001372859984813
0.01275779123238372,4.985887695707921,-0.01001372859984136
0.01275794123238372,4.989601917398132,-0.006292105197237879
0.01275809123238372,4.989601917398147,-0.01001372859984305
0.01275824123238372,4.989601917398147,-0.006292105197239571
0.01275839123238372,4.993316139088372,-0.01001372859985321
0.01275854123238372,4.985887695707947,-0.01373535200245669
0.01275869123238372,4.98217347401768,-0.01373535200246684
0.01275884123238372,4.98217347401768,-0.00629210519725988
0.01275899123238372,4.985887695707913,-0.01001372859984813
0.01275914123238372,4.985887695707913,-0.01001372859984813
0.01275929123238372,4.989601917398147,-0.02490022221033652
0.01275944123238372,4.989601917398169,0.004872765010587795
0.01275959123238372,4.993316139088382,-0.006292105197222647
0.01275974123238372,4.989601917398169,-0.01001372859982613
0.01275989123238372,4.982173474017683,0.001151141608023239
0.01276004123238372,4.985887695707934,-0.002570481794597165
0.01276019123238372,4.989601917398145,-0.002570481794597165
0.01276034123238372,4.989601917398129,-0.002570481794597165
0.01276049123238372,4.985887695707917,-0.002570481794597165
0.01276064123238372,4.989601917398147,-0.01001372859979736
0.01276079123238372,4.989601917398147,0.001151141608013086
0.01276094123238372,4.993316139088365,-0.002570481794580241
0.01276109123238372,4.989601917398154,0.001151141608021547
0.01276124123238372,4.989601917398162,-0.002570481794581934
0.01276139123238372,4.993316139088375,0.001151141608021547
0.01276154123238372,5.000744582468836,-0.002570481794597165
0.01276169123238372,4.997030360778624,-0.002570481794597165
0.01276184123238372,4.997030360778627,-0.002570481794620859
0.01276199123238372,5.000744582468839,-0.01001372859982782
0.01276214123238372,4.997030360778616,-0.01001372859982444
0.01276229123238372,4.997030360778616,-0.002570481794617474
0.01276244123238372,4.989601917398157,-0.00257048179460732
0.01276259123238372,4.99331613908837,-0.006292105197210801
0.01276274123238372,4.993316139088382,-0.006292105197222647
0.01276289123238372,4.993316139088382,-0.006292105197222647
0.01276304123238372,4.993316139088382,-0.002570481794597165
0.01276319123238372,4.993316139088382,-0.002570481794597165
0.01276334123238372,4.993316139088382,-0.01001372859984136
0.01276349123238372,4.993316139088382,-0.006292105197237879
0.01276364123238372,4.993316139088367,-0.01001372859984305
0.01276379123238372,4.98217347401773,-0.006292105197239571
0.01276394123238372,4.985887695707923,-0.002570481794597165
0.01276409123238372,4.993316139088348,-0.002570481794597165
0.01276424123238372,4.989601917398147,-0.006292105197226032
0.01276439123238372,4.989601917398147,-0.01001372859982951
0.01276454123238372,4.989601917398147,-0.006292105197222647
0.01276469123238372,4.989601917398147,-0.006292105197222647
0.01276484123238372,4.99331613908838,-0.002570481794598858
0.01276499123238372,4.989601917398169,-0.006292105197200646
0.01276514123238372,4.993316139088382,-0.002570481794597165
0.01276529123238372,4.985887695707957,-0.002570481794597165
0.01276544123238372,4.989601917398145,0.001151141608026624
0.01276559123238372,4.993316139088382,-0.002570481794597165
0.01276574123238372,4.993316139088382,-0.002570481794597165
0.01276589123238372,4.997030360778578,-0.002570481794615781
0.01276604123238372,4.989601917398154,-0.006292105197219263
0.01276619123238372,4.993316139088382,0.001151141608028317
0.01276634123238372,4.993316139088382,0.001151141608028317
0.01276649123238372,4.989601917398147,0.004872765010670722
0.01276664123238372,4.989601917398147,0.008594388413272511
0.01276679123238372,4.989601917398147,0.004872765010638567
0.01276694123238372,4.989601917398147,0.001151141608035086
0.01276709123238372,4.985887695707913,0.008594388413265741
0.01276724123238372,4.985887695707913,0.00487276501066226
0.01276739123238372,4.985887695707925,0.001151141608028317
0.01276754123238372,4.989601917398137,0.001151141608028317
0.01276769123238372,4.99331613908837,0.001151141608028317
0.01276784123238372,4.989601917398157,0.001151141608028317
0.01276799123238372,4.993316139088372,-0.006292105197222647
0.01276814123238372,4.989601917398159,-0.006292105197222647
0.01276829123238372,4.993316139088365,0.004872765010636874
0.01276844123238372,4.98588769570794,-0.002570481794570087
0.01276859123238372,4.993316139088382,-0.006292105197214185
0.01276874123238372,4.993316139088382,-0.002570481794610704
0.01276889123238372,4.993316139088382,-0.006292105197222647
0.01276904123238372,4.993316139088382,-0.006292105197222647
0.01276919123238372,4.993316139088376,-0.00629210519721757
0.01276934123238372,4.989601917398164,-0.002570481794614089
0.01276949123238372,4.99703036077861,-0.00257048179460732
0.01276964123238372,4.993316139088399,-0.01001372859981428
0.01276979123238372,4.993316139088378,0.001151141608024932
0.01276994123238372,4.989601917398166,-0.002570481794578549
0.01277009123238372,4.993316139088382,0.001151141608028317
0.01277024123238372,4.993316139088382,0.001151141608028317
0.01277039123238372,4.993316139088382,-0.002570481794595473
0.01277054123238372,4.993316139088404,0.001151141608028317
0.01277069123238372,4.997030360778616,0.001151141608028317
0.01277084123238372,4.993316139088404,-0.002570481794575164
0.01277099123238372,4.989601917398149,-0.002570481794597165
0.01277114123238372,4.993316139088382,0.001151141608048625
0.01277129123238372,4.993316139088382,0.004872765010652106
0.01277144123238372,4.993316139088382,0.001151141608028317
0.01277159123238372,4.993316139088382,0.001151141608028317
0.01277174123238372,4.997030360778632,0.004872765010670722
0.01277189123238372,5.000744582468844,0.008594388413274203
0.01277204123238372,4.989601917398162,0.01231601181588953
0.01277219123238372,4.993316139088375,0.008594388413286049
0.01277234123238372,4.993316139088382,0.008594388413248817
0.01277249123238372,4.993316139088382,0.001151141608041856
0.01277264123238372,4.993316139088382,0.004872765010640259
0.01277279123238372,4.993316139088382,0.001151141608036779
0.01277294123238372,4.993316139088382,-0.002570481794573472
0.01277309123238372,4.993316139088382,0.00487276501063349
0.01277324123238372,4.989601917398147,0.001151141608028317
0.01277339123238372,4.989601917398147,0.001151141608028317
0.01277354123238372,4.993316139088372,-0.002570481794587011
0.01277369123238372,4.989601917398159,0.00115114160801647
0.01277384123238372,4.993316139088373,0.001151141608028317
0.01277399123238372,4.989601917398161,0.001151141608028317
0.01277414123238372,5.000744582468832,0.004872765010636874
0.01277429123238372,4.993316139088408,-0.002570481794570087
0.01277444123238372,4.993316139088382,-0.002570481794590396
0.01277459123238372,4.993316139088382,0.001151141608013085
0.01277474123238372,4.989601917398147,0.004872765010643644
0.01277489123238372,4.989601917398147,-0.002570481794563317
0.01277504123238372,4.989601917398142,0.001151141608028317
0.01277519123238372,4.98588769570793,0.001151141608028317
0.01277534123238372,4.985887695707917,0.001151141608028317
0.01277549123238372,4.989601917398129,0.001151141608028317
0.01277564123238372,4.989601917398149,-0.002570481794595473
0.01277579123238372,4.993316139088361,0.001151141608008008
0.01277594123238372,4.997030360778612,-0.01001372859984644
0.01277609123238372,4.989601917398147,-0.006292105197222647
0.01277624123238372,4.989601917398147,-0.006292105197222647
0.01277639123238372,4.99331613908836,-0.01001372859982613
0.01277654123238372,4.993316139088382,-0.00257048179460055
0.01277669123238372,4.993316139088382,-0.002570481794597165
0.01277684123238372,4.993316139088382,-0.002570481794597165
0.01277699123238372,4.993316139088363,0.001151141608028317
0.01277714123238372,4.989601917398151,0.001151141608028317
0.01277729123238372,4.993316139088382,-0.006292105197188799
0.01277744123238372,4.993316139088382,0.001151141608018162
0.01277759123238372,4.993316139088367,-0.002570481794566702
0.01277774123238372,4.989601917398154,0.004872765010640259
0.01277789123238372,4.993316139088352,-0.002570481794581934
0.01277804123238372,4.985887695707927,0.001151141608021547
0.01277819123238372,4.989601917398161,0.001151141608041856
0.01277834123238372,4.993316139088373,0.004872765010645336
0.01277849123238372,4.99331613908837,0.00115114160801647
0.01277864123238372,4.989601917398157,-0.002570481794587011
0.01277879123238372,4.993316139088382,0.001151141608028317
0.01277894123238372,4.993316139088382,0.001151141608028317
0.01277909123238372,4.993316139088017,0.004872765010653798
0.01277924123238372,4.859604158240386,0.004872765010653798
0.01277939123238372,0.3356821395342196,0.001151141613858629
0.01277954123238372,-0.03945425117718643,2.565349666007656
0.01277969123238372,-0.06545380301021379,4.887642669254516
0.01277984123238372,-0.07659646808084962,4.548974939617599
0.01277999123238372,-0.08773913315160536,3.733939414441522
0.01278014123238372,-0.09516757653202924,3.808371882493591
0.01278029123238372,-0.09888179822230367,3.931185454780674
0.01278044123238372,-0.1063102416027276,4.031669286650969
0.01278059123238372,-0.1063102416027512,4.106101754704011
0.01278074123238372,-0.09888179822232732,4.161926105743063
0.01278089123238372,-0.09516757653206641,4.214028833380115
0.01278104123238372,-0.1025960199124903,4.258688314211356
0.01278119123238372,-0.09516757653206134,4.29218292483522
0.01278134123238372,-0.09888179822227328,4.318234288653445
0.01278149123238372,-0.09888179822229354,4.336842405666722
0.01278164123238372,-0.09888179822231549,4.351728899277261
0.01278179123238372,-0.1025960199125274,4.359172146082468
0.01278194123238372,-0.08773913315167968,4.370337016290279
0.01278209123238372,-0.08773913315159185,4.381501886498215
0.01278224123238372,-0.08773913315161211,4.388945133303533
0.01278239123238372,-0.09145335484182238,4.400110003511339
0.01278254123238372,-0.09145335484180717,4.4075532503166
0.01278269123238372,-0.08773913315159522,4.4075532503166
0.01278284123238372,-0.08402491146137483,4.411274873719242
0.01278299123238372,-0.08773913315158678,4.414996497121844
0.01278314123238372,-0.09145335484181055,4.422439743927101
0.01278329123238372,-0.08773913315159861,4.422439743927101
0.01278344123238372,-0.08402491146137314,4.429882990732337
0.01278359123238372,-0.08773913315158509,4.426161367329733
0.01278374123238372,-0.09145335484183927,4.433604614134977
0.01278389123238372,-0.0951675765320512,4.433604614134977
0.01278404123238372,-0.0951675765320833,4.429882990732376
0.01278419123238372,-0.1025960199125072,4.437326237537582
0.01278434123238372,-0.09888179822229354,4.433604614134989
0.01278449123238372,-0.09888179822229354,4.437326237537593
0.01278464123238372,-0.09516757653204952,4.429882990732373
0.01278479123238372,-0.09145335484183757,4.437326237537579
0.01278494123238372,-0.0914533548418173,4.441047860940229
0.01278509123238372,-0.08773913315160536,4.441047860940229
0.01278524123238372,-0.0840249114613664,4.441047860940229
0.01278539123238372,-0.08773913315157833,4.441047860940229
0.01278554123238372,-0.0840249114613647,4.441047860940229
0.01278569123238372,-0.08773913315157665,4.441047860940229
0.01278584123238372,-0.08402491146136808,4.437326237537608
0.01278599123238372,-0.09145335484179197,4.441047860940212
0.01278614123238372,-0.08773913315159691,4.437326237537608
0.01278629123238372,-0.09145335484180886,4.441047860940212
0.01278644123238372,-0.09516757653205965,4.444769484342854
0.01278659123238372,-0.09516757653205965,4.444769484342854
0.01278674123238372,-0.09516757653205796,4.448491107745479
0.01278689123238372,-0.09145335484184602,4.448491107745479
0.01278704123238372,-0.09145335484182575,4.448491107745479
0.01278719123238372,-0.09145335484186966,4.448491107745457
0.01278734123238372,-0.09888179822229354,4.444769484342854
0.01278749123238372,-0.09145335484186966,4.448491107745457
0.01278764123238372,-0.09516757653205796,4.452212731148103
0.01278779123238372,-0.09145335484178521,4.452212731148064
0.01278794123238372,-0.0840249114613647,4.444769484342861
0.01278809123238372,-0.09145335484184433,4.452212731148105
0.01278824123238372,-0.09516757653205628,4.452212731148105
0.01278839123238372,-0.09145335484184264,4.452212731148105
0.01278854123238372,-0.09516757653205458,4.452212731148105
0.01278869123238372,-0.09145335484182575,4.45221273114812
0.01278884123238372,-0.09145335484182575,4.455934354550723
0.01278899123238372,-0.09516757653205965,4.448491107745479
0.01278914123238372,-0.09516757653205965,4.448491107745479
0.01278929123238372,-0.09888179822228002,4.444769484342867
0.01278944123238372,-0.0951675765320681,4.44849110774547
0.01278959123238372,-0.09888179822229354,4.444769484342854
0.01278974123238372,-0.09888179822229354,4.444769484342854
0.01278989123238372,-0.09888179822229354,4.444769484342878
0.01279004123238372,-0.09888179822229354,4.452212731148085
0.01279019123238372,-0.09888179822228341,4.45593435455071
0.01279034123238372,-0.09516757653207147,4.448491107745503
0.01279049123238372,-0.09888179822229354,4.444769484342871
0.01279064123238372,-0.09888179822229354,4.452212731148078
0.01279079123238372,-0.102596019912519,4.452212731148105
0.01279094123238372,-0.09888179822230705,4.452212731148105
0.01279109123238372,-0.09888179822228002,4.459655977953349
0.01279124123238372,-0.09145335484185615,4.455934354550745
0.01279139123238372,-0.09516757653206978,4.455934354550735
0.01279154123238372,-0.1025960199124937,4.459655977953339
0.01279169123238372,-0.09516757653207485,4.459655977953356
0.01279184123238372,-0.1063102416027107,4.459655977953356
0.01279199123238372,-0.1025960199125308,4.463377601355981
0.01279214123238372,-0.1063102416027428,4.463377601355981
0.01279229123238372,-0.09888179822229523,4.455934354550728
0.01279244123238372,-0.1025960199125072,4.452212731148125
0.01279259123238372,-0.09888179822229523,4.452212731148105
0.01279274123238372,-0.1025960199125055,4.452212731148105
0.01279289123238372,-0.09888179822229354,4.452212731148105
0.01279304123238372,-0.09888179822229354,4.452212731148105
0.01279319123238372,-0.09888179822229354,4.452212731148105
0.01279334123238372,-0.09888179822227328,4.452212731148085
