3.2.1 integrator_invertiertes/messdaten/100Khz.csv

#Digilent WaveForms Oscilloscope Acquisition
#Device Name: Discovery2
#Serial Number: SN:210321AA2AFF
#Date Time: 2023-12-05 19:16:48.124
#Sample rate: 1e+08Hz
#Samples: 8192
#Trigger: Source: Channel 1 Type: Edge Condition: Rising Level: 0 V Hyst.: Auto HoldOff: 0 s
#Channel 1: Range: 200 mV/div Offset: 0 V Attenuation: 1 X Sample Mode: Average
#Channel 2: Range: 2 mV/div Offset: 0 V Attenuation: 1 X Sample Mode: Average

Time (s),Channel 1 (V),Channel 2 (V)
1.239455721538462,-0.02275215718267201,-0.002090091417041213
1.239455731538462,-0.02545542173047711,-0.001412464560878239
1.239455741538461,-0.0274828701440059,-0.002428904838420152
1.239455751538462,-0.03187567509564217,-0.002428904850683404
1.239455761538462,-0.0342410315750093,-0.002767718278754569
1.239455771538462,-0.03897174453367037,-0.002428904850672927
1.239455781538462,-0.04032337688527652,-0.00209009141847842
1.239455791538462,-0.04437827370563855,-0.002090091422531659
1.239455801538462,-0.04809526245887057,-0.00310653170677612
1.239455811538462,-0.05316388348318251,-0.001412464572032925
1.239455821538462,-0.05417760775499422,-0.002090091410388122
1.239455831538462,-0.05654296424004885,-0.001073651131244913
1.239455841538462,-0.06194949333565906,-0.00276771827165235
1.239455851538461,-0.06330112562657453,-0.002090091425439507
1.239455861538462,-0.06803183864369511,-0.00175127799230453
1.239455871538462,-0.07073510319150143,-0.002428904848467812
1.239455881538462,-0.0747900000129073,-0.003445345132636624
1.239455891538462,-0.07580372429985033,-0.002767718285418291
1.239455901538462,-0.08087234532065322,-0.003445345133960432
1.239455911538462,-0.08425142600540961,-0.002090091421634483
1.239455921538462,-0.09033377123167584,-0.001751277991185949
1.239455931538462,-0.0913474955230926,-0.002090091415862543
1.239455941538462,-0.09506448427243895,-0.001751277986667252
1.239455951538462,-0.0964161165463415,-0.0007348377024227895
1.239455961538461,-0.09979519722210922,-0.002428904830811952
1.239455971538462,-0.1021605537532312,-0.001412464558197034
1.239455981538462,-0.102498461821707,-0.001412464558197034
1.239455991538462,-0.1065533586416973,-0.001751277986121982
1.239456001538462,-0.1089187151943173,-0.001073651131304694
1.239456011538462,-0.1122977958767018,-0.001412464559386181
1.239456021538462,-0.1150010604245081,-0.001751277987467823
1.239456031538462,-0.1177043249723132,-0.00209009141554931
1.239456041538462,-0.1210834057287872,-0.001073651135661305
1.239456051538462,-0.1248003944820193,-0.00209009141847842
1.239456061538462,-0.128517383235253,-0.00209009141847842
1.239456071538461,-0.1308827397208997,-0.002428904844976792
1.239456081538462,-0.134261820475239,-0.001751277986516105
1.239456091538462,-0.1386546253654243,-0.001412464558434463
1.239456101538462,-0.1420337060508911,-0.0003960242746648586
1.239456111538462,-0.1454127868043615,-0.002090091412143493
1.239456121538462,-0.1481160513554825,-0.00141246456041355
1.239456131538462,-0.1518330401087162,-0.002090091416576833
1.239456141538462,-0.1535225804567839,-0.001751277991347727
1.239456151538462,-0.1572395692647492,-0.002428904846165015
1.239456161538462,-0.1596049257452602,-0.002090091418873313
1.239456171538462,-0.1629840064300181,-0.002428904846954955
1.239456181538461,-0.1660251790479586,-0.001073651142949799
1.239456191538462,-0.1690663517335042,-0.001073651131537809
1.239456201538462,-0.1724454324182621,-0.001751277987701092
1.239456211538462,-0.1744728808303858,-0.002428904843864066
1.239456221538462,-0.1781898696450622,-0.00107365113422949
1.239456231538462,-0.1808931341877442,-0.00175127798628299
1.239456241538462,-0.1819068583931716,-0.001073651130119707
1.239456251538462,-0.1846101229358321,-0.00175127798215595
1.239456261538462,-0.1879892036847214,-0.002767718274013388
1.239456271538462,-0.1906924682319002,-0.002090091417850413
1.239456281538462,-0.192719916642755,-0.00141246456168713
1.239456291538462,-0.1967748135366389,-0.00242890485233801
1.239456301538462,-0.2001538942280185,-0.002767718280419652
1.239456311538462,-0.2048846071866774,-0.003106531708501139
1.239456321538462,-0.2058983313964861,-0.003445345136582781
1.239456331538462,-0.2102911363417066,-0.001412464558197034
1.239456341538462,-0.2126564928248119,-0.001412464559143514
1.239456351538462,-0.2163734815780439,-0.001751277987225001
1.239456361538462,-0.2194146541965455,-0.004122971977120134
1.239456371538462,-0.2211041945890929,-0.001412464567366316
1.239456381538462,-0.222793734933331,-0.002767718277361119
1.239456391538462,-0.2271865398235163,-0.0007348377088712702
1.239456401538462,-0.2312414367116836,-0.001751277981061713
1.239456411538462,-0.2329309770698099,-0.001073651121740519
1.239456421538462,-0.2379995980969445,0.0002816025905854308
1.239456431538462,-0.2393512303761163,-0.00310653168350748
1.239456441538462,-0.2417165869120369,-0.001412464572820246
1.239456451538462,-0.2454335756600909,-0.003106531705438138
1.239456461538462,-0.2471231160024691,-0.001751277993112188
1.239456471538462,-0.2505021966812749,-0.002767718269001806
1.239456481538462,-0.2532054612911816,-0.001751277983915173
1.239456491538462,-0.2552329097026436,-0.001073651128360792
1.239456501538462,-0.2586119903874015,-0.001751277984524075
1.239456511538462,-0.2603015307874465,-0.001751277974109255
1.239456521538462,-0.2630047953337588,-0.0003960242782614199
1.239456531538462,-0.2653701518130882,-0.002767718274831832
1.239456541538462,-0.2673976002245027,-0.001412464568677799
1.239456551538462,-0.2701008648412864,-0.00242890485430662
1.239456561538462,-0.2744936697299065,-0.003106531708115799
1.239456571538462,-0.2782106584831386,-0.002767718280034311
1.239456581538461,-0.2805760149675535,-0.002090091425145533
1.239456591538462,-0.2822655553540963,-0.002767718272368642
1.239456601538462,-0.2839550956966886,-0.001751277988409064
1.239456611538462,-0.2866583602444937,-0.002090091416490551
1.239456621538462,-0.288347900665005,-0.001751277974432811
1.239456631538462,-0.2934165216822481,-0.0003960242776951961
1.239456641538462,-0.2961197862300533,-0.002767718274265608
1.239456651538462,-0.297471418506517,-0.002428904851320348
1.239456661538462,-0.3011884073096488,-0.002090091424004149
1.239456671538462,-0.3032158557226093,-0.00276771827664837
1.239456681538462,-0.30625702833889,-0.001751277992403908
1.239456691538461,-0.3092982009551722,-0.0007348377081589836
1.239456701538462,-0.3116635574877015,-0.00175127798218923
1.239456711538462,-0.3130151897616047,-0.0007348376979443058
1.239456721538462,-0.3160563623778378,-0.002428904838275322
1.239456731538462,-0.3167321785713283,-0.001073651141637701
1.239456741538462,-0.3201112592494218,-0.002428904847282979
1.239456751538462,-0.3218007995918008,-0.002090091419201338
1.239456761538462,-0.3245040641374429,-0.001412464563761281
1.239456771538462,-0.3248419722569179,-0.001073651125374366
1.239456781538462,-0.3282210529391899,-0.0007348376991611862
1.239456791538462,-0.3302485013500446,-0.001412464555324469
1.239456801538461,-0.3336275820290727,-0.001412464558197034
1.239456811538462,-0.3366687547144035,-0.00310653170299467
1.239456821538462,-0.3393720192622099,-0.002090091418749745
1.239456831538462,-0.3427510999467858,-0.002428904846469466
1.239456841538462,-0.3454543645721267,-0.001751277985023277
1.239456851538462,-0.3495092613850711,-0.001412464558197034
1.239456861538462,-0.3511988017274502,-0.001412464558197034
1.239456871538462,-0.3525504340021543,-0.001412464558197034
1.239456881538462,-0.3545778824549108,-0.002428904830411513
1.239456891538462,-0.3569432389336998,-5.721084088554182e-05
1.239456901538462,-0.3589706873445546,-0.00209009140937539
1.239456911538461,-0.3609981357554083,-0.00209009141847842
1.239456921538462,-0.3640393084247521,-0.001073651139382666
1.239456931538462,-0.3664046649040827,-0.003106531707872515
1.239456941538462,-0.367418389110193,-5.721085770909193e-05
1.239456951538462,-0.3704595617645305,-0.002428904845385552
1.239456961538462,-0.3718111940407755,-0.00209009141847842
1.239456971538462,-0.3738386424516302,-0.00209009141847842
1.239456981538462,-0.3772177231328573,-0.0007348377096912545
1.239456991538462,-0.3802588957919549,-0.001751277980777137
1.239457001538462,-0.3795830796600609,-0.0007348377020645663
1.239457011538462,-0.3826242522763431,-0.003784158554799339
1.239457021538461,-0.3836379764913327,-0.0003960243043476209
1.239457031538462,-0.3863412410773219,-0.001073651129863173
1.239457041538462,-0.3883686894881758,-0.00141246455794466
1.239457051538462,-0.3893824136943583,-0.002090091413855569
1.239457061538462,-0.3914098621558925,-0.001412464551891689
1.239457071538462,-0.3947889428341056,-0.0007348376990091147
1.239457081538462,-0.3961405751080082,-0.001073651127090602
1.239457091538462,-0.397830115449424,-0.001073651128056341
1.239457101538462,-0.4018850123205908,-0.001412464558197034
1.239457111538462,-0.4032366445948724,-0.001412464557056729
1.239457121538462,-0.4049261849372514,-0.0003960242728118044
1.239457131538461,-0.4062778172128284,-5.72108413724173e-05
1.239457141538462,-0.4079673575821091,-0.00107365114013794
1.239457151538462,-0.4083052656505847,-0.003445345136708351
1.239457161538462,-0.4103327140597776,-0.001412464572550924
1.239457171538462,-0.4133738867057938,-0.001751277969907951
1.239457181538462,-0.413035978645397,0.0002816025894686986
1.239457191538462,-0.4154013351247264,-0.0007348376947757635
1.239457201538462,-0.4160771512668972,-0.001073651124950661
1.239457211538462,-0.4187804158655503,-0.001073651135131134
1.239457221538462,-0.4228353126836788,-0.00209009141847842
1.239457231538462,-0.4228353126836788,-0.00209009141847842
1.239457241538462,-0.4265523014558073,-0.001751277980929517
1.239457251538462,-0.4262143934086601,-0.001073651126411288
1.239457261538462,-0.4302692902303678,-0.0007348376983298001
1.239457271538462,-0.4309451063714498,-0.0003960242702481587
1.239457281538462,-0.4333104628909676,-0.0007348377038971285
1.239457291538462,-0.4356758193637937,-0.001412464556333657
1.239457301538462,-0.4356758193637937,-0.0007348377001706824
1.239457311538462,-0.4387169919699553,-0.001073651124869772
1.239457321538462,-0.4397307162169597,-0.002428904839509612
1.239457331538462,-0.440744440424129,-0.001073651128274665
1.239457341538462,-0.444461429177361,-0.001412464556356152
1.239457351538462,-0.447840509895623,-0.0007348377124085126
1.239457361538462,-0.4471646937773912,-0.002090091423170914
1.239457371538462,-0.4505437744621477,-0.003106531707415375
1.239457381538462,-0.4505437744670848,-0.002090091426141162
1.239457391538462,-0.4522333148255356,-0.002767718272940105
1.239457401538462,-0.4529091309641843,-0.002090091413373624
1.239457411538462,-0.4542607632380868,-5.721084488469978e-05
1.239457421538462,-0.4552744874447193,-0.002767718252620142
1.239457431538462,-0.4559503036021261,0.0002816025815240006
1.239457441538462,-0.4569640278078276,-0.001412464558471903
1.239457451538462,-0.4586535681502058,-0.002090091414634878
1.239457461538462,-0.4589914762585812,-0.001073651131598668
1.239457471538462,-0.4616947407989905,-0.001412464564129519
1.239457481538462,-0.4627084650044179,-0.002767718276456085
1.239457491538462,-0.4637221892098448,-0.004122971988782035
1.239457501538462,-0.4650738215195963,-0.001751277971363955
1.239457511538462,-0.4674391779966227,0.0002816025855786254
1.239457521538462,-0.4687908102705259,-0.002767718267156148
1.239457531538461,-0.4687908102756693,-0.002090091425175115
1.239457541538462,-0.4721698909725229,-0.001073651128056341
1.239457551538462,-0.4708182586991273,-0.001073651128056341
1.239457561538462,-0.4725077990415054,-0.001073651128056341
1.239457571538462,-0.4728457071392823,-0.0003960242850821444
1.239457581538462,-0.4745352474760665,-0.002090091407260563
1.239457591538462,-0.4748731555445423,0.0006204160173925674
1.239457601538462,-0.4758868797486591,-0.00175127796932555
1.239457611538462,-0.4755489717109226,-0.001073651139048633
1.239457621538462,-0.4785901443230812,-0.002428904848619114
1.239457631538462,-0.4796038685285086,-0.002428904848619114
1.239457641538461,-0.4809555008010446,-0.0003960242883512973
1.239457651538462,-0.4816313169517257,-0.002767718258412727
1.239457661538462,-0.4809555008147741,0.0006204160224036869
1.239457671538462,-0.4829829492254336,-0.0003960242615243059
1.239457681538462,-0.4833208573084309,-0.0007348377046767456
1.239457691538462,-0.4833208573137021,-0.001412464556875691
1.239457701538462,-0.4846724895876053,-0.00107365112879405
1.239457711538462,-0.485686213793768,-0.0007348377007125625
1.239457721538462,-0.4863620299618154,-0.001412464552862666
1.239457731538462,-0.4887273864381131,-0.0007348376979156479
1.239457741538462,-0.4894032025750646,-0.0007348376979156479
1.239457751538461,-0.4921064671141865,-0.0007348376979156479
1.239457761538462,-0.4910927429461946,-0.002090091410663145
1.239457771538462,-0.4937960074939996,-0.0007348376983371957
1.239457781538462,-0.495485547836694,-0.0003960242699393934
1.239457791538462,-0.4944718236490625,-0.0007348376814173494
1.239457801538462,-0.4958234559291508,0.0009592294416237331
1.239457811538462,-0.4988646285454315,-0.002090091411109653
1.239457821538462,-0.4978509043498029,-0.001751277991215531
1.239457831538462,-0.4975129962887189,-0.001751277988337727
1.239457841538462,-0.4998783527622659,-0.001751277985175194
1.239457851538462,-0.4985267204883627,0.0002816025833146545
1.239457861538461,-0.4995404446830946,-0.001073651113691666
1.239457871538462,-0.4981888124135899,-0.0003960242659020249
1.239457881538462,-0.4985267204820654,-5.721083782053759e-05
1.239457891538462,-0.4995404446871213,-0.002090091405006453
1.239457901538462,-0.500216260831688,-0.001412464561415651
1.239457911538462,-0.4998783527655251,-0.001751277983699469
1.239457921538462,-0.5002162608340007,-0.0003960242713735187
1.239457931538462,-0.5005541689024766,-5.721084059295432e-05
1.239457941538462,-0.5015678930970269,-0.002090091410962666
1.239457951538462,-0.4988646285558956,-0.001073651127610141
1.239457961538462,-0.5012299850352262,-0.0007348376995284999
1.239457971538461,-0.5019058011802202,-0.0007348376979156479
1.239457981538462,-0.5035953415348297,-0.001412464559989075
1.239457991538462,-0.5025816173294028,-0.001751277988070562
1.239458001538462,-0.5046090657378595,-0.001073651132708775
1.239458011538462,-0.5059606980276381,-0.002428904826655022
1.239458021538462,-0.5052848818960656,-5.721084302763973e-05
1.239458031538462,-0.5062986061014924,-0.001751277983435077
1.239458041538462,-0.5073123303069198,-5.721085283217102e-05
1.239458051538462,-0.508326054532438,-0.0007348376979156479
1.239458061538462,-0.5090018706672035,-0.0007348376979156479
1.239458071538462,-0.507650238393301,-0.0007348376979156479
1.239458081538461,-0.5073123303197571,0.0009592294340230833
1.239458091538462,-0.5076502383763041,-0.00175127797978197
1.239458101538462,-0.5056227899654502,-5.721083937453302e-05
1.239458111538462,-0.506636514167753,-0.0007348376931011276
1.239458121538462,-0.5062986061013774,-0.001412464561253872
1.239458131538462,-0.5059606980329017,-0.001751277985344368
1.239458141538462,-0.505622789964426,-0.0007348377010999059
1.239458151538462,-0.5059606980307846,-0.001751277978976314
1.239458161538462,-0.5059606980385711,-0.0007348376838548082
1.239458171538462,-0.5066365141746718,0.001298042880653139
1.239458181538462,-0.5062986061061961,-0.00141246454399876
1.239458191538462,-0.5056227899596879,-0.0003960242714642688
1.239458201538462,-0.5052848818977154,-0.0007348377060661895
1.239458211538462,-0.5062986061031427,-0.002428904846474397
1.239458221538462,-0.5059606980363782,-5.721085505130648e-05
1.239458231538462,-0.5056227899603994,-0.003106531691044805
1.239458241538462,-0.5052848818928382,-0.001073651131723314
1.239458251538462,-0.5052848818928382,-0.00242890484404988
1.239458261538462,-0.5066365141621842,-0.002090091421679781
1.239458271538462,-0.5052848818883251,-0.001751277988337727
1.239458281538462,-0.5046090657536063,-0.00175127798854126
1.239458291538462,-0.5076502383698871,-0.002090091416622747
1.239458301538462,-0.5076502383757472,0.0002816025852895816
1.239458311538462,-0.5066365141595047,-0.0003960242693241739
1.239458321538462,-0.5032574334747468,-0.0007348376974058153
1.239458331538462,-0.5029195254016949,-5.721084277233817e-05
1.239458341538462,-0.5039332495818475,-0.0003960242619848346
1.239458351538462,-0.5005541689087618,0.000281602589998869
1.239458361538462,-0.5019058011826649,-0.0007348376942460553
1.239458371538462,-0.5002162608512661,0.0006204160095175113
1.239458381538462,-0.4995404447003669,0.001636856297797339
1.239458391538462,-0.500554168905305,-0.0007348376976703613
1.239458401538462,-0.5002162608368294,-5.721084150738648e-05
1.239458411538462,-0.4988646285492624,0.0006204160050094453
1.239458421538462,-0.4985267204822512,-0.001073651125119681
1.239458431538462,-0.4985267204822512,-0.000396024268956398
1.239458441538462,-0.4971750882107053,-0.001751277977738018
1.239458451538462,-0.4964992720562685,-0.00141246454412618
1.239458461538462,-0.4961613639885458,0.0002816025902415364
1.239458471538462,-0.4961613639885458,-0.0007348376940033879
1.239458481538461,-0.4948097317198457,0.001636856289526157
1.239458491538462,-0.4944718236400895,0.0002816025841032079
1.239458501538462,-0.4951476397767919,-0.001073651127973141
1.239458511538462,-0.4937960075028887,-0.000396024271809858
1.239458521538462,-0.4934580994174363,-5.721083763426152e-05
1.239458531538462,-0.4927822832860199,-5.721083902170248e-05
1.239458541538462,-0.4934580994229713,-0.0003960242671031898
1.239458551538462,-0.4924443752208937,0.0002816025870447985
1.239458561538462,-0.4924443752018192,0.000620416019913843
1.239458571538462,-0.4910927429279167,0.0002816025918323557
1.239458581538462,-0.4897411106540134,-5.721083624928572e-05
1.239458591538461,-0.4887273864472053,-5.721083763426152e-05
1.239458601538462,-0.4877136622172543,-5.721083359442787e-05
1.239458611538462,-0.4863620299433518,0.0006204160225685468
1.239458621538462,-0.4866999380116316,-5.721083343757994e-05
1.239458631538462,-0.4833208572983611,0.0002816025857752245
1.239458641538462,-0.4823071330929337,-0.0003960242612421955
1.239458651538462,-0.4812934088875068,0.001298042879165241
1.239458661538462,-0.4812934088852548,0.001636856310257499
1.239458671538462,-0.4816313169478488,-0.0003960242704271933
1.239458681538462,-0.4806175927418297,-0.0007348376973224611
1.239458691538462,-0.4792659604679266,-0.0003960242692408196
1.239458701538461,-0.477914328194024,0.001298042865303157
1.239458711538462,-0.4765626958920425,0.0009592294411536517
1.239458721538462,-0.4755489716866156,-0.001073651127335273
1.239458731538462,-0.4735215232761204,0.0009592294397124388
1.239458741538462,-0.472845707089262,0.0009592294495031035
1.239458751538462,-0.4694666264203951,0.0006204160250984503
1.239458761538462,-0.470480350625822,0.001298042881261425
1.239458771538462,-0.4698045344930269,0.0002816026011842163
1.239458781538462,-0.4667633618601866,-0.0003960242652036052
1.239458791538462,-0.467777086058461,-5.721083660966603e-05
1.239458801538462,-0.464060097305229,0.0006204160195533086
1.239458811538461,-0.4633842811543924,-5.721083042234182e-05
1.239458821538462,-0.4630463730525792,0.0002816025943645702
1.239458831538462,-0.4586535681623959,0.0006204160224460575
1.239458841538462,-0.4589914762280641,0.001298042878407965
1.239458851538462,-0.4579777520059492,0.0009592294495839927
1.239458861538462,-0.4566261197320461,0.0006204160203575775
1.239458871538462,-0.4552744874581435,-5.721083580539704e-05
1.239458881538462,-0.454598671319368,0.001298042871034575
1.239458891538462,-0.4522333148172477,0.0009592294453164369
1.239458901538462,-0.4518954067457601,-5.721083806567014e-05
1.239458911538462,-0.4491921421979549,-0.0003960242661471575
1.239458921538461,-0.446826785717001,0.0006204160115865781
1.239458931538462,-0.4468267856753109,-0.0007348376872530755
1.239458941538462,-0.4437856130590288,0.001298042881236773
1.239458951538462,-0.4444614291928868,-5.721082826961265e-05
1.239458961538462,-0.4431097969123247,-5.721084075719775e-05
