3.2.1 integrator_invertiertes/messdaten/10khz.csv

#Digilent WaveForms Oscilloscope Acquisition
#Device Name: Discovery2
#Serial Number: SN:210321AA2AFF
#Date Time: 2023-12-05 19:11:58.199
#Sample rate: 877193Hz
#Samples: 8192
#Trigger: Source: Channel 1 Type: Edge Condition: Rising Level: 0 V Hyst.: Auto HoldOff: 0 s
#Channel 1: Range: 200 mV/div Offset: 0 V Attenuation: 1 X Sample Mode: Average
#Channel 2: Range: 5 mV/div Offset: 0 V Attenuation: 1 X Sample Mode: Average

Time (s),Channel 1 (V),Channel 2 (V)
1.236067895762179,-0.4975129962708034,0.0006204160226397292
1.236069035762179,-0.491092742930997,0.0009592294527671721
1.236070175762179,-0.4823071330957296,0.001636856313101098
1.236071315762179,-0.4704803506275536,0.001975669743209897
1.236072455762179,-0.4566261197363726,0.001975669743220374
1.236073595762179,-0.4410823484926379,0.002653296603474952
1.236074735762179,-0.4224974046143242,0.002992110033610561
1.236075875762179,-0.4022229203792783,0.004008550324116303
1.236077015762179,-0.3792451715840925,0.00468617718431757
1.236078155762179,-0.3545778824364087,0.004347363754203686
1.236079295762179,-0.3285589610066788,0.005024990614458263
1.236080435762179,-0.300850499224401,0.005363804044594642
1.236081575762179,-0.2707766809427204,0.005363804044707887
1.236082715762179,-0.2400270465257018,0.006380244335056012
1.236083855762179,-0.2082636878971856,0.006719057765179602
1.236084995762179,-0.1751486969866202,0.006719057765179602
1.236086135762179,-0.1416957980055334,0.006719057765179602
1.236087275762179,-0.1065533586651469,0.006719057765179602
1.236088415762179,-0.07141091933145344,0.006719057765195933
1.236089555762179,-0.03593057192727338,0.007057871195320295
1.236090695762179,-0.0001123164525802661,0.007057871195320295
1.236091835762179,0.03536803095162346,0.007396684625437261
1.236092975762179,0.07051047029226307,0.007396684625374552
1.236094115762179,0.1070045419078961,0.00638024433505447
1.236095255762179,0.141133257030005,0.006719057765177444
1.236096395762179,0.1745861560110863,0.006380244335050156
1.236097535762179,0.2080390549921828,0.006041430904922714
1.236098675762179,0.2404782297679074,0.005702617474757522
1.236099815762179,0.2705520480437999,0.005702617474742886
1.236100955762179,0.2999500501786974,0.005363804044614056
1.236102095762179,0.327996420031523,0.004686177184359479
1.236103235762179,0.3546911576023328,0.004347363754220172
1.236104375762179,0.3790205386842163,0.004008550324026785
1.236105515762179,0.4009845632676992,0.003669736893899497
1.236106655762179,0.421596955569178,0.003330923463771438
1.236107795762179,0.4395060833065246,0.00265329660351686
1.236108935762179,0.4550498545503486,0.002314483173376783
1.236110075762179,0.4692419935145755,0.001975669743156896
1.236111215762179,0.4793792356300154,0.001298042882902319
1.236112355762179,0.4885027535339508,0.0006204160226474329
1.236113495762179,0.4949230068737556,-5.721083760714437e-05
1.236114635762179,0.4976262714380321,-0.0007348376978617219
1.236115775762179,0.4986399956497583,-0.001073651128082072
1.236116915762179,0.4976262714380997,-0.001412464558221686
1.236118055762179,0.4935713745919062,-0.002090091418476572
1.236119195762179,0.4871511212521092,-0.002767718278731149
1.236120335762179,0.4780276033482923,-0.003445345138985726
1.236121475762179,0.4662008208779979,-0.0041229719993725
1.236122615762179,0.4523465899867623,-0.004800598859615522
1.236123755762179,0.4361270026019882,-0.005139412289742964
1.236124895762179,0.4175420587236216,-0.005817039149995847
1.236126035762179,0.3965917583517367,-0.005817039150026046
1.236127175762179,0.3736140095521937,-0.006494666010331621
1.236128315762179,0.3486088123339579,-0.006833479440480481
1.236129455762179,0.3219140747631961,-0.007849919730862347
1.236130595762179,0.2935297968398545,-0.007849919730870205
1.236131735762179,0.2641317947050123,-0.008188733160981624
1.236132875762179,0.2330442522115307,-0.00852754659117501
1.236134015762179,0.2006050774419673,-0.008866360021302299
1.236135155762179,0.167152178460886,-0.009205173451429587
1.236136295762179,0.133023463338764,-0.009205173451432977
1.236137435762179,0.09855684014615138,-0.00886636002132233
1.236138575762179,0.0624006765941063,-0.009205173451455625
1.236139715762179,0.02725823726041747,-0.009543986881573671
1.236140855762179,-0.008897926284791611,-0.009543986881573671
1.236141995762179,-0.04471618175950515,-0.008866360021327105
1.236143135762179,-0.07985862109320105,-0.009205173451402161
1.236144275762179,-0.1143252442926594,-0.008866360021314162
1.236145415762179,-0.1494676836262867,-0.009205173451432977
1.236146555762179,-0.183258490677884,-0.009205173451432977
1.236147695762179,-0.2163734815884742,-0.008527546591187953
1.236148835762179,-0.2481368402170482,-0.008527546591151592
1.236149975762179,-0.2782106584989522,-0.008188733160989789
1.236151115762179,-0.3076086606337881,-0.007849919730862501
1.236152255762179,-0.3346413062750658,-0.007511106300735213
1.236153395762179,-0.360998135775335,-0.007172292870607769
1.236154535762179,-0.3860033329935926,-0.006494666010372143
1.236155675762179,-0.4072915414405461,-0.005817039150005708
1.236156815762179,-0.4275660256714561,-0.005478225719864552
1.236157955762179,-0.4454751534088026,-0.004461785429482686
1.236159095762179,-0.4610189246525825,-0.003784158569221638
1.236160235762179,-0.4738594313346567,-0.003784158569083433
1.236161375762179,-0.4846724895909935,-0.002767718278740394
1.236162515762179,-0.4924443752128337,-0.002428904848606788
1.236163655762179,-0.4985267204821212,-0.00175127798835221
1.236164795762179,-0.50156789311683,-0.001073651128097633
1.236165935762179,-0.501905801187353,-0.001073651127992246
1.236167075762179,-0.4998783527641456,-0.0003960242677190256
1.236168215762179,-0.4958234559179036,0.00062041602265791
1.236169355762179,-0.4887273864370682,0.001298042882912488
1.236170495762179,-0.4789280523921688,0.001636856313047788
1.236171635762179,-0.4667633618512142,0.001975669743272452
1.236172775762179,-0.4529091309599168,0.002653296603509157
1.236173915762179,-0.4363516355045851,0.002992110033636599
1.236175055762179,-0.4167529674146587,0.003330923463763888
1.236176195762179,-0.3961405751132106,0.003669736893891177
1.236177335762179,-0.3728249182430848,0.00400855032411507
1.236178475762179,-0.3478197210248175,0.004686177184352546
1.236179615762179,-0.3211249834540243,0.00502499061448384
1.236180755762179,-0.2927407055306825,0.005702617474738417
1.236181895762179,-0.2623289791843023,0.006041430904875258
1.236183035762179,-0.2319172528317835,0.006380244335038909
1.236184175762179,-0.1998159861326846,0.006380244335087905
1.236185315762179,-0.1660251790810658,0.007396684625457907
1.236186455762179,-0.1315585558884366,0.007057871195330618
1.236187595762179,-0.09675402462530171,0.007396684625437261
1.236188735762179,-0.0622874014257804,0.007396684625460988
1.236189875762179,-0.02613123788058684,0.007396684625460988
1.236191015762179,0.009687017594101968,0.007396684625458831
1.236192155762179,0.04482945692777911,0.007057871195331389
1.236193295762179,0.08098562047295502,0.007057871195320295
1.236194435762179,0.1161280598134609,0.0070578711952921
1.236195575762179,0.1502567749355742,0.006719057765179602
1.236196715762179,0.1843854900576833,0.006719057765178215
1.236197855762179,0.2175004809682637,0.006380244335050773
1.236198995762179,0.2496017476673166,0.006380244335038909
1.236200135762179,0.2800134740196489,0.006041430904843366
1.236201275762179,0.3083977519429487,0.005363804044588787
1.236202415762179,0.3357683056547395,0.004686177184334827
1.236203555762179,0.361449319013965,0.004347363754207384
1.236204695762179,0.3854407920206621,0.004008550324080095
1.236205835762179,0.4074048166084284,0.004008550324000747
1.236206975762179,0.4266655766278256,0.003330923463746169
1.236208115762179,0.44558842857672,0.002653296603491592
1.236209255762179,0.4594426594678835,0.002653296603491284
1.236210395762179,0.4719452580770281,0.001975669743263515
1.236211535762179,0.4824204082650465,0.000959229452787818
1.236212675762179,0.4905302019573426,0.0009592294527628579
1.236213815762179,0.4962746391561143,0.0002816025925082805
1.236214955762179,0.4986399956497353,-0.000734837697872661
1.236216095762179,0.4983020875793334,-0.001751277988254989
1.236217235762179,0.4966125472263356,-0.001751277988412608
1.236218375762179,0.4922197423095209,-0.002767718278771517
1.236219515762179,0.4847857647581695,-0.003106531708898805
1.236220655762179,0.4746485226427037,-0.003784158569151688
1.236221795762179,0.4618080159632115,-0.00412297199929423
1.236222935762179,0.4476158769987226,-0.004461785429511652
1.236224075762179,0.4310583815433233,-0.005139412289766537
1.236225215762179,0.4111218053828808,-0.005817039150021116
1.236226355762179,0.390171505010898,-0.006155852580150868
1.236227495762179,0.366855848145396,-0.006494666010278312
1.236228635762179,0.3408369267107876,-0.006833479440494963
1.236229775762179,0.314142189139973,-0.00751110630074985
1.236230915762179,0.2860958192871474,-0.008188733161004427
1.236232055762179,0.2550082767997068,-0.008527546591134952
1.236233195762179,0.2239207343122233,-0.008527546591151592
1.236234335762179,0.1914815595363825,-0.008866360021314933
1.236235475762179,0.1573528444142631,-0.009205173451432977
1.236236615762179,0.1235620373626658,-0.009205173451432977
1.236237755762179,0.08841959802902064,-0.009205173451432977
1.236238895762179,0.05260134255434596,-0.00954398688154301
1.236240035762179,0.01644517900219577,-0.009205173451454855
1.236241175762179,-0.0186972603315158,-0.009543986881565042
1.236242315762179,-0.05519133194724085,-0.009205173451437752
1.236243455762179,-0.09033377128092107,-0.008866360021310464
1.236244595762179,-0.123786670262093,-0.009543986881510501
1.236245735762179,-0.1599428338139353,-0.009205173451411868
1.236246875762179,-0.1933957327949705,-0.00886636002128458
1.236248015762179,-0.2248211833529702,-0.008527546591157138
1.236249155762179,-0.2565845419814661,-0.008188733161029849
1.236250295762179,-0.2869962683279793,-0.007849919730902561
1.236251435762179,-0.3160563623980296,-0.007511106300729512
1.236252575762179,-0.3430890080392659,-0.007511106300722578
1.236253715762179,-0.3680942052574592,-0.007172292870595135
1.236254855762179,-0.3920856782641122,-0.006833479440467846
1.236255995762179,-0.4130359786402351,-0.006155852580067823
1.236257135762179,-0.432634646730025,-0.005139412289725091
1.236258275762179,-0.4498679583262904,-0.004800598859585477
1.236259415762179,-0.4643980053584838,-0.003784158569203149
1.236260555762179,-0.4769006039676172,-0.003445345139061685
1.236261695762179,-0.4870378460849601,-0.003106531708836097
1.236262835762179,-0.4944718236361804,-0.002428904848600317
1.236263975762179,-0.4995404446938769,-0.002090091418467635
1.236265115762179,-0.5019058011874898,-0.00141246455821275
1.236266255762179,-0.5019058011875447,-0.0003960242678387414
1.236267395762179,-0.4988646285523103,-0.0003960242677120923
1.236268535762179,-0.4937960074944449,0.0002816025925424851
1.236269675762179,-0.4863620299430521,0.0009592294527970625
1.236270815762179,-0.4758868797570521,0.001636856313051948
1.236271955762179,-0.4637221892185202,0.001975669743187865
1.236273095762179,-0.4481784179718277,0.002992110033662484
1.236274235762179,-0.430945106375402,0.003330923463807183
1.236275375762179,-0.4116843463559647,0.004008550324057909
1.236276515762179,-0.3900582298429424,0.004347363754185198
1.236277655762179,-0.3653909406953509,0.00434736375419475
1.236278795762179,-0.341061559613176,0.005024990614535608
1.236279935762179,-0.313691005901271,0.005702617474774008
1.236281075762179,-0.2842930037663753,0.006041430904901298
1.236282215762179,-0.2542191854904536,0.006380244335028586
1.236283355762179,-0.2224558268619893,0.006380244335038909
1.236284495762179,-0.1900166520861026,0.006719057765150635
1.236285635762179,-0.1565637531049434,0.006380244335054625
1.236286775762179,-0.1217592218418005,0.006719057765181913
1.236287915762179,-0.08729259864917126,0.007057871195309201
1.236289055762179,-0.05215015931551623,0.007396684625436645
1.236290195762179,-0.01599399576337096,0.0070578711952921
1.236291335762179,0.01982425971132354,0.006719057765224437
1.236292475762179,0.05530460711550067,0.007735498055600141
1.236293615762179,0.0907849545196778,0.007396684625472852
1.236294755762179,0.1266032099943754,0.007057871195345409
1.236295895762179,0.1603940170526723,0.006380244335011484
1.236297035762179,0.1938469160337264,0.00604143090491239
1.236298175762179,0.2262860908032568,0.006380244335037369
1.236299315762179,0.2573736332907262,0.00570261747478279
1.236300455762179,0.2877853596372029,0.005702617474757522
1.236301595762179,0.3158317294956149,0.005363804044590174
1.236302735762179,0.3432022832073293,0.005024990614449635
1.236303875762179,0.3685453884960388,0.00434736375419475
1.236305015762179,0.391523137291125,0.00434736375419475
1.236306155762179,0.4131492538042008,0.003330923463853097
1.236307295762179,0.4320721057568457,0.002992110033606092
1.236308435762179,0.4489675092825449,0.002653296603478804
1.236309575762179,0.4631596482442221,0.002314483173351361
1.236310715762179,0.475662246853317,0.001636856313097554
1.236311855762179,0.4854615808983934,0.0009592294528429767
1.236312995762179,0.4918818342396242,0.0002816025925064317
1.236314135762179,0.4969504552972819,0.000281602592459593
1.236315275762179,0.499653719861411,-0.001073651128050178
1.236316415762179,0.4983020875793656,-0.001751277988307837
1.236317555762179,0.4959367310857984,-0.002428904848562414
1.236318695762179,0.4898543858154897,-0.003106531708924844
1.236319835762179,0.4817445921230299,-0.003445345139052132
1.236320975762179,0.4712694419370301,-0.003784158569179576
1.236322115762179,0.4580910271869256,-0.004122971999306864
1.236323255762179,0.4428851640138008,-0.005139412289657299
1.236324395762179,0.4253139443435811,-0.005817039150049619
1.236325535762179,0.4053773681830879,-0.006155852580187076
1.236326675762179,0.3837512516700559,-0.006833479440441962
1.236327815762179,0.3594218705929304,-0.007172292870572332
1.236328955762179,0.3330650410927832,-0.007511106300699621
1.236330095762179,0.3060323954461776,-0.007849919730893008
1.236331235762179,0.2773102094522637,-0.008188733161020296
1.236332375762179,0.2465605750353101,-0.008527546591147586
1.236333515762179,0.2147972164068062,-0.008527546591151592
1.236334655762179,0.1816822254963097,-0.008527546591151592
1.236335795762179,0.1478914184381595,-0.009205173451455009
1.236336935762179,0.1137627033160205,-0.009543986881573671
1.236338075762179,0.07862026398235929,-0.009543986881573671
1.236339215762179,0.04212619236663669,-0.009205173451451004
1.236340355762179,0.006983753032903613,-0.0098828003116515
1.236341495762179,-0.0281586863077194,-0.009882800311693101
1.236342635762179,-0.06499066599392908,-0.009543986881565812
1.236343775762179,-0.1004710133981062,-0.009205173451438523
1.236344915762179,-0.1342618204497465,-0.008527546591189187
1.236346055762179,-0.1690663517128355,-0.008527546591151592
1.236347195762179,-0.2025192507004693,-0.008527546591131099
1.236348335762179,-0.2342826093289424,-0.008188733161010897
1.236349475762179,-0.26469433567538,-0.008188733161010897
1.236350615762179,-0.2954439700923412,-0.008188733161010897
1.236351755762179,-0.3234903399453231,-0.007849919730903177
1.236352895762179,-0.3501850775213259,-0.007511106300670347
1.236354035762179,-0.3751902747394575,-0.006494666010294798
1.236355175762179,-0.3974922073935117,-0.005817039150040221
1.236356315762179,-0.4184425077655398,-0.00547822571990569
1.236357455762179,-0.4380411758590085,-0.005478225719788747
1.236358595762179,-0.453922855173203,-0.004461785429425678
1.236359735762179,-0.4687908102758629,-0.00378415856917634
1.236360875762179,-0.4806175927439219,-0.003445345139049051
1.236362015762179,-0.4890652945068996,-0.003106531708921762
1.236363155762179,-0.4958234559184554,-0.002428904848587683
1.236364295762179,-0.5005541689054993,-0.002090091418442367
1.236365435762179,-0.5019058011875351,-0.001412464558182705
1.236366575762179,-0.5012299850465032,-0.000396024267800839
1.236367715762179,-0.4978509043414123,0.0002816025924623663
1.236368855762179,-0.4924443752119586,0.000959229452787818
1.236369995762179,-0.4839966734489561,0.0009592294528050744
1.236371135762179,-0.4735215232629161,0.001298042882940529
1.236372275762179,-0.4596672923717613,0.002314483173322395
1.236373415762179,-0.44446142919858,0.002653296603468481
1.236374555762179,-0.4265523014576533,0.002992110033691758
1.236375695762179,-0.4056020010855807,0.003669736893913363
1.236376835762179,-0.3829621603609938,0.00366973689392307
1.236377975762179,-0.3596465034953917,0.004686177184304936
1.236379115762179,-0.3322759497837197,0.005024990614452563
1.236380255762179,-0.304905396066441,0.005702617474757522
1.236381395762179,-0.2758453020019733,0.005702617474773238
1.236382535762179,-0.2447577595144872,0.006041430904900681
1.236383675762179,-0.2133323089565017,0.00638024433502797
1.236384815762179,-0.1808931341870011,0.006041430904922559
1.236385955762179,-0.1467644190582664,0.006719057765207951
1.236387095762179,-0.111621979724635,0.007057871195290405
1.236388235762179,-0.07715535653200116,0.006380244335038909
1.236389375762179,-0.04167500912780789,0.006380244335038909
1.236390515762179,-0.005856753653126455,0.006380244335038909
1.236391655762179,0.03029940989902865,0.006719057765234761
1.236392795762179,0.06544184923273222,0.007396684625446814
1.236393935762179,0.1015980127779359,0.007057871195321065
1.236395075762179,0.1353888198295486,0.007396684625448508
1.236396215762179,0.1691796268811459,0.007396684625460988
1.236397355762179,0.2036462500802335,0.006380244335038909
1.236398495762179,0.2354096087086948,0.006380244335025505
1.236399635762179,0.2661592431256484,0.006041430904898216
1.236400775762179,0.2958951533310675,0.005024990614515887
1.236401915762179,0.3236036151134565,0.005024990614476136
1.236403055762179,0.3499604446188986,0.005024990614424059
1.236404195762179,0.3756414579779992,0.004347363754169482
1.236405335762179,0.3982812987025694,0.003669736893914904
1.236406475762179,0.4185557829335423,0.002992110033660018
1.236407615762179,0.4368028187414888,0.002653296603518709
1.236408755762179,0.4536982222703905,0.002653296603440747
1.236409895762179,0.466538728949962,0.001975669743174306
1.236411035762179,0.478365511418021,0.0009592294527924401
1.236412175762179,0.4885027535335125,0.000959229452787818
1.236413315762179,0.4939092826619746,0.000281602592562823
1.236414455762179,0.4983020875793792,-0.0007348376979156479
1.236415595762179,0.4993158117908386,-0.0007348376979378346
1.236416735762179,0.4976262714382588,-0.001412464558192412
1.236417875762179,0.4942471907331106,-0.002090091418446989
1.236419015762179,0.4881648454639456,-0.002428904848590148
1.236420155762179,0.479379235628887,-0.003445345139064767
1.236421295762179,0.4682282693017724,-0.003784158569212856
1.236422435762179,0.4543740384106175,-0.004800598859594721
1.236423575762179,0.4384923590963852,-0.005478225719852381
1.236424715762179,0.4199074152181299,-0.005817039149996309
1.236425855762179,0.399632930983169,-0.006155852580189541
1.236426995762179,0.3763172741175373,-0.006494666010336089
1.236428135762179,0.3523258011109031,-0.007511106300717956
1.236429275762179,0.3263068796811963,-0.007511106300729512
1.236430415762179,0.2979226017579621,-0.008188733160949884
1.236431555762179,0.2692004157583908,-0.00818873316103293
1.236432695762179,0.2381128732708634,-0.008527546591160375
1.236433835762179,0.2053357904308141,-0.008866360021287661
1.236434975762179,0.1732345237317874,-0.009205173451414949
1.236436115762179,0.1391058086097666,-0.009205173451432977
1.236437255762179,0.1036254611988298,-0.009543986881573671
1.236438395762179,0.06848302186513665,-0.009543986881581683
1.236439535762179,0.03266476639044354,-0.00988280031170897
1.236440675762179,-0.003153489084249568,-0.009543986881592468
1.236441815762179,-0.03829592841796421,-0.009543986881573671
1.236442955762179,-0.07512790811105062,-0.009205173451432977
1.236444095762179,-0.1092566232331709,-0.009205173451425889
