3.2.1 integrator_invertiertes/messdaten/1Mhz2.csv

#Digilent WaveForms Oscilloscope Acquisition
#Device Name: Discovery2
#Serial Number: SN:210321AA2AFF
#Date Time: 2023-12-05 19:22:33.531
#Sample rate: 1e+08Hz
#Samples: 8192
#Trigger: Source: Channel 1 Type: Edge Condition: Rising Level: 0 V Hyst.: Auto HoldOff: 0 s
#Channel 1: Range: 2 V/div Offset: 0 V Attenuation: 1 X Sample Mode: Average
#Channel 2: Range: 20 mV/div Offset: 0 V Attenuation: 1 X Sample Mode: Average

Time (s),Channel 1 (V),Channel 2 (V)
1.23945572908046,3.667338996155416,0.03043599787862114
1.23945573908046,3.893906517882674,0.03213006501902858
1.23945574908046,4.057332271509624,0.03111362474550847
1.23945575908046,4.239329136989235,0.0300971844510803
1.23945576908046,4.406469112033493,0.03111362473529379
1.23945577908046,4.540181092069313,0.03009718445104887
1.23945578908046,4.662750409666915,0.02941955758801617
1.23945579908046,4.763034394619725,0.02975837101339566
1.23945580908046,4.844747271308244,0.02941955758531417
1.23945581908046,4.904174818037408,0.02975837101197956
1.23945582908046,4.948745478982953,0.02704786357362119
1.23945583908046,4.971030809009896,0.02704786356851948
1.23945584908046,5.004458804018836,0.02433735614386758
1.23945585908046,4.978459252594533,0.02365972927917535
1.23945586908046,4.945031256789197,0.02365972925436365
1.23945587908046,4.889317931774272,0.02061040840162888
1.23945588908046,4.82246194175888,0.01823871440490716
1.23945589908046,4.703606846337722,0.017899900953164
1.23945590908046,4.610751304506937,0.01722227409064976
1.23945591908046,4.480753546138837,0.01485058009407935
1.23945592908046,4.332184679475685,0.01349532637938635
1.23945593908046,4.172473144170223,0.01180125920159474
1.23945594908046,3.994190504116359,0.009768378633104887
1.23945595908046,3.81219364240102,0.007735498064615965
1.23945596908046,3.574483455917719,0.006380244349284638
1.23945597908046,3.351630150711916,0.00231448316383803
1.23945598908046,3.121348407316892,0.0006204160234298233
1.23945599908046,2.876209777258198,0.0002816025947221772
1.23945600908046,2.623642697941584,-0.003445345155282958
1.23945601908046,2.333933407916249,-0.005139412294501247
1.23945602908046,2.059081004509286,-0.006494666006827813
1.23945603908046,1.758229049495582,-0.008188733146365345
1.23945604908046,1.464805531087426,-0.009882800334529254
1.23945605908046,1.160239354339308,-0.01293212118440795
1.23945606908046,0.8556731775910511,-0.01394856146865287
1.23945607908046,0.5622496657937099,-0.01665906888538966
1.23945608908046,0.2316839305710301,-0.01801432264055587
1.23945609908046,-0.07288224617722674,-0.01903076292480079
1.23945610908046,-0.3960195312506309,-0.02241889720395366
1.23945611908046,-0.7042999367513313,-0.0220800838157841
1.23945612908046,-1.027437221740556,-0.02411296438205651
1.23945613908046,-1.320860733485828,-0.02546821809438307
1.23945614908046,-1.625426910202677,-0.02580703152531694
1.23945615908046,-1.929993093471518,-0.02648465840087882
1.23945616908046,-2.201131275232341,-0.02817872554089137
1.23945617908046,-2.490840565309951,-0.02953397925321793
1.23945618908046,-2.758264525490929,-0.03122804639196121
1.23945619908046,-3.018260047986512,-0.03190567327782236
1.23945620908046,-3.25968445638452,-0.03326092699014892
1.23945621908046,-3.486251978125738,-0.03258330013589586
1.23945622908046,-3.709105283092154,-0.03326092700068192
1.23945623908046,-3.924530139703807,-0.03427736727362532
1.23945624908046,-4.102812779751567,-0.03156685984897219
1.23945625908046,-4.288523863111946,-0.03427736725711716
1.23945626908046,-4.440806955094335,-0.0322444866962537
1.23945627908046,-4.581947378441318,-0.03156685984291675
1.23945628908046,-4.69708825013883,-0.03393855383948825
1.23945629908046,-4.797372237387379,-0.03224448668984343
1.23945630908046,-4.890227778915158,-0.03122804640725834
1.23945631908046,-4.949655325597717,-0.03055041955109537
1.23945632908046,-5.005368650617021,-0.03021160612261437
1.23945633908046,-5.023939759637191,-0.0285175389664468
1.23945634908046,-5.042510867799104,-0.02817872553173996
1.23945635908046,-4.997940207787184,-0.02546821810708806
1.23945636908046,-4.979369099363488,-0.02343533753637276
1.23945637908046,-4.916227329953071,-0.0227577106570607
1.23945638908046,-4.841942896592204,-0.02275771065496267
1.23945639908046,-4.756515798235987,-0.0197083898022279
1.23945640908046,-4.652517589053202,-0.01835313606159369
1.23945641908046,-4.522519830736972,-0.01801432262403831
1.23945642908046,-4.403664737371852,-0.0156426286274679
1.23945643908046,-4.217953654083535,-0.01293212120329502
1.23945644908046,-4.03595678813892,-0.01157686745071926
1.23945645908046,-3.835388818075701,-0.0102216137375271
1.23945646908046,-3.631106626354402,-0.008527546597119668
1.23945647908046,-3.408253326360127,-0.006494666029823433
1.23945648908046,-3.144543582662667,-0.005139412274265717
1.23945649908046,-2.906833395928982,-0.002767718278455356
1.23945650908046,-2.661694765863312,-0.002090091422292072
1.23945651908046,-2.379413912984321,0.001636856327297677
1.23945652908046,-2.089704622923133,0.002992110045616509
1.23945653908046,-1.803709554513315,0.005702617470268408
1.23945654908046,-1.506571821118836,0.006719057757319028
1.23945655908046,-1.198291416006395,0.009429565220523914
1.23945656908046,-0.8974394608999934,0.01112363236250152
1.23945657908046,-0.5854448408165551,0.01349532635907194
1.23945658908046,-0.2734502207329749,0.01485058007522201
1.23945659908046,0.04968707125540256,0.01586702040880375
1.23945660908046,0.3468248046699001,0.0206104084010907
1.23945661908046,0.6513909814180183,0.02128803525725367
1.23945662908046,0.974528273380155,0.02230447556208017
1.23945663908046,1.279094450143948,0.02332091584349075
1.23945664908046,1.587374848559726,0.02365972927157223
1.23945665908046,1.884512581993639,0.02603142326429047
1.23945666908046,2.166793435122252,0.02704786356809546
1.23945667908046,2.449074281833677,0.02637023671967412
1.23945668908046,2.716498241905196,0.0294195575724075
1.23945669908046,2.969065315365623,0.02874193073115355
1.23945670908046,3.240203502623564,0.03077481129697082
1.23945671908046,3.459342581015603,0.02941955758464425
1.23945672908046,3.671053216072431,0.03077481129689378
1.23945673908046,3.886478077148076,0.0304359978818188
1.23945674908046,4.061046495601332,0.03111362473798178
1.23945675908046,4.254186022319739,0.03179125159414506
1.23945676908046,4.402754889121237,0.03145243816823233
1.23945677908046,4.547609537201145,0.0304359978669822
1.23945678908046,4.666464630504821,0.02941955758398327
1.23945679908046,4.75189172886104,0.02908074415590163
1.23945680908046,4.837318827217257,0.02908074415446535
1.23945681908046,4.8818894887914,0.02806430386404327
1.23945682908046,4.952459700476971,0.02806430386404327
1.23945683908046,4.989601917162493,0.02637023672408804
1.23945684908046,4.974745030637212,0.02535379641297437
1.23945685908046,4.974745030499607,0.02433735612872991
1.23945686908046,4.93760281382299,0.02332091584448499
1.23945687908046,4.889317932169845,0.02196566213296285
1.23945688908046,4.811319275582579,0.018238714384761
1.23945689908046,4.722177955499336,0.01756108752913991
1.23945690908046,4.595894418798839,0.01722227410105826
1.23945691908046,4.491896212004568,0.01586702039328383
1.23945692908046,4.335898899027138,0.01349532635666714
1.23945693908046,4.176187367317687,0.01146244578817729
1.23945694908046,4.005333170610962,0.01078481893132899
1.23945695908046,3.804765196193013,0.008074311453406757
1.23945696908046,3.593054561046278,0.004686177179638019
1.23945697908046,3.355344374315931,0.003330923467311454
1.23945698908046,3.110205744269769,0.001298042900591921
1.23945699908046,2.87249555214141,-0.000396024285416332
1.23945700908046,2.627356922025315,-0.002767718281525753
1.23945701908046,2.345076075283029,-0.004800598850015601
1.23945702908046,2.055366785240587,-0.006494665992021098
1.23945703908046,1.773085932011587,-0.009882800311714363
1.23945704908046,1.464805533595809,-0.009882800311714363
1.23945705908046,1.175096243504365,-0.01293212116217777
1.23945706908046,0.8519589516090229,-0.01327093462257931
1.23945707908046,0.5436785532292058,-0.01428737491447804
1.23945708908046,0.2465408198164075,-0.01767550919529292
1.23945709908046,-0.08402490851019934,-0.01869194948629801
1.23945710908046,-0.3848768706165278,-0.02072483008109516
1.23945711908046,-0.696871490699966,-0.02140245693801834
1.23945712908046,-1.008866110783546,-0.0227577106503449
1.23945713908046,-1.313432287568475,-0.02343533750986578
1.23945714908046,-1.636569579360327,-0.02546821810681596
1.23945715908046,-1.907707761099505,-0.0271622852472234
1.23945716908046,-2.212273937814882,-0.02885635238763161
1.23945717908046,-2.475983682396412,-0.02851753896638086
1.23945718908046,-2.743407642390351,-0.02817872554538726
1.23945719908046,-2.984832050788249,-0.03021160611387618
1.23945720908046,-3.241113345811009,-0.03258330010940105
1.23945721908046,-3.475109316273604,-0.03292211354949017
1.23945722908046,-3.709105281310049,-0.03122804641237331
1.23945723908046,-3.91338747303144,-0.03326092698086316
1.23945724908046,-4.099098560553291,-0.03258330013114081
1.23945725908046,-4.277381200474815,-0.03258330012127049
1.23945726908046,-4.429664288848874,-0.03055041955278156
1.23945727908046,-4.559662047244273,-0.0319056732609666
1.23945728908046,-4.693374029795699,-0.03292211354931854
1.23945729908046,-4.778801128121277,-0.03156685983885535
1.23945730908046,-4.853085561474477,-0.03088923298269237
1.23945731908046,-4.960797989725422,-0.02987279269957497
1.23945732908046,-4.997940207715702,-0.02851753896262036
1.23945733908046,-5.009082872725867,-0.02750109867772047
1.23945734908046,-5.031368202731826,-0.02546821810923154
1.23945735908046,-5.012797093964829,-0.02445177780051774
1.23945736908046,-4.971940655500521,-0.02377415094279029
1.23945737908046,-4.905084665482642,-0.02275771065854583
1.23945738908046,-4.838228675464761,-0.02106364351912847
1.23945739908046,-4.760230018540763,-0.01936957634401437
1.23945740908046,-4.65251759013194,-0.0180143226342402
1.23945741908046,-4.526234053431501,-0.01767550920615871
1.23945742908046,-4.362808300186858,-0.01598144207058413
1.23945743908046,-4.214239429821589,-0.01327093460213886
1.23945744908046,-4.032242568101648,-0.01157686746173066
1.23945745908046,-3.839103041383329,-0.00988280032132322
1.23945746908046,-3.627392401614544,-0.006494666010307432
1.23945747908046,-3.404539101424876,-0.006494666001408704
1.23945748908046,-3.151972028023883,-0.004461785432918856
1.23945749908046,-2.91426184126839,-0.001751278009418818
1.23945750908046,-2.620838323813285,0.001298042905560208
1.23945751908046,-2.371985471995683,0.004008550327133082
1.23945752908046,-2.085990403585734,0.005363804039459647
1.23945753908046,-1.799995335175785,0.006041430898201521
1.23945754908046,-1.506571816872804,0.008413124926461053
1.23945755908046,-1.194577196791084,0.01010719206709544
1.23945756908046,-0.8937252417106254,0.01315651291982883
1.23945757908046,-0.5668737280802089,0.01383413982236422
1.23945758908046,-0.2623075513167187,0.01620583381893463
1.23945759908046,0.04597284709919985,0.01857752781550612
1.23945760908046,0.3542532455149782,0.0202715949572272
1.23945761908046,0.6662478724964386,0.02061040841743646
1.23945762908046,0.9782424925798768,0.02264328898523651
1.23945763908046,1.290237112663457,0.02433735612564472
1.23945764908046,1.587374846136338,0.02603142326605216
1.23945765908046,1.888226807770355,0.02535379642698714
1.23945766908046,2.174221876180304,0.02603142328315042
1.23945767908046,2.456502722922729,0.02772549042348483
1.23945768908046,2.709069802299846,0.02874193073446631
1.23945769908046,2.980207983981083,0.02975837101342539
1.23945770908046,3.236489279049738,0.02941955758534375
1.23945771908046,3.448199914203402,0.02908074415726227
1.23945772908046,3.667338997283016,0.0300971844502218
1.23945773908046,3.871621188990985,0.03077481130334488
1.23945774908046,4.068474937377053,0.02975837101909996
1.23945775908046,4.257900242459527,0.03043599786800757
1.23945776908046,4.406469112759659,0.03043599787698194
1.23945777908046,4.532752649460098,0.03077481130506343
1.23945778908046,4.67389307282662,0.03179125158909758
1.23945779908046,4.770462838361622,0.02908074414786603
1.23945780908046,4.841033050060759,0.0284031172904626
1.23945781908046,4.915317483413959,0.02738667700621814
1.23945782908046,4.948745478521645,0.02738667700376188
1.23945783908046,4.978459252355798,0.02670905013572162
1.23945784908046,4.982173474000345,0.02569260985042298
1.23945785908046,4.97103080899736,0.02399854271001477
1.23945786908046,4.948745479041782,0.02332091584925591
1.23945787908046,4.881889487970727,0.02264328896680874
1.23945788908046,4.807605054617528,0.01993278154215684
1.23945789908046,4.714749512936196,0.01722227411750371
1.23945790908046,4.607037082174972,0.01586702036932247
1.23945791908046,4.488181988733528,0.01485058008043928
1.23945792908046,4.347041565362449,0.01247888608386887
1.23945793908046,4.176187368728911,0.01078481894166138
1.23945794908046,3.994190502959889,0.00976837861890908
1.23945795908046,3.797336754544471,0.00739668462233759
1.23945796908046,3.578197676152433,0.0050249906257661
1.23945797908046,3.355344376110514,0.003330923482132959
1.23945798908046,3.132491070866748,0.00129804287934443
1.23945799908046,2.86506711079523,0.0006204160231814552
1.23945800908046,2.612500037382521,-0.001412464544239732
1.23945801908046,2.345076071268634,-0.004800598872154876
1.23945802908046,2.055366781131899,-0.006155852586638792
1.23945803908046,1.747086382716121,-0.008188733155127716
1.23945804908046,1.472233979212417,-0.008866360015213121
1.23945805908046,1.163953574198193,-0.01225449433239667
1.23945806908046,0.8482447324589655,-0.01360974804581916
1.23945807908046,0.5436785557108472,-0.01598144204238958
1.23945808908046,0.2353981573134979,-0.01699788233341008
1.23945809908046,-0.07288224806015338,-0.01801432264878021
1.23945810908046,-0.4034479764818916,-0.02072483007343211
1.23945811908046,-0.7005857099290296,-0.02208008378715028
1.23945812908046,-1.012580336968748,-0.02343533752956944
1.23945813908046,-1.339431843591717,-0.0247905912428938
1.23945814908046,-1.621712690333875,-0.02648465838330124
1.23945815908046,-1.907707758732188,-0.02682347181562855
1.23945816908046,-2.208559720073461,-0.02783991211854499
1.23945817908046,-2.46855523682225,-0.02919516583200924
1.23945818908046,-2.743407640229088,-0.03190567325666115
1.23945819908046,-2.999688941045152,-0.03122804640688872
1.23945820908046,-3.252256014374551,-0.0308892329918481
1.23945821908046,-3.489966201104898,-0.03326092698841959
1.23945822908046,-3.701676836194432,-0.03190567328081201
1.23945823908046,-3.920815919202029,-0.03359974041263504
1.23945824908046,-4.117669667437261,-0.03258330013205755
1.23945825908046,-4.258810090808405,-0.03292211356013919
1.23945826908046,-4.444521174041219,-0.0298727927188275
1.23945827908046,-4.563376270677149,-0.03258330012209047
1.23945828908046,-4.682231364026705,-0.03122804640996743
1.23945829908046,-4.775086905718204,-0.03021160612572297
1.23945830908046,-4.875370892733343,-0.03055041955390507
1.23945831908046,-4.957083769184098,-0.03088923297114203
1.23945832908046,-4.986797542525392,-0.02885635240265217
1.23945833908046,-5.020225537528742,-0.02783991211687822
1.23945834908046,-5.023939759345495,-0.02750109867034523
1.23945835908046,-5.00908287262904,-0.02648465837774223
1.23945836908046,-4.975654877620085,-0.02208008381268088
1.23945837908046,-4.912513109377139,-0.02343533750421248
1.23945838908046,-4.838228674458497,-0.02208008377932576
1.23945839908046,-4.760230019428191,-0.0193695763551632
1.23945840908046,-4.656231812733711,-0.01801432264283725
1.23945841908046,-4.515091386363583,-0.01665906891100069
1.23945842908046,-4.366522519657184,-0.01632025547704588
1.23945843908046,-4.217953652950717,-0.01462618833663768
1.23945844908046,-4.03595679129366,-0.01123805405877641
1.23945845908046,-3.820531930201601,-0.009882800308900192
1.23945846908046,-3.623678181765964,-0.009543986874024021
1.23945847908046,-3.404539103373925,-0.006155852593207604
1.23945848908046,-3.151972030101711,-0.003445345165947533
1.23945849908046,-2.914261837807492,-0.001751277969430474
1.23945850908046,-2.654266321069013,0.001298042883094912
1.23945851908046,-2.375699695994388,0.002653296595421477
1.23945852908046,-2.104561507850339,0.005024990628262723
1.23945853908046,-1.79999533111743,0.00638024435030076
1.23945854908046,-1.499143376036972,0.01010719205919712
1.23945855908046,-1.194577199296079,0.01010719206658653
1.23945856908046,-0.8862967940948783,0.01247888609397108
1.23945857908046,-0.5817306173172019,0.01451176666448223
1.23945858908046,-0.2623075538982984,0.017561087517217
1.23945859908046,0.05340128786798259,0.01688346067628876
1.23945860908046,0.3653959148726874,0.02094922182704888
1.23945861908046,0.6699620916208058,0.02027159497088591
1.23945862908046,0.9708140467018316,0.02230447553906145
1.23945863908046,1.293951338493246,0.0229821024354921
1.23945864908046,1.583660628642471,0.02535379642553083
1.23945865908046,1.891941027058249,0.02603142328169381
1.23945866908046,2.170507652198882,0.02806430384717304
1.23945867908046,2.452788505061795,0.02806430386934775
1.23945868908046,2.720212465133435,0.02874193072373147
1.23945869908046,2.987636425205076,0.02840311729564983
1.23945870908046,3.225346612063869,0.02941955757403083
1.23945871908046,3.474199469015593,0.03077481130904687
1.23945872908046,3.689624325739871,0.03145243816520985
1.23945873908046,3.87162118746715,0.03043599788156582
1.23945874908046,4.061046496712113,0.03111362472217065
1.23945875908046,4.254186023269286,0.0297583710159724
1.23945876908046,4.402754889975685,0.03009718444405389
1.23945877908046,4.54018109170658,0.03145243815387983
1.23945878908046,4.673893074489349,0.03009718444231608
1.23945879908046,4.77417705943759,0.02975837101372214
1.23945880908046,4.82246194111717,0.02908074415755917
1.23945881908046,4.907889039303809,0.02806430387486115
1.23945882908046,4.945031257319038,0.02772549042647002
1.23945883908046,4.982173473995638,0.02637023671414408
1.23945884908046,5.000744582344959,0.02569260985757897
1.23945885908046,4.982173473596219,0.02467616953700574
1.23945886908046,4.93760281355918,0.02196566212265557
1.23945887908046,4.885603710211941,0.02230447555073706
1.23945888908046,4.800176611945941,0.01993278156148102
1.23945889908046,4.71103528983886,0.0175610875222104
1.23945890908046,4.603322861481402,0.01654464723667125
1.23945891908046,4.499324654786922,0.01451176666818233
1.23945892908046,4.324756236745873,0.01349532637905401
1.23945893908046,4.183615809682289,0.01112363235345442
1.23945894908046,4.005333169634529,0.01044600549729114
1.23945895908046,3.804765199599435,0.007735498074330979
1.23945896908046,3.578197673157871,0.005702617449774032
1.23945897908046,3.366487037972981,0.002992110032568247
1.23945898908046,3.113919964571986,0.002653296604486605
1.23945899908046,2.872495556141244,-0.0007348376673719172
1.23945900908046,2.616214255304749,-0.00209009143775499
1.23945901908046,2.33021918691017,-0.004800598861707083
1.23945902908046,2.059081005170992,-0.006833479430196007
1.23945903908046,1.747086378777487,-0.007849919753402677
1.23945904908046,1.472233975277675,-0.009882800323587806
1.23945905908046,1.178810463532403,-0.0122544943201593
1.23945906908046,0.8742442867962182,-0.01259330775041786
1.23945907908046,0.5399643297633798,-0.01496500178207704
1.23945908908046,0.2353981529613899,-0.01699788235253165
1.23945909908046,-0.08773913212517528,-0.01970838977718478
1.23945910908046,-0.3960195305881452,-0.01903076293178391
1.23945911908046,-0.6968714926219465,-0.02208008380842273
1.23945912908046,-1.027437221011321,-0.02377415094775242
1.23945913908046,-1.317146511088799,-0.0241129643758339
1.23945914908046,-1.610570029531156,-0.0261458449841893
1.23945915908046,-1.922564649472932,-0.02851753897268312
1.23945916908046,-2.204845496215219,-0.0291951658288464
1.23945917908046,-2.47598367796899,-0.02953397925737163
1.23945918908046,-2.754550308881991,-0.02953397928356383
1.23945919908046,-2.999688938967324,-0.03224448669829426
