3.2.1 integrator_invertiertes/messdaten/1Mhz.csv

#Digilent WaveForms Oscilloscope Acquisition
#Device Name: Discovery2
#Serial Number: SN:210321AA2AFF
#Date Time: 2023-12-05 19:17:39.764
#Sample rate: 1e+08Hz
#Samples: 8192
#Trigger: Source: Channel 1 Type: Edge Condition: Rising Level: 0 V Hyst.: Auto HoldOff: 0 s
#Channel 1: Range: 200 mV/div Offset: 0 V Attenuation: 1 X Sample Mode: Average
#Channel 2: Range: 2 mV/div Offset: 0 V Attenuation: 1 X Sample Mode: Average

Time (s),Channel 1 (V),Channel 2 (V)
1.239455723295455,0.2553461849231773,0.003330923465928481
1.239455733295455,0.2810271981273259,0.004347363750172943
1.239455743295454,0.3060323951972085,0.003330923473971632
1.239455753295455,0.3313755008716316,0.002314483185736333
1.239455763295455,0.3533395253225581,0.004347363754158081
1.239455773295455,0.3753035497734845,0.00197566975758659
1.239455783295455,0.3965917585268272,0.002653296603491284
1.239455793295455,0.4141629780794835,0.002653296604842363
1.239455803295455,0.4297067492293628,0.002992110032923851
1.239455813295455,0.4442367961759406,0.004008550315752522
1.239455823295455,0.4564014869304917,0.002314483184137655
1.239455833295455,0.4685661773892602,0.003669736893275649
1.239455843295455,0.4773517871696267,0.003330923465194162
1.239455853295454,0.4857994888829392,0.00265329661045237
1.239455863295455,0.4918818342728762,0.001298042884911912
1.239455873295455,0.4976262714369646,0.001636856312993554
1.239455883295455,0.498977903711848,0.002653296597086715
1.239455893295455,0.4979641795054562,0.0002816026124818837
1.239455903295455,0.4976262714192453,0.00231448317081021
1.239455913295455,0.4925576503921107,0.001636856314647235
1.239455923295455,0.4874890293649762,0.001975669740361676
1.239455933295455,0.4797171436297522,0.0006204160226471248
1.239455943295455,0.4705936257753524,0.000620416020976649
1.239455953295455,0.4580910272417539,-0.0003960242632678132
1.239455963295454,0.4449126125741946,0.0002816025853835671
1.239455973295455,0.4303825653061395,-0.001073651124251317
1.239455983295455,0.4131492538138741,-0.0003960242680880341
1.239455993295455,0.3935505858433799,-0.0007348376956999023
1.239456003295455,0.3746277335614676,-0.001751277981841022
1.239456013295455,0.3533395252380147,-0.001073651134002076
1.239456023295455,0.3293480523762334,-0.002767718274410284
1.239456033295455,0.3053565795144631,-0.001751277997125059
1.239456043295455,0.2800134738100378,-0.002090091408338469
1.239456053295455,0.2523050121969336,-0.0007348376988672121
1.239456063295455,0.2259481828558218,-0.001412464555030495
1.239456073295454,0.1965501809126392,-0.002090091411193777
1.239456083295455,0.166814270233781,-0.002090091425764912
1.239456093295455,0.1377541763448629,-0.003445345138091478
1.239456103295455,0.106666634046525,-0.004122971994729311
1.239456113295455,0.07591699912384217,-0.003784158553344568
1.239456123295455,0.04449154876002901,-0.00209009141847842
1.239456133295455,0.01441773066568354,-0.00209009141847842
1.239456143295455,-0.01835935196886733,-0.004800598835523969
1.239456153295455,-0.051136435326577,-0.004800598852241669
1.239456163295455,-0.08222397762672955,-0.003784158570366566
1.239456173295455,-0.1136494279949782,-0.00480059885461149
1.239456183295454,-0.142709521895501,-0.004800598859603966
1.239456193295455,-0.172445432574212,-0.003445345146004129
1.239456203295455,-0.2021813426000817,-0.004800598858330694
1.239456213295455,-0.2295518961488306,-0.004461785431840796
1.239456223295455,-0.2569224503000383,-0.004122972008582304
1.239456233295455,-0.2839550957739908,-0.005139412287689922
1.239456243295455,-0.309636108978151,-0.004461785431526638
1.239456253295455,-0.3343033979799594,-0.005478225710612687
1.239456263295455,-0.3599844117048666,-0.005817039140533207
1.239456273295455,-0.3799209877443028,-0.004461785430091281
1.239456283295455,-0.3991817476474229,-0.005139412286254563
1.239456293295455,-0.4167529676107255,-0.004122972006760373
1.239456303295455,-0.434662095221733,-0.004800598854624432
1.239456313295455,-0.4488542340977097,-0.00378415857037997
1.239456323295455,-0.461018924565228,-0.003784158569181887
1.239456333295455,-0.4728457072059556,-0.005139412274716232
1.239456343295455,-0.482307133114778,-0.003445345142827112
1.239456353295455,-0.4887273864158151,-0.004800598855153061
1.239456363295454,-0.4961613639189532,-0.00446178543263505
1.239456373295455,-0.4978509043549098,-0.003106531715777462
1.239456383295455,-0.4998783527652986,-0.004122971999089465
1.239456393295455,-0.5012299850392017,-0.003784158571007824
1.239456403295455,-0.5008920769251607,-0.002428904848619114
1.239456413295455,-0.4961613639649248,-0.002428904843882247
1.239456423295455,-0.4910927429377903,-0.001412464559637785
1.239456433295455,-0.4826450412306851,-0.002090091413399817
1.239456443295455,-0.4725077989523199,-0.001412464572820246
1.239456453295455,-0.4610189246155101,-0.003106531708034909
1.239456463295455,-0.4461509696025821,-0.002767718279953422
1.239456473295454,-0.4299313823205058,-0.001073651144319676
1.239456483295455,-0.4133738865831512,0.0002816025858725996
1.239456493295455,-0.3941131266800311,-0.0007348376979156479
1.239456503295455,-0.374852366776911,-0.0007348376979156479
1.239456513295455,-0.3532262499417777,0.000959229452787818
1.239456523295455,-0.3329517658167955,0.0009592294572820174
1.239456533295455,-0.3089602929550251,0.001975669741526479
1.239456543295455,-0.2812518313461662,0.0009592294606483912
1.239456553295455,-0.2538812771921158,0.0009592294442565583
1.239456563295455,-0.2268486317117046,-5.72108344954556e-05
1.239456573295455,-0.1988022620282266,0.001298042877830494
1.239456583295454,-0.1700800762103265,0.0009592294561213741
1.239456593295455,-0.1376409009763155,0.0006204160290382895
1.239456603295455,-0.1089187151553752,0.001636856313283214
1.239456613295455,-0.07783117285561647,0.002653296597527676
1.239456623295455,-0.04674362985862941,0.001636856326974121
1.239456633295455,-0.01498027143179872,0.002992110025128913
1.239456643295455,0.0144177305255818,0.0009592294566399887
1.239456653295455,0.04516736475430361,0.001975669735106195
1.239456663295455,0.07625490773890729,0.002314483181639183
1.239456673295455,0.1070045419730121,0.003330923465180295
1.239456683295455,0.1391058084781977,0.004008550321343269
1.239456693295454,0.1678279943121577,0.003669736897327809
1.239456703295455,0.1968880888367873,0.003669736895962862
1.239456713295455,0.224934458520278,0.004008550324044504
1.239456723295455,0.2539945524091543,0.004008550324054057
1.239456733295455,0.2803513823621683,0.003669736893913363
1.239456743295455,0.3077219358940368,0.003669736889904961
1.239456753295455,0.3313755006873423,0.002653296605660036
1.239456763295455,0.3519878928708451,0.002653296603491284
1.239456773295455,0.3739519177983708,0.002992110038995927
1.239456783295455,0.3959159422424551,0.003669736893290594
1.239456793295455,0.4141629779401479,0.003330923465208953
1.239456803295454,0.4300446571685372,0.004008550317063388
1.239456813295455,0.4452505205866966,0.002653296609397114
1.239456823295455,0.4591047513942041,0.003669736893642038
1.239456833295455,0.4736347983384762,0.001298042897976044
1.239456843295455,0.4810687760616437,0.002314483166721689
1.239456853295455,0.489178569695044,0.001636856311813959
1.239456863295455,0.4945850987906567,0.001298042883732318
1.239456873295455,0.498977903683245,0.002314483164761553
1.239456883295455,0.4996537198614233,0.001975669740608811
1.239456893295455,0.4996537198587211,0.001636856311443564
1.239456903295455,0.4979641795163422,0.00062041602719864
1.239456913295454,0.4942471907721889,0.001975669728904388
1.239456923295455,0.4891785696335949,0.00231448317146287
1.239456933295455,0.4817445921271274,0.001975669743381228
1.239456943295455,0.4722831662108347,0.001298042887389585
1.239456953295455,0.459104751288255,-0.001412464538795664
1.239456963295455,0.4476158769378301,0.0006204160156009893
1.239456973295455,0.4297067493086132,-0.001412464552888859
1.239456983295455,0.4121355297469977,-0.001073651131000243
1.239456993295455,0.3921989532973658,-0.001073651123015948
1.239457003295455,0.3739519175937044,-0.0003960242677749547
1.239457013295455,0.3513120770058264,-0.0003960242677749547
1.239457023295454,0.3273206041504312,-0.001751277973708661
1.239457033295455,0.3033291307505276,-0.001751277991951391
1.239457043295455,0.2783239336833304,-0.002428904848114366
1.239457053295455,0.2516291962750014,-0.001751277992960579
1.239457063295455,0.2262860905264923,-0.001412464573960397
1.239457073295455,0.1965501805017266,-0.003106531700152766
1.239457083295455,0.1671521785443461,-0.0003960242755008669
1.239457093295455,0.1357267281818764,-0.002090091403354467
1.239457103295455,0.1086940820132635,-0.003106531706461193
1.239457113295455,0.0745653671025313,-0.002767718281040418
1.239457123295455,0.04516736514513742,-0.004800598849530266
1.239457133295454,0.01272819058654633,-0.003784158580396354
1.239457143295455,-0.01971098470742222,-0.003445345142493079
1.239457153295455,-0.05215015928108346,-0.004122971998656053
1.239457163295455,-0.08121025317332528,-0.003106531716077445
1.239457173295455,-0.1099324396675971,-0.002767718291046325
1.239457183295455,-0.1423716142331941,-0.004122971996284847
1.239457193295455,-0.1721075242590503,-0.003106531712040384
1.239457203295455,-0.20184343428492,-0.004122971990005541
1.239457213295455,-0.2319172530204059,-0.005817039138234724
1.239457223295455,-0.2586119904305902,-0.004122971999621793
1.239457233295455,-0.2859825439771294,-0.004461785427703434
1.239457243295455,-0.3096361093223324,-0.003784158580294203
1.239457253295455,-0.3339654902460267,-0.004800598857958912
1.239457263295455,-0.3569432389023701,-0.004461785429877425
1.239457273295455,-0.3768798149461592,-0.004461785429463272
1.239457283295455,-0.397830115613645,-0.004800598865585447
1.239457293295455,-0.4147255190374345,-0.005478225716158598
1.239457303295455,-0.4316209224612164,-0.004122972003832649
1.239457313295454,-0.4468267855482496,-0.005478225707139076
1.239457323295455,-0.4589914763029996,-0.004800598855049215
1.239457333295455,-0.4698045344944426,-0.004122971998885933
1.239457343295455,-0.4809555007541387,-0.003445345142722958
1.239457353295455,-0.4887273864983305,-0.003106531719770148
1.239457363295455,-0.494471823646819,-0.00412297199932258
1.239457373295455,-0.4968371801261485,-0.00412297199932258
1.239457383295455,-0.499202536605478,-0.003106531716563242
1.239457393295455,-0.4992025366175058,-0.004800598850874412
1.239457403295455,-0.4985267204763115,-0.003784158565778689
1.239457413295455,-0.4961613639969821,-0.002428904853452739
1.239457423295454,-0.4883894784413217,-0.002428904848619114
1.239457433295455,-0.4819692249737388,-0.003784158556002969
1.239457443295455,-0.4738594313290861,-0.001751277988887465
1.239457453295455,-0.4627084650693901,-0.003106531701213415
1.239457463295455,-0.4481784178179335,-0.002090091407851439
1.239457473295455,-0.4333104627976096,-0.001073651131022584
1.239457483295455,-0.4167529674422959,-0.001751277987185866
1.239457493295455,-0.3981680236795821,-0.0007348377058210569
1.239457503295455,-0.3778935391057782,-0.001751277979850841
1.239457513295455,-0.3542399743170897,-0.0007348376963761354
1.239457523295455,-0.332613857934639,-5.721084021285245e-05
1.239457533295454,-0.307946568947479,-0.002090091398388337
1.239457543295455,-0.2812518309736389,-5.721083551866442e-05
1.239457553295455,-0.2559087258378418,0.0002816025926195223
1.239457563295455,-0.2298898045652176,0.0009592294487824971
1.239457573295455,-0.200153893897598,0.0006204160434157524
1.239457583295455,-0.1700800758004692,0.002653296602089052
1.239457593295455,-0.1393304415691722,0.00231448317400741
1.239457603295455,-0.1095945315413509,0.0002816026088025845
1.239457613295455,-0.07783117242381479,0.001298042877432365
1.239457623295455,-0.04708153818634848,0.0006204160212693905
1.239457633295455,-0.01329073133876931,-5.721083489389222e-05
1.239457643295454,0.01779681097192158,0.00265329657605616
1.239457653295455,0.04787062974632821,0.002314483167246467
1.239457663295455,0.07828235590914946,0.001298042883001543
1.239457673295455,0.1080182659350542,0.001298042882928511
1.239457683295455,0.1364025443525607,0.00333092346377267
1.239457693295455,0.1674900866496838,0.00333092346377267
1.239457703295455,0.197901812812505,0.00333092346377267
1.239457713295455,0.2225691018237342,0.001636856327053777
1.239457723295455,0.2526429205279194,0.002992110044300712
1.239457733295455,0.2810271982744159,0.004347363749938903
1.239457743295455,0.3063703034101003,0.001975669753367414
1.239457753295454,0.3320513166128015,0.002992110023101138
1.239457763295455,0.3540153415821417,0.003330923467680308
1.239457773295455,0.3746277337591556,0.004008550323843283
1.239457783295455,0.3955780340045495,0.002992110040125293
1.239457793295455,0.4138250701180944,0.002314483166751271
1.239457803295455,0.4313962896714047,0.001636856315550112
1.239457813295455,0.4469400608212841,0.002314483171713087
1.239457823295455,0.4594426593622374,0.0009592294642990326
1.239457833295455,0.470931533951549,0.001975669748382487
1.239457843295455,0.4820825002038855,0.002653296601910017
1.239457853295455,0.4885027535049255,0.001636856317665093
1.239457863295454,0.4945850987390149,0.002314483166168254
1.239457873295455,0.4999916279263488,0.001298042884801441
1.239457883295455,0.498977903720922,0.001636856312882928
1.239457893295455,0.4986399956520746,0.001636856313069204
1.239457903295455,0.4979641794477863,0.000959229439913352
1.239457913295455,0.491543926153685,-0.0003960242677749547
1.239457923295455,0.4871511212635017,-0.0003960242677749547
1.239457933295455,0.4783655114947953,-0.0007348376949569552
1.239457943295455,0.466538728892081,-0.001412464543165525
1.239457953295455,0.4587668433086826,0.000620416022200925
1.239457963295455,0.4445747044326995,0.0002816025941192836
1.239457973295454,0.4280172090886529,-5.721083396220374e-05
1.239457983295455,0.4104459891415911,-0.0007348376907474854
1.239457993295455,0.3915231373069553,0.000620416021578464
1.239458003295455,0.373614009676939,-0.002090091399868685
1.239458013295455,0.3492846282724591,-0.001751278004026365
1.239458023295455,0.3273206038183052,-0.003445345134726491
1.239458033295455,0.3043428551619619,-0.002090091422400541
1.239458043295455,0.2806892903706122,-0.00209009141847842
1.239458053295455,0.2519671039506423,-0.002767718273911082
1.239458063295455,0.2222311939276872,-0.002090091421400906
1.239458073295455,0.1951985484496362,-0.004800598846052804
1.239458083295454,0.1685038110383593,-0.002428904874889742
1.239458093295455,0.1387679003671353,-0.004800598854470511
1.239458103295455,0.1053150015880472,-0.00378415857022605
1.239458113295455,0.0745653673539871,-0.002767718285981588
1.239458123295455,0.0444915486053608,-0.003784158572238725
1.239458133295455,0.01644517889699207,-0.004122972001318153
1.239458143295455,-0.02004889249837685,-0.004800598857481127
1.239458153295455,-0.05215015901733864,-0.0037841585785433
1.239458163295455,-0.08121025357484034,-0.004800598859603966
1.239458173295455,-0.1095945313302108,-0.004800598859319544
1.239458183295455,-0.142033705903872,-0.004461785431238057
1.239458193295455,-0.175824513432125,-0.003784158583939143
1.239458203295455,-0.2038708830993455,-0.005139412289744659
1.239458213295455,-0.2285381720980783,-0.005139412289744659
1.239458223295455,-0.2569224498453261,-0.006155852572702291
1.239458233295455,-0.2846309120568099,-0.003445345144993092
1.239458243295455,-0.3096361091185214,-0.004122972001156066
1.239458253295455,-0.3326138577748752,-0.004800598857319349
1.239458263295454,-0.3532262499598733,-0.003445345151846634
1.239458273295455,-0.3755281829539894,-0.004800598855078797
1.239458283295455,-0.3971542993348162,-0.004122971999729645
1.239458293295455,-0.4160771511694519,-0.004800598855892619
1.239458303295455,-0.433648371084569,-0.004122972002931005
1.239458313295455,-0.4471646938158692,-0.004461785429463272
1.239458323295455,-0.4589914762125219,-0.004461785429463272
1.239458333295455,-0.4721698908810378,-0.004461785429463272
1.239458343295455,-0.4812934089603253,-0.003445345147726373
1.239458353295455,-0.4900790187323557,-0.00446178542695571
1.239458363295455,-0.4954855478279683,-0.003445345142710786
1.239458373295454,-0.4998783527218114,-0.004122971992757773
1.239458383295455,-0.5025816173286034,-0.005139412270109404
1.239458393295455,-0.5025816173276249,-0.00209009141921428
1.239458403295455,-0.4998783527798197,-0.004122971987703205
1.239458413295455,-0.4951476397417768,-0.004800598831383679
1.239458423295455,-0.4917685590262678,-0.002090091419946751
1.239458433295455,-0.4812934089035183,-0.002428904848028392
1.239458443295455,-0.4708182587807735,-0.003106531703600645
1.239458453295455,-0.4589914761180523,-0.002767718275945636
1.239458463295455,-0.4454751533782738,-0.002428904850129044
1.239458473295455,-0.4316209225707663,-0.003106531706292327
1.239458483295454,-0.4147255191586898,-0.0007348377214586952
1.239458493295455,-0.395126850782942,-0.000734837693714036
1.239458503295455,-0.3762039989480573,-5.72108375926614e-05
1.239458513295455,-0.3552536987025583,0.00028160259048898
1.239458523295455,-0.3309243172418901,-0.0007348376841290608
1.239458533295455,-0.3055812121006824,0.0006204160129350381
1.239458543295455,-0.2788864746911069,-0.001751277983635374
1.239458553295455,-0.2515159211459078,0.0002816025761215321
1.239458563295455,-0.2254969992682872,0.001636856299402795
1.239458573295455,-0.1974506295834647,-5.721084033056544e-05
1.239458583295455,-0.1687284437630224,-0.001412464552657131
1.239458593295454,-0.1383167176071214,-5.721085141098775e-05
1.239458603295455,-0.1092566230592013,0.0002816025985661821
1.239458613295455,-0.0801965291702964,0.001298042882810644
1.239458623295455,-0.04843317073388545,0.001975669739013216
1.239458633295455,-0.01666981158853243,0.0009592294628846288
1.239458643295455,0.01543145491275861,0.001975669740596794
1.239458653295455,0.04651899721251732,0.001298042884433819
1.239458663295455,0.07794444758001531,0.001636856310257499
1.239458673295455,0.1120731631891066,0.002314483186611784
1.239458683295455,0.1407953490125069,0.004008550321088123
1.239458693295455,0.1712070751753281,0.002314483180679915
1.239458703295454,0.2002671690700808,0.001636856320119346
1.239458713295455,0.2286514474515992,0.001975669747087953
1.239458723295455,0.2556840929296502,0.002653296603250927
1.239458733295455,0.2823788303393576,0.003669736887375674
1.239458743295455,0.308397752154752,0.002992110030347263
1.239458753295455,0.3303617766191247,0.002653296604716947
1.239458763295455,0.3560427898232732,0.002992110032798434
1.239458773295455,0.3759793658774773,0.002653296606383879
1.239458783295455,0.3952401262114675,0.002314483181064639
1.239458793295455,0.4141629780425354,0.003330923460186586
1.239458803295455,0.4307204733978417,0.0009592294636161743
1.239458813295454,0.4469400606862225,0.001975669732392018
1.239458823295455,0.4591047514572039,0.001975669750642452
1.239458833295455,0.4699178096484242,0.003330923462968401
1.239458843295455,0.4797171436348194,0.00163685632437057
1.239458853295455,0.4871511212997666,0.001636856306661554
1.239458863295455,0.4922197423166281,0.000959229452787818
1.239458873295455,0.4942471907274819,0.000959229452787818
1.239458883295455,0.497288363341028,0.001298042879955027
1.239458893295455,0.4962746391362595,0.001298042865495289
1.239458903295455,0.4935713745888833,-0.001073651127193524
1.239458913295455,0.4912060181095539,-0.0003960242710305491
1.239458923295454,0.4881648454965186,0.001636856290948111
1.239458933295455,0.4800550517246405,0.0009592294510107226
1.239458943295455,0.4712694419442699,0.0006204160229290811
1.239458953295455,0.4604563837547367,0.0006204160226471248
1.239458963295455,0.4449126123017425,0.0006204160132783161
1.239458973295455,0.4303825653477422,-0.0003960242677749547
1.239458983295455,0.412811345787001,-0.0003960242677749547
1.239458993295455,0.393212677821361,-0.001073651121947595
1.239459003295455,0.3746277336093634,-0.001751277981109014
1.239459013295455,0.3526637091573881,-0.000734837700018765
