4Te_Labor/4.1/hochpass_passive/messung_hochpass_passiv_1khz.csv

#Digilent WaveForms Oscilloscope Acquisition
#Device Name: Discovery2
#Serial Number: SN:210321AA2AFF
#Date Time: 2024-01-16 17:43:56.435
#Sample rate: 2.94118e+06Hz
#Samples: 8192
#Trigger: Source: Channel 1 Type: Edge Condition: Rising Level: 0 V Hyst.: Auto HoldOff: 0 s
#Channel 1: Range: 2 V/div Offset: 0 V Attenuation: 1 X Sample Mode: Average
#Channel 2: Range: 50 mV/div Offset: 0 V Attenuation: 1 X Sample Mode: Average
#Wavegen Channel 1: Enabled
#Mode: Simple
#Type: Sine
#Frequency: 1 kHz
#Period: 1 ms
#Amplitude: 2 V
#Offset: 0 V
#Symmetry: 50 %
#Phase: 0 бу

Time (s),Channel 1 (V),Channel 2 (V)
-0.002147995331519891,-1.603141582767019,0.03687345304770114
-0.002147655331519891,-1.595713139386558,0.03653463961756075
-0.002147315331519891,-1.591998917696321,0.0365346396175606
-0.002146975331519891,-1.591998917696317,0.0365346396175603
-0.002146635331519891,-1.584570474315856,0.03585701275727952
-0.002146295331519891,-1.588284696006087,0.03484057246685714
-0.002145955331519891,-1.588284696006087,0.03450175903671675
-0.002145615331519891,-1.588284696006087,0.03517938589699753
-0.002145275331519891,-1.580856252625619,0.03551819932713852
-0.002144935331519891,-1.577142030935385,0.03585701275727936
-0.002144595331519891,-1.577142030935385,0.03619582618741975
-0.002144255331519891,-1.573427809245151,0.03619582618741991
-0.002143915331519891,-1.573427809245151,0.03619582618741975
-0.002143575331519891,-1.573427809245151,0.03585701275727921
-0.002143235331519891,-1.565999365864682,0.03619582618742006
-0.002142895331519891,-1.562285144174448,0.03653463961756014
-0.002142555331519891,-1.558570922484216,0.03551819932713852
-0.002142215331519891,-1.55485670079398,0.03382413217643521
-0.002141875331519891,-1.551142479103744,0.03416294560657575
-0.002141535331519891,-1.547428257413514,0.03416294560657575
-0.002141195331519891,-1.547428257413514,0.03450175903671644
-0.002140855331519891,-1.547428257413511,0.03450175903671644
-0.002140515331519891,-1.54371403572328,0.03450175903671644
-0.002140175331519892,-1.536285592342819,0.03450175903671644
-0.002139835331519891,-1.536285592342809,0.03517938589699721
-0.002139495331519891,-1.532571370652578,0.03450175903671644
-0.002139155331519892,-1.536285592342809,0.03416294560657605
-0.002138815331519891,-1.528857148962344,0.03416294560657513
-0.002138475331519891,-1.528857148962344,0.03348531874629436
-0.002138135331519892,-1.521428705581883,0.03382413217643475
-0.002137795331519891,-1.517714483891639,0.03416294560657575
-0.002137455331519891,-1.514000262201409,0.03416294560657575
-0.002137115331519892,-1.517714483891639,0.03484057246685652
-0.002136775331519891,-1.514000262201405,0.03416294560657575
-0.002136435331519891,-1.510286040511175,0.03416294560657575
-0.002136095331519892,-1.502857597130714,0.03382413217643536
-0.002135755331519891,-1.499143375440477,0.03314650531615398
-0.002135415331519891,-1.502857597130707,0.03348531874629436
-0.002135075331519892,-1.495429153750246,0.03314650531615398
-0.002134735331519891,-1.499143375440471,0.03280769188601313
-0.002134395331519891,-1.491714932060005,0.03213006502573159
-0.002134055331519892,-1.491714932060005,0.03314650531615321
-0.002133715331519891,-1.484286488679541,0.03246887845587259
-0.002133375331519891,-1.484286488679538,0.03280769188601298
-0.002133035331519892,-1.480572266989306,0.03246887845587244
-0.002132695331519891,-1.480572266989304,0.03246887845587228
-0.002132355331519891,-1.476858045299068,0.03213006502573174
-0.002132015331519892,-1.473143823608838,0.03246887845587213
-0.002131675331519891,-1.473143823608836,0.03213006502573159
-0.002131335331519891,-1.465715380228366,0.03314650531615367
-0.002130995331519892,-1.462001158538136,0.03314650531615367
-0.002130655331519891,-1.462001158538134,0.0317912515955909
-0.002130315331519891,-1.458286936847899,0.0317912515955912
-0.002129975331519891,-1.454572715157668,0.03246887845587198
-0.002129635331519891,-1.450858493467433,0.03213006502573159
-0.002129295331519891,-1.450858493467429,0.03213006502573159
-0.002128955331519891,-1.443430050086968,0.03213006502573159
-0.002128615331519891,-1.443430050086965,0.03213006502573159
-0.002128275331519891,-1.439715828396728,0.03179125159559105
-0.002127935331519891,-1.432287385016267,0.03213006502573144
-0.002127595331519891,-1.428573163326029,0.03213006502573159
-0.002127255331519891,-1.428573163326029,0.03145243816545067
-0.002126915331519891,-1.428573163326029,0.03246887845587182
-0.002126575331519891,-1.424858941635795,0.03043599787502813
-0.002126235331519891,-1.424858941635795,0.03009718444488758
-0.002125895331519891,-1.424858941635795,0.03043599787502797
-0.002125555331519891,-1.417430498255327,0.03043599787502813
-0.002125215331519891,-1.410002054874856,0.0297583710147472
-0.002124875331519891,-1.402573611494395,0.03077481130516836
-0.002124535331519891,-1.402573611494392,0.02975837101474674
-0.002124195331519891,-1.395145168113926,0.02975837101474674
-0.002123855331519891,-1.398859389804156,0.02975837101474674
-0.002123515331519891,-1.395145168113924,0.03009718444488743
-0.002123175331519891,-1.387716724733455,0.03043599787502813
-0.002122835331519891,-1.384002503043222,0.03043599787502813
-0.002122495331519891,-1.384002503043222,0.02874193072432466
-0.002122155331519891,-1.384002503043222,0.02840311729418381
-0.002121815331519891,-1.384002503043222,0.02806430386404327
-0.002121475331519891,-1.384002503043219,0.02840311729418412
-0.002121135331519891,-1.376574059662755,0.02874193072432466
-0.002120795331519891,-1.376574059662755,0.02874193072432466
-0.002120455331519891,-1.369145616282285,0.02941955758460589
-0.002120115331519891,-1.36543139459205,0.02908074415446566
-0.002119775331519891,-1.361717172901819,0.02941955758460604
-0.002119435331519892,-1.358002951211589,0.02908074415446566
-0.002119095331519891,-1.354288729521348,0.02975837101474551
-0.002118755331519891,-1.350574507831117,0.02840311729418396
-0.002118415331519892,-1.343146064450656,0.02840311729418396
-0.002118075331519891,-1.335717621070182,0.02806430386404358
-0.002117735331519891,-1.335717621070182,0.02840311729418396
-0.002117395331519892,-1.332003399379951,0.0277254904339032
-0.002117055331519891,-1.335717621070182,0.02840311729418366
-0.002116715331519891,-1.335717621070182,0.02806430386404327
-0.002116375331519892,-1.332003399379951,0.02874193072432404
-0.002116035331519891,-1.328289177689714,0.02840311729418427
-0.002115695331519891,-1.328289177689714,0.02874193072432466
-0.002115355331519892,-1.320860734309253,0.02874193072432466
-0.002115015331519891,-1.320860734309243,0.02874193072432343
-0.002114675331519891,-1.317146512619012,0.02738667700376188
-0.002114335331519892,-1.317146512619012,0.02670905014348112
-0.002113995331519891,-1.320860734309244,0.02603142328319942
-0.002113655331519891,-1.313432290928778,0.02569260985305842
-0.002113315331519892,-1.302289625858087,0.02637023671333919
-0.002112975331519891,-1.298575404167845,0.02704786357362089
-0.002112635331519891,-1.294861182477609,0.02704786357362119
-0.002112295331519892,-1.287432739097144,0.02704786357362119
-0.002111955331519891,-1.283718517406907,0.02704786357362119
-0.002111615331519891,-1.283718517406907,0.02704786357362119
-0.002111275331519892,-1.280004295716675,0.02704786357362119
-0.002110935331519891,-1.276290074026439,0.02704786357362119
-0.002110595331519891,-1.276290074026439,0.02603142328319911
-0.002110255331519892,-1.276290074026439,0.02603142328319911
-0.002109915331519891,-1.272575852336205,0.02637023671333981
-0.002109575331519891,-1.2725758523362,0.02569260985305888
-0.002109235331519892,-1.261433187265509,0.02670905014348004
-0.002108895331519891,-1.261433187265504,0.02569260985305842
-0.002108555331519891,-1.257718965575267,0.02603142328319911
-0.002108215331519891,-1.250290522194805,0.02603142328319911
-0.002107875331519891,-1.246576300504568,0.02637023671333981
-0.002107535331519891,-1.239147857124099,0.02603142328319926
-0.002107195331519891,-1.235433635433868,0.02637023671333965
-0.002106855331519891,-1.2391478571241,0.02535379642291773
-0.002106515331519891,-1.235433635433865,0.02501498299277688
-0.002106175331519891,-1.231719413743634,0.02467616956263649
-0.002105835331519891,-1.228005192053399,0.02501498299277703
-0.002105495331519891,-1.220576748672928,0.02467616956263634
-0.002105155331519891,-1.213148305292466,0.02467616956263634
-0.002104815331519891,-1.209434083602229,0.02433735613249565
-0.002104475331519891,-1.209434083602227,0.02467616956263634
-0.002104135331519891,-1.205719861911997,0.02467616956263634
-0.002103795331519891,-1.205719861911995,0.02501498299277703
-0.002103455331519891,-1.20200564022176,0.02535379642291742
-0.002103115331519891,-1.198291418531529,0.02467616956263665
-0.002102775331519891,-1.194577196841293,0.02365972927221426
-0.002102435331519891,-1.198291418531522,0.02365972927221426
-0.002102095331519891,-1.187148753460831,0.02365972927221426
-0.002101755331519891,-1.187148753460826,0.02365972927221426
-0.002101415331519891,-1.18343453177059,0.02399854270235464
-0.002101075331519891,-1.179720310080358,0.02332091584207357
-0.002100735331519891,-1.179720310080355,0.02399854270235495
-0.002100395331519891,-1.17229186669989,0.02399854270235495
-0.002100055331519891,-1.17229186669989,0.02399854270235495
-0.002099715331519891,-1.164863423319421,0.02467616956263634
-0.002099375331519891,-1.161149201629185,0.02467616956263603
-0.002099035331519891,-1.157434979938955,0.02433735613249565
-0.002098695331519891,-1.157434979938951,0.02264328898179203
-0.002098355331519891,-1.150006536558487,0.0223044755516518
-0.002098015331519891,-1.150006536558487,0.02264328898179218
-0.002097675331519892,-1.146292314868256,0.02264328898179218
-0.002097335331519891,-1.142578093178016,0.02230447555165118
-0.002096995331519891,-1.138863871487785,0.02196566212151079
-0.002096655331519892,-1.135149649797555,0.02264328898179156
-0.002096315331519891,-1.131435428107314,0.0226432889817928
-0.002095975331519891,-1.127721206417083,0.02332091584207357
-0.002095635331519892,-1.124006984726853,0.02298210241193318
-0.002095295331519891,-1.120292763036616,0.02298210241193226
-0.002094955331519891,-1.120292763036616,0.02230447555165149
-0.002094615331519892,-1.116578541346385,0.02094922183108995
-0.002094275331519891,-1.112864319656145,0.0212880352612291
-0.002093935331519891,-1.109150097965914,0.02094922183108872
-0.002093595331519892,-1.105435876275683,0.02230447555165026
-0.002093255331519891,-1.101721654585448,0.02230447555165149
-0.002092915331519891,-1.090578989514744,0.02230447555165149
-0.002092575331519892,-1.090578989514744,0.02128803526123033
-0.002092235331519891,-1.086864767824512,0.02230447555165103
-0.002091895331519891,-1.079436324444043,0.02196566212151079
-0.002091555331519892,-1.083150546134275,0.02230447555165134
-0.002091215331519891,-1.083150546134277,0.02196566212151095
-0.002090875331519891,-1.079436324444043,0.02061040840094802
-0.002090535331519892,-1.083150546134275,0.02027159497080748
-0.002090195331519891,-1.075722102753809,0.02094922183108872
-0.002089855331519891,-1.072007881063573,0.02128803526122926
-0.002089515331519892,-1.068293659373343,0.02094922183108887
-0.002089175331519891,-1.064579437683107,0.02128803526122941
-0.002088835331519891,-1.057150994302638,0.02061040840094833
-0.002088495331519892,-1.053436772612407,0.0212880352612291
-0.002088155331519891,-1.049722550922171,0.02128803526122941
-0.002087815331519891,-1.042294107541702,0.02128803526122941
-0.002087475331519891,-1.038579885851472,0.02128803526122941
-0.002087135331519891,-1.034865664161236,0.02128803526122941
-0.002086795331519891,-1.031151442471002,0.01925515468038479
-0.002086455331519891,-1.031151442471002,0.01823871438996363
-0.002086115331519891,-1.027437220780768,0.01925515468038525
-0.002085775331519891,-1.027437220780768,0.01993278154066633
-0.002085435331519891,-1.027437220780768,0.01925515468038556
-0.002085095331519891,-1.016294555710066,0.01993278154066664
-0.002084755331519891,-1.012580334019827,0.0195939681105264
-0.002084415331519891,-1.001437668949136,0.02061040840094756
-0.002084075331519891,-1.001437668949131,0.02061040840094802
-0.002083735331519891,-0.9977234472588969,0.02094922183108887
-0.002083395331519891,-0.9977234472588969,0.02128803526122926
-0.002083055331519891,-0.9940092255686631,0.02094922183108872
-0.002082715331519891,-0.9865807821881936,0.01891634125024456
-0.002082375331519891,-0.9828665604979631,0.01891634125024456
-0.002082035331519891,-0.9828665604979614,0.01857752782010386
-0.002081695331519891,-0.9791523388077258,0.01857752782010402
-0.002081355331519891,-0.9754381171174953,0.0189163412502444
-0.002081015331519891,-0.9717238954272597,0.01959396811052594
-0.002080675331519891,-0.9680096737370241,0.0192551546803854
-0.002080335331519891,-0.9642954520467919,0.01959396811052594
-0.002079995331519891,-0.9642954520467919,0.01891634125024456
-0.002079655331519891,-0.9531527869760885,0.01925515468038556
-0.002079315331519891,-0.9494385652858562,0.01993278154066664
-0.002078975331519891,-0.9457243435956207,0.01823871438996302
-0.002078635331519891,-0.9420101219053885,0.01789990095982248
-0.002078295331519891,-0.9420101219053885,0.01789990095982248
-0.002077955331519891,-0.934581678524919,0.01789990095982233
-0.002077615331519891,-0.9308674568346766,0.01756108752968209
-0.002077275331519891,-0.9197247917639851,0.01789990095982248
-0.002076935331519892,-0.9197247917639851,0.01789990095982248
-0.002076595331519891,-0.9197247917639851,0.01823871438996317
-0.002076255331519891,-0.9197247917639851,0.01823871438996317
-0.002075915331519892,-0.9085821266932935,0.01891634125024394
-0.002075575331519891,-0.9085821266932868,0.01891634125024394
-0.002075235331519891,-0.9122963483835173,0.01823871438996317
-0.002074895331519892,-0.9085821266932868,0.01654464723926125
-0.002074555331519891,-0.9011536833128156,0.01654464723926001
-0.002074215331519891,-0.9011536833128156,0.0168834606694004
-0.002073875331519892,-0.890011018242124,0.01722227409954078
-0.002073535331519891,-0.88629679655188,0.01688346066940009
-0.002073195331519891,-0.88629679655188,0.0165446472392597
-0.002072855331519892,-0.878868353171419,0.01722227409954047
-0.002072515331519891,-0.8751541314811749,0.01688346066940009
-0.002072175331519891,-0.8714399097909444,0.0165446472392597
-0.002071835331519892,-0.8640114664104834,0.01722227409954047
-0.002071495331519891,-0.8602972447202444,0.01756108752968163
-0.002071155331519891,-0.8640114664104767,0.01620583380911901
-0.002070815331519892,-0.860297244720246,0.01586702037897863
-0.002070475331519891,-0.8565830230300104,0.01552820694883778
-0.002070135331519891,-0.8528688013397749,0.01518939351869693
-0.002069795331519892,-0.8491545796495427,0.01518939351869693
-0.002069455331519891,-0.8454403579593072,0.01586702037897832
-0.002069115331519891,-0.8417261362690716,0.01518939351869755
-0.002068775331519892,-0.8380119145788409,0.01654464723925909
-0.002068435331519891,-0.8342976928886054,0.0165446472392597
-0.002068095331519891,-0.826869249508136,0.01654464723925955
-0.002067755331519892,-0.8231550278179054,0.01620583380911916
-0.002067415331519891,-0.8194408061276698,0.01552820694883762
-0.002067075331519891,-0.815726584437436,0.01518939351869616
-0.002066735331519891,-0.815726584437436,0.01349532636799424
-0.002066395331519891,-0.815726584437436,0.01383413979813416
-0.002066055331519891,-0.8082981410569665,0.01485058008855639
-0.002065715331519891,-0.8045839193667359,0.01518939351869678
-0.002065375331519891,-0.7971554759862665,0.01485058008855624
-0.002065035331519891,-0.789727032605797,0.01518939351869693
-0.002064695331519891,-0.7860128109155664,0.01518939351869693
-0.002064355331519891,-0.7822985892253309,0.01485058008855624
-0.002064015331519891,-0.7822985892253292,0.01451176665841554
-0.002063675331519891,-0.7785843675350986,0.01451176665841554
-0.002063335331519891,-0.774870145844863,0.01518939351869693
-0.002062995331519891,-0.7674417024643936,0.01383413979813416
-0.002062655331519891,-0.7637274807741631,0.01383413979813416
-0.002062315331519891,-0.7600132590839275,0.01383413979813416
-0.002061975331519891,-0.7600132590839258,0.01417295322827501
-0.002061635331519891,-0.7562990373936952,0.01451176665841539
-0.002061295331519891,-0.7525848157034597,0.01417295322827485
-0.002060955331519891,-0.7451563723229886,0.01485058008855578
-0.002060615331519891,-0.7377279289425274,0.01383413979813462
-0.002060275331519891,-0.7302994855620563,0.01485058008855624
-0.002059935331519891,-0.7302994855620512,0.01451176665841539
-0.002059595331519891,-0.7191568204913596,0.01417295322827501
-0.002059255331519891,-0.7228710421815885,0.01315651293785277
-0.002058915331519891,-0.7191568204913529,0.01281769950771208
-0.002058575331519891,-0.7154425988011207,0.01281769950771208
-0.002058235331519891,-0.7117283771108851,0.01281769950771192
-0.002057895331519891,-0.7080141554206478,0.01247888607757139
-0.002057555331519891,-0.6968714903499512,0.01247888607757139
-0.002057215331519891,-0.7005857120401817,0.01315651293785262
-0.002056875331519891,-0.6931572686597105,0.01281769950771269
-0.002056535331519891,-0.6857288252792495,0.01349532636799347
-0.002056195331519892,-0.6820146035890189,0.01383413979813385
-0.002055855331519891,-0.6745861602085444,0.01451176665841524
-0.002055515331519891,-0.6708719385183139,0.01417295322827485
-0.002055175331519892,-0.6708719385183139,0.01247888607757293
-0.002054835331519891,-0.6634434951378494,0.01315651293785277
-0.002054495331519891,-0.66715771682808,0.01315651293785277
-0.002054155331519892,-0.659729273447619,0.01315651293785277
-0.002053815331519891,-0.656015051757375,0.01315651293785246
-0.002053475331519891,-0.6523008300671445,0.01281769950771208
-0.002053135331519892,-0.6485866083769138,0.01315651293785246
-0.002052795331519891,-0.6448723866866732,0.01315651293785277
-0.002052455331519891,-0.6411581649964427,0.01315651293785277
-0.002052115331519892,-0.6411581649964427,0.01281769950771239
-0.002051775331519891,-0.630015499925741,0.01349532636799347
-0.002051435331519891,-0.630015499925741,0.01349532636799347
-0.002051095331519892,-0.630015499925741,0.01180125921729154
-0.002050755331519891,-0.6263012782355087,0.01078481892686838
-0.002050415331519891,-0.6225870565452732,0.01112363235700861
-0.002050075331519892,-0.6151586131648122,0.01112363235700861
-0.002049735331519891,-0.6151586131648055,0.01180125921728969
-0.002049395331519891,-0.6151586131648055,0.01214007264743069
-0.002049055331519892,-0.6040159480941089,0.01214007264743069
-0.002048715331519891,-0.6040159480941037,0.01315651293785231
-0.002048375331519891,-0.596587504713636,0.01247888607757139
-0.002048035331519892,-0.5928732830234037,0.01247888607757139
-0.002047695331519891,-0.5891590613331681,0.01247888607757139
-0.002047355331519891,-0.5817306179527003,0.01247888607757015
-0.002047015331519892,-0.5817306179527003,0.009768378636447073
-0.002046675331519891,-0.5743021745722325,0.00976837863644584
-0.002046335331519891,-0.5743021745722274,0.009768378636445994
-0.002045995331519892,-0.5631595095015359,0.01010719206658638
-0.002045655331519891,-0.559445287811297,0.01078481892686792
-0.002045315331519891,-0.5594452878112953,0.01078481892686808
-0.002044975331519891,-0.5557310661210647,0.01112363235700846
-0.002044635331519891,-0.5520168444308291,0.01146244578714931
-0.002044295331519891,-0.5445884010503597,0.01078481892686823
-0.002043955331519891,-0.5408741793601292,0.011462445787149
-0.002043615331519891,-0.5371599576698936,0.01112363235700861
-0.002043275331519891,-0.5334457359796596,0.009429565206304993
-0.002042935331519891,-0.5334457359796596,0.009090751776164609
-0.002042595331519891,-0.5297315142894258,0.01010719206658653
-0.002042255331519891,-0.5260172925991885,0.009429565206304993
-0.002041915331519891,-0.5185888492187274,0.009090751776164609
-0.002041575331519891,-0.5074461841480223,0.009429565206305147
-0.002041235331519891,-0.5037319624577868,0.009090751776164764
-0.002040895331519891,-0.5000177407675562,0.009768378636445531
