5Te-Labor/Versuch 5_PLL/sprungantwort_besser.csv

X,CH1,CH2,CH3,Start,Increment,
Sequence,Volt,Volt,Volt,-3.120000e-02,2.000000e-04
0,-4.00e-01,-1.02e+01,-5.80e+00,
1,2.00e-01,-1.02e+01,-5.60e+00,
2,2.00e-01,-1.02e+01,-5.80e+00,
3,-4.00e-01,-1.02e+01,-5.60e+00,
4,-4.00e-01,-1.02e+01,-5.60e+00,
5,2.00e-01,-1.02e+01,-5.80e+00,
6,-4.00e-01,-1.02e+01,-5.80e+00,
7,2.00e-01,-1.02e+01,-5.60e+00,
8,-4.00e-01,-1.02e+01,-5.80e+00,
9,2.00e-01,-1.02e+01,-5.60e+00,
10,-4.00e-01,-1.02e+01,-5.80e+00,
11,2.00e-01,-1.02e+01,-5.60e+00,
12,-4.00e-01,-1.02e+01,-5.60e+00,
13,2.00e-01,-1.02e+01,-5.80e+00,
14,0.00e+00,-1.02e+01,-5.80e+00,
15,-4.00e-01,-1.02e+01,-5.60e+00,
16,0.00e+00,-1.02e+01,-5.60e+00,
17,-4.00e-01,-1.02e+01,-5.80e+00,
18,-4.00e-01,-1.02e+01,-5.80e+00,
19,2.00e-01,-1.02e+01,-5.60e+00,
20,-4.00e-01,-1.02e+01,-5.80e+00,
21,2.00e-01,-1.02e+01,-5.60e+00,
22,-4.00e-01,-1.02e+01,-5.80e+00,
23,2.00e-01,-1.02e+01,-5.60e+00,
24,-4.00e-01,-1.02e+01,-5.60e+00,
25,2.00e-01,-1.02e+01,-5.80e+00,
26,-4.00e-01,-1.02e+01,-5.80e+00,
27,2.00e-01,-1.02e+01,-5.60e+00,
28,-4.00e-01,-1.02e+01,-5.80e+00,
29,2.00e-01,-1.02e+01,-5.60e+00,
30,-4.00e-01,-1.02e+01,-5.80e+00,
31,2.00e-01,-1.02e+01,-5.60e+00,
32,-4.00e-01,-1.02e+01,-5.80e+00,
33,2.00e-01,-1.02e+01,-5.60e+00,
34,-4.00e-01,-1.02e+01,-5.60e+00,
35,2.00e-01,-1.02e+01,-5.80e+00,
36,-4.00e-01,-1.02e+01,-5.60e+00,
37,2.00e-01,-1.02e+01,-5.80e+00,
38,-4.00e-01,-1.02e+01,-5.80e+00,
39,2.00e-01,-1.02e+01,-5.60e+00,
40,-4.00e-01,-1.02e+01,-5.60e+00,
41,2.00e-01,-1.02e+01,-5.80e+00,
42,-4.00e-01,-1.02e+01,-5.60e+00,
43,2.00e-01,-1.02e+01,-5.80e+00,
44,-4.00e-01,-1.02e+01,-5.60e+00,
45,2.00e-01,-1.02e+01,-5.80e+00,
46,-4.00e-01,-1.02e+01,-5.80e+00,
47,2.00e-01,-1.02e+01,-5.60e+00,
48,-4.00e-01,-1.02e+01,-5.80e+00,
49,2.00e-01,-1.02e+01,-5.60e+00,
50,-4.00e-01,-1.02e+01,-5.60e+00,
51,2.00e-01,-1.02e+01,-5.80e+00,
52,0.00e+00,-1.02e+01,-5.80e+00,
53,2.00e-01,-1.02e+01,-5.60e+00,
54,2.00e-01,-1.02e+01,-5.80e+00,
55,-4.00e-01,-1.02e+01,-5.60e+00,
56,-2.00e-01,-1.02e+01,-5.80e+00,
57,2.00e-01,-1.02e+01,-5.60e+00,
58,0.00e+00,-1.02e+01,-5.60e+00,
59,2.00e-01,-1.02e+01,-5.80e+00,
60,2.00e-01,-1.02e+01,-5.80e+00,
61,-4.00e-01,-1.02e+01,-5.60e+00,
62,0.00e+00,-1.02e+01,-5.80e+00,
63,2.00e-01,-1.02e+01,-5.60e+00,
64,0.00e+00,-1.02e+01,-5.80e+00,
65,2.00e-01,-1.02e+01,-5.60e+00,
66,0.00e+00,-1.02e+01,-5.80e+00,
67,2.00e-01,-1.02e+01,-5.60e+00,
68,0.00e+00,-1.02e+01,-5.80e+00,
69,2.00e-01,-1.02e+01,-5.60e+00,
70,0.00e+00,-1.02e+01,-5.80e+00,
71,2.00e-01,-1.02e+01,-5.60e+00,
72,0.00e+00,-1.02e+01,-5.60e+00,
73,2.00e-01,-1.02e+01,-5.80e+00,
74,2.00e-01,-1.02e+01,-5.80e+00,
75,-2.00e-01,-1.02e+01,-5.60e+00,
76,0.00e+00,-1.02e+01,-5.80e+00,
77,2.00e-01,-1.02e+01,-5.60e+00,
78,2.00e-01,-1.02e+01,-5.80e+00,
79,-4.00e-01,-1.02e+01,-5.60e+00,
80,0.00e+00,-1.02e+01,-5.80e+00,
81,2.00e-01,-1.02e+01,-5.60e+00,
82,0.00e+00,-1.02e+01,-5.80e+00,
83,2.00e-01,-1.02e+01,-5.60e+00,
84,2.00e-01,-1.02e+01,-5.80e+00,
85,0.00e+00,-1.02e+01,-5.60e+00,
86,0.00e+00,-1.02e+01,-5.80e+00,
87,2.00e-01,-1.02e+01,-5.60e+00,
88,0.00e+00,-1.02e+01,-5.60e+00,
89,2.00e-01,-1.02e+01,-5.80e+00,
90,0.00e+00,-1.02e+01,-5.60e+00,
91,2.00e-01,-1.02e+01,-5.80e+00,
92,0.00e+00,-1.02e+01,-5.60e+00,
93,2.00e-01,-1.02e+01,-5.80e+00,
94,2.00e-01,-1.02e+01,-5.80e+00,
95,-4.00e-01,-1.02e+01,-5.60e+00,
96,2.00e-01,-1.02e+01,-5.80e+00,
97,-2.00e-01,-1.02e+01,-5.60e+00,
98,2.00e-01,-1.02e+01,-5.80e+00,
99,-2.00e-01,-1.02e+01,-5.60e+00,
100,2.00e-01,-1.02e+01,-5.80e+00,
101,-4.00e-01,-1.02e+01,-5.60e+00,
102,2.00e-01,-1.02e+01,-5.80e+00,
103,-4.00e-01,-1.02e+01,-5.60e+00,
104,-4.00e-01,-1.02e+01,-5.60e+00,
105,2.00e-01,-1.02e+01,-5.80e+00,
106,-4.00e-01,-1.02e+01,-5.80e+00,
107,2.00e-01,-1.02e+01,-5.60e+00,
108,-4.00e-01,-1.02e+01,-5.80e+00,
109,2.00e-01,-1.02e+01,-5.60e+00,
110,-4.00e-01,-1.02e+01,-5.80e+00,
111,2.00e-01,-1.02e+01,-5.60e+00,
112,-4.00e-01,-1.02e+01,-5.80e+00,
113,2.00e-01,-1.02e+01,-5.60e+00,
114,2.00e-01,-1.02e+01,-5.80e+00,
115,-4.00e-01,-1.02e+01,-5.60e+00,
116,-4.00e-01,-1.02e+01,-5.80e+00,
117,2.00e-01,-1.02e+01,-5.60e+00,
118,-4.00e-01,-1.02e+01,-5.60e+00,
119,2.00e-01,-1.02e+01,-5.80e+00,
120,-4.00e-01,-1.02e+01,-5.80e+00,
121,2.00e-01,-1.02e+01,-5.60e+00,
122,-4.00e-01,-1.02e+01,-5.80e+00,
123,2.00e-01,-1.02e+01,-5.60e+00,
124,-4.00e-01,-1.02e+01,-5.60e+00,
125,0.00e+00,-1.02e+01,-5.80e+00,
126,-4.00e-01,-1.02e+01,-5.80e+00,
127,2.00e-01,-1.02e+01,-5.60e+00,
128,-4.00e-01,-1.02e+01,-5.60e+00,
129,2.00e-01,-1.02e+01,-5.80e+00,
130,-4.00e-01,-1.02e+01,-5.80e+00,
131,0.00e+00,-1.02e+01,-5.60e+00,
132,-4.00e-01,-1.02e+01,-5.80e+00,
133,2.00e-01,-1.02e+01,-5.60e+00,
134,-4.00e-01,-1.02e+01,-5.80e+00,
135,2.00e-01,-1.02e+01,-5.60e+00,
136,-4.00e-01,-1.02e+01,-5.80e+00,
137,2.00e-01,-1.02e+01,-5.60e+00,
138,-4.00e-01,-1.02e+01,-5.80e+00,
139,2.00e-01,-1.02e+01,-5.60e+00,
140,-4.00e-01,-1.02e+01,-5.60e+00,
141,2.00e-01,-1.02e+01,-5.80e+00,
142,-4.00e-01,-1.02e+01,-5.80e+00,
143,2.00e-01,-1.02e+01,-5.60e+00,
144,-4.00e-01,-1.02e+01,-5.80e+00,
145,2.00e-01,-1.02e+01,-5.60e+00,
146,-4.00e-01,-1.02e+01,-5.60e+00,
147,2.00e-01,-1.02e+01,-5.80e+00,
148,2.00e-01,-1.02e+01,-5.60e+00,
149,-4.00e-01,-1.02e+01,-5.80e+00,
150,2.00e-01,-1.02e+01,-5.60e+00,
151,-4.00e-01,-1.02e+01,-5.80e+00,
152,2.00e-01,-1.02e+01,-5.80e+00,
153,-4.00e-01,-1.02e+01,-5.60e+00,
154,2.00e-01,-1.02e+01,-5.80e+00,
155,-2.00e-01,-1.02e+01,-5.60e+00,
156,1.00e+01,-1.02e+01,-5.80e+00,
157,-2.00e-01,-1.02e+01,-5.60e+00,
158,0.00e+00,-1.02e+01,-5.80e+00,
159,1.00e+01,-1.02e+01,-5.60e+00,
160,-4.00e-01,-1.02e+01,-5.80e+00,
161,9.80e+00,-1.02e+01,-5.60e+00,
162,1.00e+01,-1.02e+01,-5.60e+00,
163,0.00e+00,-1.02e+01,-5.80e+00,
164,0.00e+00,-1.02e+01,-5.80e+00,
165,1.00e+01,-1.02e+01,-5.60e+00,
166,1.00e+01,-1.02e+01,-5.60e+00,
167,0.00e+00,-1.02e+01,-5.80e+00,
168,0.00e+00,-1.02e+01,-5.80e+00,
169,1.00e+01,-1.02e+01,-5.60e+00,
170,1.00e+01,-1.02e+01,-5.80e+00,
171,0.00e+00,-1.02e+01,-5.60e+00,
172,0.00e+00,-1.02e+01,-5.60e+00,
173,1.00e+01,-1.02e+01,-5.80e+00,
174,1.00e+01,-1.02e+01,-5.60e+00,
175,-4.00e-01,-1.02e+01,-5.80e+00,
176,-2.00e-01,-1.02e+01,-5.80e+00,
177,1.00e+01,-1.02e+01,-5.60e+00,
178,1.00e+01,-1.02e+01,-5.80e+00,
179,0.00e+00,-1.02e+01,-5.60e+00,
180,-4.00e-01,-1.02e+01,-5.80e+00,
181,1.00e+01,-1.02e+01,-5.60e+00,
182,1.00e+01,-1.02e+01,-5.80e+00,
183,-2.00e-01,-1.02e+01,-5.60e+00,
184,-4.00e-01,-1.02e+01,-5.80e+00,
185,1.00e+01,-1.02e+01,-5.60e+00,
186,1.00e+01,-1.02e+01,-5.80e+00,
187,-4.00e-01,-1.02e+01,-5.60e+00,
188,-4.00e-01,-1.02e+01,-5.80e+00,
189,1.00e+01,-1.02e+01,-5.60e+00,
190,1.00e+01,-1.02e+01,-5.80e+00,
191,-4.00e-01,-1.02e+01,-5.60e+00,
192,-4.00e-01,-1.02e+01,-5.60e+00,
193,1.00e+01,-1.02e+01,-5.80e+00,
194,1.00e+01,-1.02e+01,-5.80e+00,
195,-4.00e-01,-1.02e+01,-5.60e+00,
196,-4.00e-01,-1.02e+01,-5.80e+00,
197,1.00e+01,-1.02e+01,-5.60e+00,
198,1.00e+01,-1.02e+01,-5.80e+00,
199,-4.00e-01,-1.02e+01,-5.60e+00,
200,-4.00e-01,-1.02e+01,-5.80e+00,
201,1.00e+01,-1.02e+01,-5.60e+00,
202,1.00e+01,-1.02e+01,-5.80e+00,
203,-4.00e-01,-1.02e+01,-5.60e+00,
204,-2.00e-01,-1.02e+01,-5.80e+00,
205,1.00e+01,-1.02e+01,-5.60e+00,
206,1.00e+01,-1.02e+01,-5.60e+00,
207,-4.00e-01,-1.02e+01,-5.80e+00,
208,-4.00e-01,-1.02e+01,-5.80e+00,
209,1.00e+01,-1.02e+01,-5.60e+00,
210,-4.00e-01,-1.02e+01,-5.80e+00,
211,1.00e+01,-1.02e+01,-5.60e+00,
212,1.00e+01,-1.02e+01,-5.80e+00,
213,-2.00e-01,-1.02e+01,-5.60e+00,
214,-4.00e-01,-1.02e+01,-5.60e+00,
215,1.00e+01,-1.02e+01,-5.80e+00,
216,1.00e+01,-1.02e+01,-5.80e+00,
217,-4.00e-01,-1.02e+01,-5.60e+00,
218,-2.00e-01,-1.02e+01,-5.60e+00,
219,1.00e+01,-1.02e+01,-5.80e+00,
220,1.00e+01,-1.02e+01,-5.80e+00,
221,0.00e+00,-1.02e+01,-5.60e+00,
222,-4.00e-01,-1.02e+01,-5.60e+00,
223,1.00e+01,-1.02e+01,-5.80e+00,
224,1.00e+01,-1.02e+01,-5.80e+00,
225,-2.00e-01,-1.02e+01,-5.60e+00,
226,-4.00e-01,-1.02e+01,-5.60e+00,
227,1.00e+01,-1.02e+01,-5.80e+00,
228,1.00e+01,-1.02e+01,-5.60e+00,
229,-2.00e-01,-1.02e+01,-5.80e+00,
230,-4.00e-01,-1.02e+01,-5.80e+00,
231,1.00e+01,-1.02e+01,-5.60e+00,
232,1.00e+01,-1.02e+01,-5.80e+00,
233,-4.00e-01,-1.02e+01,-5.60e+00,
234,-2.00e-01,-1.02e+01,-5.80e+00,
235,1.00e+01,-1.02e+01,-5.60e+00,
236,1.00e+01,-1.02e+01,-5.80e+00,
237,-2.00e-01,-1.02e+01,-5.60e+00,
238,-4.00e-01,-1.02e+01,-5.80e+00,
239,1.00e+01,-1.02e+01,-5.60e+00,
240,1.00e+01,-1.02e+01,-5.80e+00,
241,-4.00e-01,-1.02e+01,-5.60e+00,
242,-2.00e-01,-1.02e+01,-5.60e+00,
243,1.00e+01,-1.02e+01,-5.80e+00,
244,1.00e+01,-1.02e+01,-5.60e+00,
245,-4.00e-01,-1.02e+01,-5.80e+00,
246,-2.00e-01,-1.02e+01,-5.80e+00,
247,1.00e+01,-1.02e+01,-5.60e+00,
248,1.00e+01,-1.02e+01,-5.80e+00,
249,-4.00e-01,-1.02e+01,-5.60e+00,
250,-4.00e-01,-1.02e+01,-5.80e+00,
251,1.00e+01,-1.02e+01,-5.60e+00,
252,1.00e+01,-1.02e+01,-5.80e+00,
253,-4.00e-01,-1.02e+01,-5.60e+00,
254,-2.00e-01,-1.02e+01,-5.80e+00,
255,1.00e+01,-1.02e+01,-5.60e+00,
256,1.00e+01,-1.02e+01,-5.60e+00,
257,-4.00e-01,-1.02e+01,-5.80e+00,
258,-2.00e-01,-1.02e+01,-5.80e+00,
259,1.00e+01,-1.02e+01,-5.60e+00,
260,-4.00e-01,-1.02e+01,-5.80e+00,
261,1.00e+01,-1.02e+01,-5.60e+00,
262,1.00e+01,-1.02e+01,-5.80e+00,
263,-2.00e-01,-1.02e+01,-5.60e+00,
264,-4.00e-01,-1.02e+01,-5.80e+00,
265,1.00e+01,-1.02e+01,-5.60e+00,
266,1.00e+01,-1.02e+01,-5.60e+00,
267,-2.00e-01,-1.02e+01,-5.80e+00,
268,-4.00e-01,-1.02e+01,-5.80e+00,
269,1.00e+01,-1.02e+01,-5.60e+00,
270,1.00e+01,-1.02e+01,-5.80e+00,
271,-2.00e-01,-1.02e+01,-5.60e+00,
272,-4.00e-01,-1.02e+01,-5.80e+00,
273,1.00e+01,-1.02e+01,-5.60e+00,
274,1.00e+01,-1.02e+01,-5.80e+00,
275,-4.00e-01,-1.02e+01,-5.60e+00,
276,-4.00e-01,-1.02e+01,-5.80e+00,
277,1.00e+01,-1.00e+01,-5.60e+00,
278,1.00e+01,-1.02e+01,-5.80e+00,
279,-2.00e-01,-1.00e+01,-5.60e+00,
280,-4.00e-01,-1.02e+01,-5.80e+00,
281,1.00e+01,-9.80e+00,-5.60e+00,
282,1.00e+01,-1.00e+01,-5.80e+00,
283,-4.00e-01,-9.80e+00,-5.60e+00,
284,-4.00e-01,-1.00e+01,-5.80e+00,
285,1.00e+01,-9.60e+00,-5.60e+00,
286,1.00e+01,-1.00e+01,-5.80e+00,
287,-2.00e-01,-9.60e+00,-5.60e+00,
288,-4.00e-01,-9.80e+00,-5.80e+00,
289,1.00e+01,-9.60e+00,-5.40e+00,
290,1.00e+01,-9.80e+00,-5.80e+00,
291,-4.00e-01,-9.40e+00,-5.60e+00,
292,-4.00e-01,-9.60e+00,-5.80e+00,
293,1.00e+01,-9.40e+00,-5.60e+00,
294,1.00e+01,-9.60e+00,-5.60e+00,
295,-4.00e-01,-9.20e+00,-5.80e+00,
296,-4.00e-01,-9.40e+00,-5.80e+00,
297,1.00e+01,-9.20e+00,-5.60e+00,
298,1.00e+01,-9.40e+00,-5.80e+00,
299,-4.00e-01,-9.20e+00,-5.60e+00,
300,-4.00e-01,-9.40e+00,-5.80e+00,
301,1.00e+01,-9.00e+00,-5.60e+00,
302,1.00e+01,-9.20e+00,-5.80e+00,
303,-4.00e-01,-9.00e+00,-5.60e+00,
304,-2.00e-01,-9.00e+00,-5.80e+00,
305,1.00e+01,-9.20e+00,-5.60e+00,
306,1.00e+01,-9.00e+00,-5.60e+00,
307,-4.00e-01,-8.80e+00,-5.80e+00,
308,-2.00e-01,-9.00e+00,-5.80e+00,
309,1.00e+01,-8.60e+00,-5.60e+00,
310,-4.00e-01,-9.00e+00,-5.80e+00,
311,1.00e+01,-8.60e+00,-5.60e+00,
312,1.00e+01,-8.80e+00,-5.80e+00,
313,-2.00e-01,-8.60e+00,-5.60e+00,
314,-4.00e-01,-8.80e+00,-5.60e+00,
315,1.00e+01,-8.40e+00,-5.80e+00,
316,1.00e+01,-8.80e+00,-5.60e+00,
317,-4.00e-01,-8.40e+00,-5.80e+00,
318,-4.00e-01,-8.40e+00,-5.80e+00,
319,1.00e+01,-8.60e+00,-5.60e+00,
320,1.00e+01,-8.60e+00,-5.80e+00,
321,-2.00e-01,-8.20e+00,-5.60e+00,
322,-4.00e-01,-8.20e+00,-5.80e+00,
323,1.00e+01,-8.60e+00,-5.60e+00,
324,1.00e+01,-8.40e+00,-5.80e+00,
325,-2.00e-01,-8.00e+00,-5.60e+00,
326,-4.00e-01,-8.20e+00,-5.80e+00,
327,1.00e+01,-8.00e+00,-5.60e+00,
328,1.00e+01,-8.00e+00,-5.80e+00,
329,-4.00e-01,-8.20e+00,-5.60e+00,
330,-4.00e-01,-8.20e+00,-5.80e+00,
331,1.00e+01,-7.80e+00,-5.60e+00,
332,1.00e+01,-8.20e+00,-5.80e+00,
333,-2.00e-01,-7.80e+00,-5.60e+00,
334,-4.00e-01,-8.00e+00,-5.60e+00,
335,1.00e+01,-7.80e+00,-5.80e+00,
336,1.00e+01,-8.00e+00,-5.80e+00,
337,-2.00e-01,-7.60e+00,-5.60e+00,
338,-4.00e-01,-7.60e+00,-5.80e+00,
339,1.00e+01,-8.00e+00,-5.60e+00,
340,1.00e+01,-7.80e+00,-5.60e+00,
341,-4.00e-01,-7.40e+00,-5.80e+00,
342,-4.00e-01,-7.40e+00,-5.80e+00,
343,1.00e+01,-7.80e+00,-5.60e+00,
344,1.00e+01,-7.60e+00,-5.80e+00,
345,-4.00e-01,-7.40e+00,-5.60e+00,
346,-4.00e-01,-7.60e+00,-5.80e+00,
347,1.00e+01,-7.20e+00,-5.60e+00,
348,1.00e+01,-7.20e+00,-5.80e+00,
349,-4.00e-01,-7.60e+00,-5.60e+00,
350,-4.00e-01,-7.40e+00,-5.80e+00,
351,1.00e+01,-7.20e+00,-5.60e+00,
352,1.00e+01,-7.40e+00,-5.80e+00,
353,-4.00e-01,-7.20e+00,-5.60e+00,
354,-4.00e-01,-7.00e+00,-5.80e+00,
355,1.00e+01,-7.40e+00,-5.60e+00,
356,1.00e+01,-7.20e+00,-5.80e+00,
357,-4.00e-01,-6.80e+00,-5.60e+00,
358,-2.00e-01,-7.20e+00,-5.80e+00,
359,1.00e+01,-6.80e+00,-5.60e+00,
360,-4.00e-01,-7.00e+00,-5.80e+00,
361,1.00e+01,-6.80e+00,-5.60e+00,
362,1.00e+01,-7.00e+00,-5.80e+00,
363,-2.00e-01,-6.80e+00,-5.60e+00,
364,-4.00e-01,-7.00e+00,-5.80e+00,
365,1.00e+01,-6.60e+00,-5.60e+00,
366,1.00e+01,-7.00e+00,-5.80e+00,
367,-2.00e-01,-6.60e+00,-5.60e+00,
368,-4.00e-01,-6.80e+00,-5.60e+00,
369,1.00e+01,-6.60e+00,-5.80e+00,
370,1.00e+01,-6.80e+00,-5.80e+00,
371,-2.00e-01,-6.40e+00,-5.60e+00,
372,-4.00e-01,-6.40e+00,-5.80e+00,
373,1.00e+01,-6.80e+00,-5.60e+00,
374,1.00e+01,-6.60e+00,-5.80e+00,
375,-4.00e-01,-6.20e+00,-5.60e+00,
376,-4.00e-01,-6.60e+00,-5.80e+00,
377,1.00e+01,-6.20e+00,-5.60e+00,
378,1.00e+01,-6.40e+00,-5.80e+00,
379,-2.00e-01,-6.20e+00,-5.60e+00,
380,-4.00e-01,-6.40e+00,-5.80e+00,
381,1.00e+01,-6.20e+00,-5.60e+00,
382,1.00e+01,-6.40e+00,-5.80e+00,
383,-2.00e-01,-6.00e+00,-5.60e+00,
384,-4.00e-01,-6.40e+00,-5.80e+00,
385,1.00e+01,-6.00e+00,-5.60e+00,
386,1.00e+01,-6.20e+00,-5.60e+00,
387,-4.00e-01,-6.00e+00,-5.80e+00,
388,-4.00e-01,-6.20e+00,-5.80e+00,
389,1.00e+01,-6.00e+00,-5.60e+00,
390,1.00e+01,-6.20e+00,-5.80e+00,
391,-4.00e-01,-5.80e+00,-5.60e+00,
392,-4.00e-01,-6.20e+00,-5.80e+00,
393,1.00e+01,-5.80e+00,-5.60e+00,
394,1.00e+01,-6.00e+00,-5.80e+00,
395,-4.00e-01,-5.60e+00,-5.60e+00,
396,-4.00e-01,-6.00e+00,-5.80e+00,
397,1.00e+01,-5.60e+00,-5.60e+00,
398,1.00e+01,-5.80e+00,-5.80e+00,
399,-4.00e-01,-5.60e+00,-5.60e+00,
400,-4.00e-01,-5.60e+00,-5.80e+00,
401,1.00e+01,-5.80e+00,-5.60e+00,
402,1.00e+01,-5.80e+00,-5.80e+00,
403,-4.00e-01,-5.40e+00,-5.60e+00,
404,-2.00e-01,-5.60e+00,-5.60e+00,
405,1.00e+01,-5.40e+00,-5.80e+00,
406,1.00e+01,-5.60e+00,-5.80e+00,
407,-4.00e-01,-5.40e+00,-5.60e+00,
408,-2.00e-01,-5.40e+00,-5.80e+00,
409,1.00e+01,-5.60e+00,-5.60e+00,
410,-4.00e-01,-5.60e+00,-5.80e+00,
411,9.80e+00,-5.20e+00,-5.60e+00,
412,1.00e+01,-5.40e+00,-5.80e+00,
413,-2.00e-01,-5.20e+00,-5.60e+00,
414,-4.00e-01,-5.40e+00,-5.80e+00,
415,1.00e+01,-5.00e+00,-5.60e+00,
416,1.00e+01,-5.20e+00,-5.60e+00,
417,-2.00e-01,-5.00e+00,-5.80e+00,
418,-4.00e-01,-5.20e+00,-5.80e+00,
419,1.00e+01,-5.00e+00,-5.60e+00,
420,1.00e+01,-5.20e+00,-5.80e+00,
421,-2.00e-01,-5.00e+00,-5.60e+00,
422,-4.00e-01,-5.20e+00,-5.80e+00,
423,1.00e+01,-4.80e+00,-5.60e+00,
424,1.00e+01,-4.80e+00,-5.80e+00,
425,-4.00e-01,-5.20e+00,-5.60e+00,
426,-4.00e-01,-4.80e+00,-5.80e+00,
427,1.00e+01,-5.00e+00,-5.60e+00,
428,1.00e+01,-4.80e+00,-5.80e+00,
429,-4.00e-01,-5.00e+00,-5.60e+00,
430,-4.00e-01,-5.00e+00,-5.80e+00,
431,1.00e+01,-4.60e+00,-5.60e+00,
432,1.00e+01,-4.60e+00,-5.80e+00,
433,-4.00e-01,-5.00e+00,-5.60e+00,
434,-4.00e-01,-4.80e+00,-5.80e+00,
435,1.00e+01,-4.40e+00,-5.60e+00,
436,1.00e+01,-4.80e+00,-5.80e+00,
437,-4.00e-01,-4.40e+00,-5.60e+00,
438,-4.00e-01,-4.60e+00,-5.80e+00,
439,1.00e+01,-4.40e+00,-5.60e+00,
440,1.00e+01,-4.60e+00,-5.60e+00,
441,-4.00e-01,-4.40e+00,-5.80e+00,
442,-4.00e-01,-4.60e+00,-5.60e+00,
443,1.00e+01,-4.20e+00,-5.80e+00,
444,1.00e+01,-4.20e+00,-5.80e+00,
445,-4.00e-01,-4.60e+00,-5.60e+00,
446,-4.00e-01,-4.40e+00,-5.60e+00,
447,1.00e+01,-4.20e+00,-5.80e+00,
448,1.00e+01,-4.40e+00,-5.80e+00,
449,-4.00e-01,-4.20e+00,-5.60e+00,
450,-4.00e-01,-4.20e+00,-5.60e+00,
451,1.00e+01,-4.40e+00,-5.80e+00,
452,1.00e+01,-4.40e+00,-5.80e+00,
453,-4.00e-01,-4.00e+00,-5.60e+00,
454,-2.00e-01,-4.20e+00,-5.80e+00,
455,1.00e+01,-4.00e+00,-5.60e+00,
456,1.00e+01,-4.20e+00,-5.60e+00,
457,-4.00e-01,-3.80e+00,-5.80e+00,
458,-4.00e-01,-4.20e+00,-5.80e+00,
459,1.00e+01,-3.80e+00,-5.60e+00,
460,-4.00e-01,-3.80e+00,-5.80e+00,
461,1.00e+01,-4.00e+00,-5.60e+00,
462,1.00e+01,-4.00e+00,-5.80e+00,
463,0.00e+00,-3.80e+00,-5.60e+00,
464,-4.00e-01,-4.00e+00,-5.80e+00,
465,1.00e+01,-3.60e+00,-5.60e+00,
466,1.00e+01,-3.60e+00,-5.80e+00,
467,-2.00e-01,-4.00e+00,-5.60e+00,
468,-4.00e-01,-3.80e+00,-5.80e+00,
469,1.00e+01,-3.60e+00,-5.60e+00,
470,1.00e+01,-3.60e+00,-5.80e+00,
471,-2.00e-01,-3.80e+00,-5.60e+00,
472,-4.00e-01,-3.60e+00,-5.80e+00,
473,1.00e+01,-3.80e+00,-5.60e+00,
474,1.00e+01,-3.80e+00,-5.60e+00,
475,-2.00e-01,-3.40e+00,-5.80e+00,
476,-4.00e-01,-3.40e+00,-5.80e+00,
477,1.00e+01,-3.80e+00,-5.60e+00,
478,1.00e+01,-3.40e+00,-5.60e+00,
479,-4.00e-01,-3.60e+00,-5.80e+00,
480,-4.00e-01,-3.60e+00,-5.80e+00,
481,1.00e+01,-3.20e+00,-5.60e+00,
482,1.00e+01,-3.60e+00,-5.80e+00,
483,-4.00e-01,-3.20e+00,-5.60e+00,
484,-4.00e-01,-3.40e+00,-5.80e+00,
485,1.00e+01,-3.20e+00,-5.60e+00,
486,1.00e+01,-3.20e+00,-5.80e+00,
487,-4.00e-01,-3.40e+00,-5.60e+00,
488,-4.00e-01,-3.40e+00,-5.80e+00,
489,1.00e+01,-3.00e+00,-5.60e+00,
490,1.00e+01,-3.00e+00,-5.80e+00,
491,-4.00e-01,-3.40e+00,-5.60e+00,
492,-4.00e-01,-3.20e+00,-5.80e+00,
493,1.00e+01,-3.00e+00,-5.60e+00,
494,1.00e+01,-3.00e+00,-5.80e+00,
495,-4.00e-01,-3.20e+00,-5.60e+00,
496,-4.00e-01,-3.00e+00,-5.60e+00,
497,1.00e+01,-3.20e+00,-5.80e+00,
498,1.00e+01,-3.20e+00,-5.80e+00,
499,-4.00e-01,-2.80e+00,-5.60e+00,
500,-4.00e-01,-3.20e+00,-5.80e+00,
501,1.00e+01,-2.80e+00,-5.60e+00,
502,1.00e+01,-2.80e+00,-5.80e+00,
503,-4.00e-01,-3.00e+00,-5.60e+00,
504,-4.00e-01,-3.00e+00,-5.80e+00,
505,1.00e+01,-2.60e+00,-5.60e+00,
506,1.00e+01,-2.60e+00,-5.80e+00,
507,-4.00e-01,-3.00e+00,-5.60e+00,
508,-2.00e-01,-2.80e+00,-5.80e+00,
509,1.00e+01,-2.60e+00,-5.60e+00,
510,-4.00e-01,-2.80e+00,-5.80e+00,
511,1.00e+01,-2.60e+00,-5.60e+00,
512,1.00e+01,-2.80e+00,-5.80e+00,
513,-2.00e-01,-2.60e+00,-5.60e+00,
514,-4.00e-01,-2.80e+00,-5.60e+00,
515,1.00e+01,-2.40e+00,-5.80e+00,
516,1.00e+01,-2.60e+00,-5.80e+00,
517,-2.00e-01,-2.40e+00,-5.60e+00,
518,-4.00e-01,-2.60e+00,-5.80e+00,
519,1.00e+01,-2.40e+00,-5.60e+00,
520,1.00e+01,-2.40e+00,-5.60e+00,
521,-4.00e-01,-2.60e+00,-5.80e+00,
522,-4.00e-01,-2.60e+00,-5.80e+00,
523,1.00e+01,-2.20e+00,-5.60e+00,
524,1.00e+01,-2.60e+00,-5.80e+00,
525,-4.00e-01,-2.20e+00,-5.60e+00,
526,-4.00e-01,-2.40e+00,-5.80e+00,
527,1.00e+01,-2.20e+00,-5.60e+00,
528,1.00e+01,-2.20e+00,-5.80e+00,
529,-4.00e-01,-2.40e+00,-5.60e+00,
530,-4.00e-01,-2.40e+00,-5.80e+00,
531,1.00e+01,-2.00e+00,-5.40e+00,
532,1.00e+01,-2.20e+00,-5.60e+00,
533,-4.00e-01,-2.00e+00,-5.80e+00,
534,-4.00e-01,-2.20e+00,-5.60e+00,
535,1.00e+01,-2.00e+00,-5.80e+00,
536,1.00e+01,-2.20e+00,-5.80e+00,
537,-4.00e-01,-2.00e+00,-5.60e+00,
538,-4.00e-01,-2.20e+00,-5.80e+00,
539,1.00e+01,-1.80e+00,-5.60e+00,
540,1.00e+01,-2.20e+00,-5.80e+00,
541,-4.00e-01,-1.80e+00,-5.60e+00,
542,-4.00e-01,-2.00e+00,-5.80e+00,
543,1.00e+01,-1.80e+00,-5.60e+00,
544,1.00e+01,-2.00e+00,-5.80e+00,
545,-4.00e-01,-1.80e+00,-5.60e+00,
546,-4.00e-01,-2.00e+00,-5.80e+00,
547,1.00e+01,-1.80e+00,-5.60e+00,
548,1.00e+01,-2.00e+00,-5.80e+00,
549,-4.00e-01,-1.60e+00,-5.60e+00,
550,-4.00e-01,-1.60e+00,-5.80e+00,
551,1.00e+01,-2.00e+00,-5.60e+00,
552,1.00e+01,-1.60e+00,-5.80e+00,
553,-4.00e-01,-1.80e+00,-5.60e+00,
554,-4.00e-01,-1.80e+00,-5.80e+00,
555,1.00e+01,-1.60e+00,-5.60e+00,
556,1.00e+01,-1.80e+00,-5.80e+00,
557,-4.00e-01,-1.40e+00,-5.60e+00,
558,-2.00e-01,-1.60e+00,-5.80e+00,
559,1.00e+01,-1.40e+00,-5.60e+00,
560,-4.00e-01,-1.60e+00,-5.80e+00,
561,1.00e+01,-1.40e+00,-5.60e+00,
562,1.00e+01,-1.40e+00,-5.60e+00,
563,-2.00e-01,-1.60e+00,-5.80e+00,
564,-4.00e-01,-1.60e+00,-5.80e+00,
565,1.00e+01,-1.40e+00,-5.60e+00,
566,1.00e+01,-1.20e+00,-5.80e+00,
567,-2.00e-01,-1.60e+00,-5.40e+00,
568,-4.00e-01,-1.20e+00,-5.80e+00,
569,1.00e+01,-1.60e+00,-5.60e+00,
570,1.00e+01,-1.40e+00,-5.80e+00,
571,-2.00e-01,-1.20e+00,-5.60e+00,
572,-4.00e-01,-1.40e+00,-5.80e+00,
573,1.00e+01,-1.20e+00,-5.60e+00,
574,1.00e+01,-1.20e+00,-5.80e+00,
575,-4.00e-01,-1.40e+00,-5.60e+00,
576,-4.00e-01,-1.40e+00,-5.60e+00,
577,1.00e+01,-1.00e+00,-5.80e+00,
578,1.00e+01,-1.00e+00,-5.80e+00,
579,-4.00e-01,-1.40e+00,-5.60e+00,
580,-4.00e-01,-1.20e+00,-5.80e+00,
