3Te_Labor/3.2.1 integrator_invertiertes/messdaten/100Hz.csv

#Digilent WaveForms Oscilloscope Acquisition
#Device Name: Discovery2
#Serial Number: SN:210321AA2AFF
#Date Time: 2023-12-05 19:03:53.208
#Sample rate: 4116.92Hz
#Samples: 7508
#Trigger: Source: Channel 1 Type: Edge Condition: Rising Level: 0 V Hyst.: Auto HoldOff: 0 s
#Channel 1: Range: 200 mV/div Offset: 0 V Attenuation: 1 X Sample Mode: Average
#Channel 2: Range: 2 V/div Offset: 0 V Attenuation: 1 X Sample Mode: Average

Time (s),Channel 1 (V),Channel 2 (V)
-0.3500308962837018,-0.2038708829806656,-0.6836275644750603
-0.3497879962837017,-0.2704387728749458,-0.6315248368383036
-0.3495450962837018,-0.3312622255702272,-0.5608139921884194
-0.3493021962837017,-0.3843137926433339,-0.4714950305254079
-0.3490592962837017,-0.4285797498826776,-0.3784544454597708
-0.3488163962837018,-0.4630463730766704,-0.2742489901862574
-0.3485734962837017,-0.486362029943195,-0.1663219115101184
-0.3483305962837018,-0.498188812411722,-0.05467320943135391
-0.3480876962837017,-0.4988646285527806,0.06069711605003603
-0.3478447962837018,-0.4880515702958417,0.1723458181288005
-0.3476018962837018,-0.4657496376409052,0.2802728968049394
-0.3473589962837017,-0.4326346467290297,0.377035105273202
-0.3471160962837018,-0.389382413701274,0.470075690338839
-0.3468731962837017,-0.3376824789102847,0.5519514051965997
-0.3466302962837018,-0.277534842356062,0.6189406264438583
-0.3463873962837017,-0.211304860532311,0.6710433540806151
-0.3461444962837017,-0.1403441657211494,0.7082595881068698
-0.3459015962837018,-0.06634229827522359,0.7268677051199973
-0.3456586962837017,0.009349109523348893,0.7305893285226228
-0.3454157962837018,0.08504051732192137,0.7157028349121208
-0.3451728962837017,0.1583665686267885,0.685929847691117
-0.3449299962837017,0.2286514472968915,0.6375487434569858
-0.3446870962837018,0.2931918887679957,0.5742811456123526
-0.3444441962837017,0.3509741688285131,0.4961270541572174
-0.3442012962837018,0.4006466551963263,0.4068080924942059
-0.3439583962837017,0.4408577155893179,0.3100458840259433
-0.3437154962837018,0.4705936257958999,0.2058404287524298
-0.3434725962837017,0.4895164777455431,0.09419172667366536
-0.3432296962837017,0.4966125472266593,-0.02117859880772457
-0.3429867962837018,0.4925576503803071,-0.132827300886489
-0.3427438962837017,0.4770138791359574,-0.240754379562628
-0.3425009962837018,0.4506570496346688,-0.3449598348361415
-0.3422580962837017,0.4131492538059119,-0.4454436667070295
-0.3420151962837017,0.3661800320023334,-0.5347626283700411
-0.3417722962837018,0.3100872922944627,-0.6091950964225508
-0.3415293962837017,0.2475742992465346,-0.6687410708645585
-0.3412864962837018,0.1789789609290783,-0.7134005516960642
-0.3410435962837017,0.1059908176947405,-0.7431735389170681
-0.3408006962837018,0.0306373179666974,-0.7580600325275699
-0.3405577962837018,-0.04539199790240442,-0.7543384091249445
-0.3403148962837017,-0.1197317734188595,-0.7320086687091916
-0.3400719962837018,-0.1920441005121386,-0.6947924346829368
-0.3398290962837017,-0.2596257146180069,-0.64268970704618
-0.3395861962837018,-0.3214628915248764,-0.5719788623962959
-0.3393432962837017,-0.3758660908801004,-0.4901031475385353
-0.3391003962837017,-0.4214836804015614,-0.3933409390702728
-0.3388574962837018,-0.4576398439482009,-0.2928571071993847
-0.3386145962837017,-0.4829829492379015,-0.1849300285232458
-0.3383716962837018,-0.4968371801296045,-0.07328132644448132
-0.3381287962837017,-0.4995404446938393,0.04208899903690862
-0.3378858962837017,-0.4904169267895471,0.1537377011156731
-0.3376429962837018,-0.4701424425577866,0.261664779791812
-0.3374000962837017,-0.4393928081396166,0.3621486116627001
-0.3371571962837018,-0.3974922073939782,0.4551891967283371
-0.3369142962837017,-0.3468059968145769,0.5370649115860977
-0.3366713962837018,-0.2883479006130009,0.6077757562359819
-0.3364284962837018,-0.2227937349303087,0.6636001072753641
-0.3361855962837017,-0.1525088562602056,0.7045379647042443
-0.3359426962837018,-0.07884489688480921,0.7268677051199973
-0.3356997962837017,-0.00349139715676608,0.7343109519252482
-0.3354568962837018,0.07220001064180639,0.7194244583147463
-0.3352139962837017,0.1465397861582615,0.6896514710937425
-0.3349710962837017,0.2175004809694232,0.6449919902622366
-0.3347281962837018,0.2830546466521154,0.5854460158202289
-0.3344852962837017,0.3418506509242208,0.5110135477677193
-0.3342423962837018,0.3928747695741514,0.4216945861047078
-0.3339994962837017,0.4347753703197897,0.3249323776364452
-0.3337565962837017,0.4665387289495478,0.2244485457655572
-0.3335136962837018,0.4868132131813083,0.1127998436867928
-0.3332707962837017,0.4962746391561299,0.001151141608028317
-0.3330278962837018,0.4939092826624245,-0.1142191838733616
-0.3327849962837017,0.4803929598412509,-0.2258678859521261
-0.3325420962837018,0.4557256706926089,-0.3300733412256396
-0.3322991962837017,0.420245323287028,-0.4305571730965276
-0.3320562962837017,0.374627733765567,-0.5198761347595391
-0.3318133962837018,0.320224534410343,-0.5980302262146743
-0.3315704962837017,0.2583873575034735,-0.6612978240593075
-0.3313275962837018,0.1908057433976052,-0.7096789282934387
-0.3310846962837017,0.1188313243748555,-0.7394519155144426
-0.3308417962837017,0.04347782464681238,-0.7580600325275699
-0.3305988962837018,-0.03255149122228944,-0.7543384091249445
-0.3303559962837017,-0.1072291748092739,-0.7357302921118171
-0.3301130962837018,-0.1798794099730823,-0.7022356814881877
-0.3298701962837017,-0.2484747482905386,-0.650132953851431
-0.3296272962837018,-0.3113256494089961,-0.5868653560067978
-0.3293843962837018,-0.3670804810463374,-0.5049896411490372
-0.3291414962837017,-0.4143876109204453,-0.4119490560834002
-0.3288985962837018,-0.4522333148197315,-0.3114652242125122
-0.3286556962837017,-0.4796038685326082,-0.2035381455363732
-0.3284127962837018,-0.4954855478474872,-0.09188944345760873
-0.3281698962837017,-0.4995404446938393,0.02348088202378121
-0.3279269962837017,-0.4927822832832525,0.1351295841025457
-0.3276840962837018,-0.474535247474668,0.2430566627786847
-0.3274411962837017,-0.4451372453386153,0.3435404946495726
-0.3271982962837018,-0.4052640930161531,0.4403027031178351
-0.3269553962837017,-0.3559295147188691,0.5221784179755957
-0.3267124962837017,-0.2984851427288812,0.5966108860281054
-0.3264695962837018,-0.2339447012577769,0.6561568604701131
-0.3262266962837017,-0.1646735467992619,0.6970947178989935
-0.3259837962837018,-0.09134749549439485,0.7231460817173718
-0.3257408962837017,-0.01599399576635171,0.7343109519252482
-0.3254979962837018,0.05969741203222077,0.7231460817173718
-0.3252550962837018,0.1340371875486759,0.6970947178989935
-0.3250121962837017,0.2056736985008963,0.6561568604701131
-0.3247692962837018,0.2722415883951765,0.5966108860281054
-0.3245263962837017,0.3323892249493993,0.5259000413782212
-0.3242834962837018,0.3847649758814472,0.4403027031178351
-0.3240405962837017,0.4283551169797323,0.3435404946495726
-0.3237976962837017,0.4618080159621371,0.2393350393760592
-0.3235547962837018,0.4844478566876029,0.1314079606999202
-0.3233118962837017,0.4955988230150712,0.01975925862115573
-0.3230689962837018,0.4952609149445418,-0.09561106686023421
-0.3228260962837017,0.4834341324760149,-0.2072597689389987
-0.3225831962837017,0.460794291750549,-0.3114652242125122
-0.3223402962837018,0.4270034846976148,-0.4119490560834002
-0.3220973962837017,0.3830754355288005,-0.5049896411490372
-0.3218544962837018,0.3300238684556939,-0.5868653560067978
-0.3216115962837017,0.2695383238309418,-0.650132953851431
-0.3213686962837018,0.2026325258661322,-0.6985140580855622
-0.3211257962837017,0.1309960149139118,-0.7357302921118171
-0.3208828962837017,0.05631833132692735,-0.7580600325275699
-0.3206399962837018,-0.01971098454217447,-0.7580600325275699
-0.3203970962837017,-0.0950644842702176,-0.7394519155144426
-0.3201541962837018,-0.1680526275045554,-0.7059573048908132
-0.3199112962837017,-0.2373237819630703,-0.6612978240593075
-0.3196683962837017,-0.3011884072931159,-0.5980302262146743
-0.3194254962837018,-0.3582948712125745,-0.5198761347595391
-0.3191825962837017,-0.4072915414393291,-0.4305571730965276
-0.3189396962837018,-0.446826785691262,-0.3300733412256396
-0.3186967962837017,-0.4755489716862561,-0.2221462625495006
-0.3184538962837018,-0.4934580994243112,-0.1104975604707361
-0.3182109962837018,-0.4995404446938393,0.001151141608028317
-0.3179680962837017,-0.4948097317064285,0.1165214670894183
-0.3177251962837018,-0.4782522362504907,0.2244485457655572
-0.3174822962837017,-0.4508816825376141,0.3286540010390707
-0.3172393962837018,-0.4126980705677985,0.4254162095073333
-0.3169964962837017,-0.3650530326231614,0.5110135477677193
-0.3167535962837017,-0.3089602929152907,0.5854460158202289
-0.3165106962837018,-0.2454335756557745,0.6449919902622366
-0.3162677962837017,-0.1771761454088476,0.6896514710937425
-0.3160248962837018,-0.1038500941039805,0.7194244583147463
-0.3157819962837017,-0.02917241051699603,0.7305893285226228
-0.3155390962837017,0.04685690535210579,0.7268677051199973
-0.3152961962837018,0.1215345889390902,0.7045379647042443
-0.3150532962837017,0.1938469160323693,0.6636001072753641
-0.3148103962837018,0.2614285301382376,0.6077757562359819
-0.3145674962837017,0.3225898909040484,0.5370649115860977
-0.3143245962837018,0.3766551821887431,0.4514675733257116
-0.3140816962837018,0.4219348636396748,0.3584269882600746
-0.3138387962837017,0.4570773029747263,0.2579431563891866
-0.3135958962837018,0.4814066840528388,0.1500160777130476
-0.3133529962837017,0.4945850988034832,0.03836737563428314
-0.3131100962837018,0.4959367310856005,-0.0770029498471068
-0.3128671962837017,0.486475305110779,-0.1886516519258712
-0.3126242962837017,0.4651870966674305,-0.2965787306020102
-0.3123813962837018,0.4330858299671431,-0.3970625624728982
-0.3121384962837017,0.3908473211509753,-0.4901031475385353
-0.3118955962837018,0.3391473863599861,-0.5757004857989214
-0.3116526962837017,0.2796755659468221,-0.64268970704618
-0.3114097962837017,0.2141214002641298,-0.6947924346829368
-0.3111668962837018,0.1431607054529681,-0.7320086687091916
-0.3109239962837017,0.06882092993651298,-0.7543384091249445
-0.3106810962837018,-0.006870477862059495,-0.7617816559301954
-0.3104381962837017,-0.08256188566063197,-0.7468951623196936
-0.3101952962837018,-0.155887936965499,-0.7134005516960642
-0.3099523962837017,-0.2258349075650727,-0.6687410708645585
-0.3097094962837017,-0.2910511651772356,-0.6091950964225508
-0.3094665962837018,-0.3491713533082823,-0.5347626283700411
-0.3092236962837017,-0.3995196558171542,-0.4454436667070295
-0.3089807962837018,-0.4407444404217339,-0.3449598348361415
-0.3087378962837017,-0.4714940748399039,-0.240754379562628
-0.3084949962837017,-0.4914306510011351,-0.1291056774838635
-0.3082520962837018,-0.4998783527643686,-0.01745697540509909
-0.3080091962837017,-0.4964992720590752,0.09791335007629084
-0.3077662962837018,-0.4823071330968429,0.2058404287524298
-0.3075233962837017,-0.4566261197366129,0.3100458840259433
-0.3072804962837018,-0.420132048119444,0.4068080924942059
-0.3070375962837018,-0.3738386424569242,0.4961270541572174
-0.3067946962837017,-0.319097535031171,0.5742811456123526
-0.3065517962837018,-0.2565845419832428,0.6375487434569858
-0.3063088962837017,-0.1890029278773745,0.685929847691117
-0.3060659962837018,-0.1163526927135661,0.7157028349121208
-0.3058230962837017,-0.042012917197111,0.7305893285226228
-0.3055801962837017,0.03401639867199082,0.7305893285226228
-0.3053372962837018,0.109369898400034,0.7082595881068698
-0.3050943962837017,0.181682225493313,0.6710433540806151
-0.3048514962837018,0.2502775638107694,0.6189406264438583
-0.3046085962837017,0.3124526487881681,0.5519514051965997
-0.3043656962837017,0.3678695723549802,0.470075690338839
-0.3041227962837018,0.4148387941585586,0.377035105273202
-0.3038798962837017,0.4516707738462568,0.276551273402314
-0.3036369962837018,0.4776896952770161,0.168624194726175
-0.3033940962837017,0.4928955584508364,0.05697549264741054
-0.3031511962837018,0.4962746391561299,-0.05839483283397939
-0.3029082962837018,0.4888406616044844,-0.1700435349127438
-0.3026653962837017,0.469579901584312,-0.2779706135888828
-0.3024224962837018,0.4395060833072005,-0.3821760688623963
-0.3021795962837017,0.3989571148436796,-0.4752166539280334
-0.3019366962837018,0.348946720405337,-0.5608139921884194
-0.3016937962837017,0.290488624203761,-0.6315248368383036
-0.3014508962837017,0.2259481827326567,-0.6836275644750603
-0.3012079962837018,0.1556633040625537,-0.7245654219039407
-0.3009650962837017,0.08199934468715731,-0.750616785722319
-0.3007221962837018,0.00597002881805548,-0.7580600325275699
-0.3004792962837017,-0.069721378980517,-0.7468951623196936
-0.3002363962837017,-0.1433853383559134,-0.7208437985013152
-0.2999934962837018,-0.2143460331670751,-0.6799059410724348
-0.2997505962837017,-0.2802381069202967,-0.6203599666304271
-0.2995076962837018,-0.3400478354039901,-0.5496491219805431
-0.2992647962837017,-0.3917477701949794,-0.4603301603175314
-0.2990218962837018,-0.4346620951522058,-0.3635679518492689
-0.2987789962837017,-0.4671012699230225,-0.2556408731731299
-0.2985360962837017,-0.4887273864369004,-0.147713794496991
-0.2982931962837018,-0.4992025366233099,-0.0360650924182265
-0.2980502962837017,-0.4978509043411926,0.07930523306316344
-0.2978073962837018,-0.4853483057316069,0.1909539351419279
-0.2975644962837017,-0.4613568327240237,0.2951593904154414
-0.2973215962837017,-0.4265523014595015,0.3919215988837039
-0.2970786962837018,-0.3819484361496285,0.484962183949341
-0.2968357962837017,-0.3285589610059926,0.5631162754044761
-0.2965928962837018,-0.2673976002401818,0.6263838732491093
-0.2963499962837017,-0.2004918022753721,0.678486600885866
-0.2961070962837018,-0.1288552913231517,0.7119812115094953
-0.2958641962837018,-0.05485342387722598,0.7305893285226228
-0.2956212962837017,0.02117589199187584,0.7305893285226228
-0.2953783962837018,0.09686729979044832,0.7119812115094953
-0.2951354962837017,0.1698554430247861,0.678486600885866
-0.2948925962837018,0.2391265974833011,0.6263838732491093
-0.2946496962837017,0.3026533147428172,0.5631162754044761
-0.2944067962837017,0.3594218705917466,0.484962183949341
-0.2941638962837018,0.4077427246774424,0.3919215988837039
-0.2939209962837017,0.4462642447177874,0.2951593904154414
-0.2936780962837018,0.4743106145717226,0.1872323117393024
-0.2934351962837017,0.4915439261687191,0.07558360966053795
-0.2931922962837017,0.4969504552971885,-0.03978671582085198
-0.2929493962837018,0.4912060180981898,-0.1514354178996165
-0.2927064962837017,0.473634798430664,-0.2593624965757554
-0.2924635962837018,0.4452505205061993,-0.3635679518492689
-0.2922206962837017,0.4063910923953251,-0.4603301603175314
-0.2919777962837018,0.3577323302390999,-0.5459274985779176
-0.2917348962837018,0.3006258663196412,-0.6203599666304271
-0.2914919962837017,0.237099149060125,-0.6761843176698094
-0.2912490962837018,0.16782799460161,-0.7208437985013152
-0.2910061962837017,0.09450194329674293,-0.7468951623196936
-0.2907632962837018,0.01881053549817045,-0.7580600325275699
-0.2905203962837017,-0.05688087230040202,-0.750616785722319
-0.2902774962837017,-0.1312206478168571,-0.7245654219039407
-0.2900345962837018,-0.2028571587690775,-0.6873491878776858
-0.2897916962837017,-0.2694250486633578,-0.6315248368383036
-0.2895487962837018,-0.3305864094291686,-0.5608139921884194
-0.2893058962837017,-0.3836379765022752,-0.4752166539280334
-0.2890629962837017,-0.4279039337416189,-0.3784544454597708
-0.2888200962837018,-0.4623705569356117,-0.2742489901862574
-0.2885771962837017,-0.4860241218726656,-0.1663219115101184
-0.2883342962837018,-0.498188812411722,-0.05467320943135391
-0.2880913962837017,-0.4988646285527806,0.06069711605003603
-0.2878484962837018,-0.488389478366371,0.1723458181288005
-0.2876055962837017,-0.4664254537819639,0.276551273402314
-0.2873626962837017,-0.4336483709406177,0.377035105273202
-0.2871197962837018,-0.390396137912862,0.470075690338839
-0.2868768962837017,-0.3383582950513434,0.5519514051965997
-0.2866339962837018,-0.27854856656765,0.6152190030412328
-0.2863910962837017,-0.2123185847438991,0.6710433540806151
-0.2861481962837017,-0.1413578899327374,0.7082595881068698
-0.2859052962837018,-0.06735602248681161,0.7305893285226228
-0.2856623962837017,0.00833538531176087,0.7305893285226228
-0.2854194962837018,0.08436470118086269,0.7194244583147463
-0.2851765962837017,0.1576907524857298,0.685929847691117
-0.2849336962837018,0.2279756311558328,0.6375487434569858
-0.2846907962837018,0.292516072626937,0.5742811456123526
-0.2844478962837017,0.3502983526874544,0.4961270541572174
-0.2842049962837018,0.3999708390552675,0.4068080924942059
-0.2839620962837017,0.4405198075187885,0.3100458840259433
-0.2837191962837018,0.4702557177253706,0.2058404287524298
-0.2834762962837017,0.4891785696750137,0.09419172667366536
-0.2832333962837017,0.4966125472266593,-0.01745697540509909
-0.2829904962837018,0.4925576503803071,-0.132827300886489
-0.2827475962837017,0.4773517872064867,-0.240754379562628
-0.2825046962837018,0.4506570496346688,-0.3449598348361415
-0.2822617962837017,0.4134871618764412,-0.441722043304404
-0.2820188962837017,0.3665179400728628,-0.5310410049674156
-0.2817759962837018,0.3107631084355215,-0.6091950964225508
-0.2815330962837017,0.2482501153875933,-0.6687410708645585
-0.2812901962837018,0.179654777070137,-0.7134005516960642
-0.2810472962837017,0.1070045419063286,-0.7431735389170681
-0.2808043962837018,0.03165104217828543,-0.7580600325275699
-0.2805614962837018,-0.04437827369081639,-0.7543384091249445
-0.2803185962837017,-0.1187180492072715,-0.7320086687091916
-0.2800756962837018,-0.1913682843710799,-0.6947924346829368
-0.2798327962837017,-0.2586119904064188,-0.64268970704618
-0.2795898962837018,-0.3207870753838177,-0.5719788623962959
-0.2793469962837017,-0.3751902747390417,-0.4901031475385353
-0.2791040962837017,-0.4211457723310321,-0.3970625624728982
-0.2788611962837018,-0.4573019358776717,-0.2928571071993847
-0.2786182962837017,-0.4826450411673722,-0.1849300285232458
-0.2783753962837018,-0.4968371801296045,-0.07328132644448132
-0.2781324962837017,-0.4995404446938393,0.04208899903690862
-0.2778895962837017,-0.4907548348600764,0.1537377011156731
-0.2776466962837018,-0.4708182586988453,0.261664779791812
-0.2774037962837017,-0.4397307162101458,0.3621486116627001
-0.2771608962837018,-0.3981680235350369,0.4551891967283371
-0.2769179962837017,-0.347819721026165,0.5370649115860977
-0.2766750962837018,-0.2890237167540596,0.6040541328333564
-0.2764321962837017,-0.2234695510713673,0.6636001072753641
-0.2761892962837017,-0.1535225804717937,0.7008163413016189
-0.2759463962837018,-0.07985862109639724,0.7268677051199973
-0.2757034962837017,-0.004505121368354104,0.7305893285226228
-0.2754605962837018,0.07118628643021838,0.7194244583147463
-0.2752176962837017,0.1455260619466735,0.693373094496368
-0.2749747962837017,0.2161488486873059,0.6487136136648621
-0.2747318962837018,0.2817030143699981,0.5854460158202289
-0.2744889962837017,0.3408369267126328,0.5110135477677193
-0.2742460962837018,0.3921989534330927,0.4216945861047078
-0.2740031962837017,0.4344374622492604,0.3286540010390707
-0.2737602962837018,0.4662008208790185,0.2244485457655572
-0.2735173962837018,0.4868132131813083,0.1127998436867928
-0.2732744962837017,0.4959367310856005,0.001151141608028317
-0.2730315962837018,0.4942471907329539,-0.1142191838733616
-0.2727886962837017,0.4807308679117802,-0.2221462625495006
-0.2725457962837018,0.4560635787631383,-0.3300733412256396
-0.2723028962837017,0.4209211394280867,-0.4305571730965276
-0.2720599962837017,0.3753035499066256,-0.5198761347595391
-0.2718170962837018,0.3209003505514016,-0.5980302262146743
-0.2715741962837017,0.2594010817150615,-0.6612978240593075
-0.2713312962837018,0.1918194676091933,-0.7059573048908132
-0.2710883962837017,0.1195071405159142,-0.7394519155144426
-0.2708454962837017,0.0444915488584004,-0.7580600325275699
-0.2706025962837018,-0.03153776701070142,-0.7580600325275699
-0.2703596962837017,-0.1065533586682152,-0.7357302921118171
-0.2701167962837018,-0.1792035938320236,-0.7022356814881877
-0.2698738962837017,-0.2474610240789506,-0.6538545772540565
