4Te_Labor/4.3/DreieckRechteckoszillator/Dreieck_rechteck_4_2_3.csv

#Digilent WaveForms Oscilloscope Acquisition
#Device Name: Discovery2
#Serial Number: SN:210321AA2AFF
#Date Time: 2024-01-16 21:20:32.873
#Sample rate: 2.04082e+06Hz
#Samples: 8192
#Trigger: Source: Channel 2 Type: Edge Condition: Rising Level: 0 V Hyst.: 0 V HoldOff: 0 s
#Channel 1: Range: 5 V/div Offset: 0 V Attenuation: 1 X Sample Mode: Average
#Channel 2: Range: 500 mV/div Offset: 0 V Attenuation: 1 X Sample Mode: Average

Time (s),Channel 1 (V),Channel 2 (V)
-0.002929504467172954,10.10037096315999,-0.02682347181874902
-0.002929014467172954,10.10037096315999,-0.0288563523995941
-0.002928524467172954,10.10037096315999,-0.03088923298043734
-0.002928034467172954,10.10037096315999,-0.03190567327085942
-0.002927544467172954,10.09665674146976,-0.03359974042156381
-0.002927054467172955,10.10037096315999,-0.03563262100240612
-0.002926564467172954,10.10408518485023,-0.03631024786268843
-0.002926074467172954,10.10037096315999,-0.0376655015832512
-0.002925584467172954,10.09665674146976,-0.0393595687339556
-0.002925094467172954,10.09665674146976,-0.04139244931479883
-0.002924604467172954,10.10037096315999,-0.04240888960522091
-0.002924114467172954,10.10408518485022,-0.04376414332578461
-0.002923624467172955,10.10037096315999,-0.04579702390662692
-0.002923134467172954,10.09665674146976,-0.047829904487472
-0.002922644467172954,10.09665674146976,-0.04884634477789408
-0.002922154467172955,10.10037096315999,-0.05087922535873732
-0.002921664467172954,10.10037096315999,-0.05223447907930101
-0.002921174467172954,10.10037096315999,-0.05358973279986378
-0.002920684467172954,10.09665674146976,-0.05528379995056817
-0.002920194467172954,10.09665674146976,-0.05731668053141049
-0.002919704467172954,10.09665674146976,-0.05867193425197418
-0.002919214467172954,10.09294251977952,-0.06070481483281896
-0.002918724467172955,10.09294251977952,-0.0620600685533805
-0.002918234467172954,10.09665674146976,-0.0630765088438032
-0.002917744467172954,10.10037096315999,-0.06409294913422528
-0.002917254467172954,10.09665674146976,-0.06578701628492953
-0.002916764467172954,10.09665674146976,-0.06748108343563142
-0.002916274467172954,10.09665674146976,-0.06917515058633567
-0.002915784467172954,10.09665674146976,-0.07120803116718061
-0.002915294467172955,10.09665674146976,-0.07290209831788252
-0.002914804467172954,10.09665674146976,-0.07459616546858677
-0.002914314467172954,10.09294251977952,-0.07595141918914952
-0.002913824467172954,10.09294251977952,-0.0776454863398536
-0.002913334467172954,10.09294251977952,-0.07900074006041516
-0.002912844467172954,10.09294251977952,-0.08069480721111924
-0.002912354467172954,10.09294251977953,-0.08272768779196418
-0.002911864467172955,10.09665674146976,-0.08442175494266607
-0.002911374467172954,10.09665674146976,-0.08577700866322963
-0.002910884467172954,10.09294251977952,-0.0871322623837924
-0.002910394467172954,10.09294251977952,-0.0888263295344968
-0.002909904467172954,10.08922829808929,-0.09085921011534004
-0.002909414467172954,10.08922829808929,-0.09255327726604351
-0.002908924467172954,10.08922829808929,-0.09323090412632551
-0.002908434467172955,10.08922829808929,-0.09458615784688704
-0.002907944467172954,10.08922829808929,-0.09594141156745042
-0.002907454467172954,10.08551407639906,-0.0972966652880132
-0.002906964467172955,10.08922829808929,-0.09932954586885644
-0.002906474467172954,10.08922829808929,-0.1006847995894201
-0.002905984467172954,10.09294251977952,-0.103056493600405
-0.002905494467172954,10.09294251977953,-0.1044117473209682
-0.002905004467172954,10.09665674146976,-0.1054281876113894
-0.002904514467172954,10.09294251977952,-0.1071222547620933
-0.002904024467172954,10.08922829808929,-0.1088163219127968
-0.002903534467172955,10.08551407639906,-0.1101715756333589
-0.002903044467172954,10.08551407639906,-0.111865642784063
-0.002902554467172954,10.08179985470882,-0.1138985233649072
-0.002902064467172954,10.07808563301859,-0.1152537770854709
-0.002901574467172954,10.08179985470882,-0.1172866576663132
-0.002901084467172954,10.08551407639906,-0.1183030979567362
-0.002900594467172954,10.09294251977952,-0.1203359785375807
-0.002900104467172955,10.09294251977952,-0.1210136053978614
-0.002899614467172954,10.09294251977952,-0.1230464859787059
-0.002899124467172954,10.08922829808929,-0.1247405531294093
-0.002898634467172954,10.08922829808929,-0.1264346202801137
-0.002898144467172954,10.08922829808929,-0.1284675008609561
-0.002897654467172954,10.08179985470882,-0.1301615680116605
-0.002897164467172954,10.07808563301859,-0.1318556351623644
-0.002896674467172955,10.08551407639905,-0.1328720754527855
-0.002896184467172954,10.08551407639906,-0.1345661426034895
-0.002895694467172954,10.08551407639906,-0.1359213963240522
-0.002895204467172954,10.08179985470883,-0.1376154634747565
-0.002894714467172954,10.08922829808929,-0.1393095306254592
-0.002894224467172954,10.08551407639906,-0.1410035977761626
-0.002893734467172954,10.08551407639906,-0.1416812246364448
-0.002893244467172955,10.08551407639906,-0.1433752917871467
-0.002892754467172954,10.08551407639906,-0.1450693589378509
-0.002892264467172954,10.08551407639906,-0.1467634260885544
-0.002891774467172954,10.08551407639906,-0.1487963066693995
-0.002891284467172954,10.08551407639906,-0.1508291872502427
-0.002890794467172954,10.08922829808929,-0.1521844409708055
-0.002890304467172954,10.08551407639905,-0.1532008812612284
-0.002889814467172954,10.08179985470882,-0.1548949484119303
-0.002889324467172954,10.08179985470882,-0.1562502021324938
-0.002888834467172954,10.08922829808929,-0.1576054558530566
-0.002888344467172955,10.09294251977952,-0.1596383364338998
-0.002887854467172954,10.08922829808929,-0.1616712170147449
-0.002887364467172954,10.08922829808929,-0.1630264707353077
-0.002886874467172954,10.08551407639906,-0.1640429110257305
-0.002886384467172954,10.08551407639906,-0.1657369781764325
-0.002885894467172954,10.08551407639906,-0.1674310453271367
-0.002885404467172954,10.08551407639905,-0.1687862990477002
-0.002884914467172955,10.08179985470882,-0.1704803661984022
-0.002884424467172954,10.09294251977952,-0.1718356199189657
-0.002883934467172954,10.09665674146976,-0.1738685004998099
-0.002883444467172954,10.08922829808929,-0.1752237542203734
-0.002882954467172954,10.08179985470883,-0.1769178213710753
-0.002882464467172954,10.08551407639906,-0.1789507019519203
-0.002881974467172954,10.07808563301859,-0.1803059556724838
-0.002881484467172955,10.07808563301859,-0.1820000228231857
-0.002880994467172954,10.07808563301859,-0.1833552765437493
-0.002880504467172954,10.08551407639906,-0.1850493436944528
-0.002880014467172954,10.08551407639905,-0.186743410845157
-0.002879524467172954,10.07808563301859,-0.1884374779958597
-0.002879034467172954,10.08179985470882,-0.1897927317164224
-0.002878544467172954,10.08179985470882,-0.1918256122972674
-0.002878054467172955,10.07808563301859,-0.1935196794479693
-0.002877564467172954,10.08179985470882,-0.1952137465986735
-0.002877074467172954,10.08551407639906,-0.1962301868890956
-0.002876584467172954,10.07808563301859,-0.1979242540397997
-0.002876094467172954,10.08179985470882,-0.1992795077603619
-0.002875604467172954,10.08179985470882,-0.201312388341206
-0.002875114467172955,10.08179985470882,-0.2023288286316276
-0.002874624467172954,10.07808563301859,-0.2040228957823322
-0.002874134467172954,10.07808563301859,-0.2053781495028943
-0.002873644467172954,10.07808563301859,-0.2063945897933164
-0.002873154467172954,10.07808563301859,-0.2087662838043019
-0.002872664467172954,10.07808563301859,-0.210121537524864
-0.002872174467172954,10.07437141132835,-0.2114767912454268
-0.002871684467172954,10.07437141132836,-0.2128320449659907
-0.002871194467172954,10.08179985470882,-0.2152037389769733
-0.002870704467172954,10.08179985470882,-0.2165589926975372
-0.002870214467172954,10.08179985470882,-0.2182530598482414
-0.002869724467172955,10.07808563301859,-0.2199471269989434
-0.002869234467172954,10.07808563301859,-0.2213023807195069
-0.002868744467172954,10.07437141132835,-0.2226576344400697
-0.002868254467172955,10.07437141132835,-0.2250293284510534
-0.002867764467172954,10.07808563301859,-0.2267233956017588
-0.002867274467172954,10.07437141132835,-0.2284174627524615
-0.002866784467172955,10.07437141132835,-0.2294339030428831
-0.002866294467172954,10.07437141132836,-0.2311279701935875
-0.002865804467172954,10.08179985470882,-0.2321444104840091
-0.002865314467172954,10.07808563301859,-0.2334996642045719
-0.002864824467172954,10.08179985470882,-0.2351937313552761
-0.002864334467172954,10.07437141132836,-0.236887798505978
-0.002863844467172954,10.07437141132835,-0.2382430522265416
-0.002863354467172954,10.07808563301859,-0.2402759328073863
-0.002862864467172955,10.08179985470882,-0.2416311865279479
-0.002862374467172954,10.07808563301859,-0.2436640671087927
-0.002861884467172954,10.08179985470882,-0.2453581342594961
-0.002861394467172955,10.07808563301859,-0.2467133879800583
-0.002860904467172954,10.07437141132835,-0.2487462685609031
-0.002860414467172954,10.07437141132835,-0.2497627088513251
-0.002859924467172955,10.07437141132835,-0.2514567760020278
-0.002859434467172954,10.07808563301859,-0.2531508431527328
-0.002858944467172954,10.08179985470882,-0.2548449103034355
-0.002858454467172954,10.07808563301859,-0.2562001640239983
-0.002857964467172954,10.07808563301859,-0.2578942311747024
-0.002857474467172954,10.08179985470882,-0.2592494848952646
-0.002856984467172954,10.08179985470882,-0.2612823654761087
-0.002856494467172954,10.07808563301859,-0.2629764326268128
-0.002856004467172954,10.07808563301859,-0.2643316863473744
-0.002855514467172954,10.07808563301859,-0.2656869400679377
-0.002855024467172954,10.07808563301859,-0.2677198206487819
-0.002854534467172955,10.07437141132836,-0.269075074369344
-0.002854044467172954,10.07065718963812,-0.2711079549501888
-0.002853554467172954,10.07437141132835,-0.2728020221008923
-0.002853064467172955,10.07437141132835,-0.2741572758214544
-0.002852574467172954,10.07437141132835,-0.2755125295420184
-0.002852084467172954,10.07437141132835,-0.2768677832625806
-0.002851594467172955,10.07437141132835,-0.2782230369831428
-0.002851104467172954,10.07065718963812,-0.2795782907037068
-0.002850614467172954,10.06694296794789,-0.2809335444242689
-0.002850124467172954,10.06322874625765,-0.2833052384352537
-0.002849634467172954,10.06694296794789,-0.2846604921558175
-0.002849144467172954,10.07437141132835,-0.2866933727366597
-0.002848654467172954,10.07437141132835,-0.2883874398873641
-0.002848164467172954,10.07437141132835,-0.2904203204682089
-0.002847674467172955,10.07437141132835,-0.2917755741887705
-0.002847184467172954,10.07065718963812,-0.2934696413394746
-0.002846694467172954,10.07437141132835,-0.295163708490178
-0.002846204467172955,10.07065718963812,-0.2965189622107402
-0.002845714467172954,10.07437141132835,-0.2978742159313036
-0.002845224467172954,10.07437141132835,-0.2992294696518664
-0.002844734467172955,10.07437141132835,-0.3009235368025691
-0.002844244467172954,10.07065718963812,-0.3019399770929928
-0.002843754467172954,10.07437141132835,-0.303972857673836
-0.002843264467172954,10.07808563301859,-0.3060057382546802
-0.002842774467172954,10.07437141132835,-0.3073609919752439
-0.002842284467172954,10.07437141132835,-0.3093938725560871
-0.002841794467172954,10.07437141132835,-0.3110879397067906
-0.002841304467172954,10.07808563301859,-0.312443193427354
-0.002840814467172955,10.07808563301859,-0.3137984471479155
-0.002840324467172954,10.07437141132835,-0.3148148874383382
-0.002839834467172954,10.07065718963812,-0.3168477680191824
-0.002839344467172955,10.07065718963812,-0.3185418351698851
-0.002838854467172954,10.07437141132835,-0.3202359023205893
-0.002838364467172954,10.07437141132835,-0.3215911560411521
-0.002837874467172955,10.07437141132835,-0.3232852231918548
-0.002837384467172954,10.07437141132835,-0.3249792903425596
-0.002836894467172954,10.07437141132835,-0.3263345440631218
-0.002836404467172955,10.07437141132835,-0.327689797783684
-0.002835914467172954,10.07437141132835,-0.329383864934389
-0.002835424467172954,10.07437141132835,-0.3314167455152322
-0.002834934467172954,10.07437141132835,-0.3331108126659357
-0.002834444467172954,10.07437141132835,-0.3348048798166398
-0.002833954467172954,10.07437141132835,-0.3361601335372013
-0.002833464467172954,10.07065718963812,-0.338193014118046
-0.002832974467172954,10.07065718963812,-0.3395482678386094
-0.002832484467172955,10.07437141132835,-0.340903521559171
-0.002831994467172954,10.07808563301859,-0.3425975887098751
-0.002831504467172954,10.07437141132835,-0.3439528424304378
-0.002831014467172955,10.07437141132835,-0.3456469095811405
-0.002830524467172954,10.07437141132835,-0.3480186035921269
-0.002830034467172954,10.07065718963812,-0.3497126707428296
-0.002829544467172955,10.06694296794789,-0.3510679244633918
-0.002829054467172954,10.06694296794789,-0.352423178183956
-0.002828564467172954,10.06694296794789,-0.3541172453346587
-0.002828074467172954,10.06322874625765,-0.3554724990552214
-0.002827584467172954,10.06322874625765,-0.3571665662059256
-0.002827094467172954,10.06322874625765,-0.3588606333566283
-0.002826604467172954,10.06694296794789,-0.3602158870771911
-0.002826114467172954,10.06322874625766,-0.3619099542278952
-0.002825624467172955,10.06694296794788,-0.3632652079484567
-0.002825134467172954,10.07437141132835,-0.3649592750991608
-0.002824644467172954,10.07437141132835,-0.3663145288197236
-0.002824154467172955,10.07065718963812,-0.3680085959704263
-0.002823664467172954,10.07065718963812,-0.3697026631211305
-0.002823174467172954,10.06694296794789,-0.3710579168416933
-0.002822684467172955,10.06322874625766,-0.3724131705622555
-0.002822194467172954,10.06694296794789,-0.3747848645732417
-0.002821704467172954,10.06694296794789,-0.3764789317239444
-0.002821214467172955,10.07065718963812,-0.3778341854445065
-0.002820724467172954,10.06694296794789,-0.3795282525952114
-0.002820234467172954,10.06694296794789,-0.3812223197459141
-0.002819744467172954,10.06322874625765,-0.3829163868966176
-0.002819254467172954,10.0446576378061,-0.3849492674774648
-0.002818764467172954,9.208957757504237,-0.3917255360802725
-0.002818274467172954,5.257025879094988,-0.4110379015982951
-0.002817784467172954,-0.3291635430193288,-0.4317055208368863
-0.002817294467172955,-5.900496078365109,-0.4513566997850286
-0.002816804467172954,-9.715001754237857,-0.4591494086782735
-0.002816314467172954,-9.874713286917913,-0.4571165280974294
-0.002815824467172955,-9.870999065227682,-0.4554224609467267
-0.002815334467172954,-9.85614217846674,-0.4544060206563032
-0.002814844467172954,-9.848713735086276,-0.453050766935741
-0.002814354467172955,-9.844999513396045,-0.4513566997850383
-0.002813864467172954,-9.841285291705807,-0.4503402594946149
-0.002813374467172954,-9.837571070015574,-0.4489850057740527
-0.002812884467172954,-9.837571070015574,-0.4469521251932086
-0.002812394467172954,-9.830142626635109,-0.4462744983329263
-0.002811904467172954,-9.833856848325341,-0.444241617752083
-0.002811414467172954,-9.833856848325341,-0.4428863640315203
-0.002810924467172954,-9.841285291705809,-0.4422087371712383
-0.002810434467172955,-9.841285291705809,-0.4408534834506767
-0.002809944467172954,-9.841285291705809,-0.4394982297301133
-0.002809454467172954,-9.848713735086276,-0.4381429760095505
-0.002808964467172955,-9.848713735086276,-0.4357712819985667
-0.002808474467172954,-9.848713735086276,-0.4347548417081436
-0.002807984467172954,-9.848713735086276,-0.4333995879875808
-0.002807494467172955,-9.852427956776509,-0.4320443342670187
-0.002807004467172954,-9.856142178466746,-0.4306890805464548
-0.002806514467172954,-9.859856400156978,-0.4296726402560332
-0.002806024467172954,-9.859856400156978,-0.4289950133957518
-0.002805534467172954,-9.863570621847217,-0.4273009462450478
-0.002805044467172954,-9.87099906522768,-0.4259456925244856
-0.002804554467172954,-9.867284843537446,-0.4242516253737821
-0.002804064467172954,-9.863570621847211,-0.4228963716532186
-0.002803574467172954,-9.85985640015698,-0.4212023045025167
-0.002803084467172954,-9.859856400156978,-0.4198470507819531
-0.002802594467172954,-9.85985640015698,-0.4188306104915303
-0.002802104467172955,-9.863570621847211,-0.4171365433408283
-0.002801614467172954,-9.859856400156978,-0.4161201030504055
-0.002801124467172954,-9.859856400156978,-0.4147648493298427
-0.002800634467172955,-9.863570621847211,-0.4137484090394211
-0.002800144467172954,-9.85985640015698,-0.4123931553188574
-0.002799654467172954,-9.863570621847213,-0.4113767150284358
-0.002799164467172955,-9.863570621847213,-0.4093438344475926
-0.002798674467172954,-9.859856400156978,-0.4079885807270285
-0.002798184467172954,-9.859856400156978,-0.4073109538667475
-0.002797694467172954,-9.856142178466744,-0.405616886716044
-0.002797204467172954,-9.852427956776509,-0.4042616329954806
-0.002796714467172954,-9.848713735086276,-0.4029063792749185
-0.002796224467172954,-9.848713735086276,-0.4015511255543557
-0.002795734467172954,-9.852427956776507,-0.3995182449735109
-0.002795244467172955,-9.844999513396047,-0.3981629912529493
-0.002794754467172954,-9.844999513396044,-0.3964689241022453
-0.002794264467172954,-9.848713735086276,-0.3954524838118232
-0.002793774467172955,-9.844999513396045,-0.3944360435214015
-0.002793284467172954,-9.837571070015574,-0.3927419763706976
-0.002792794467172954,-9.833856848325341,-0.3913867226501349
-0.002792304467172955,-9.841285291705805,-0.3900314689295727
-0.002791814467172954,-9.837571070015574,-0.3883374017788681
-0.002791324467172954,-9.837571070015574,-0.3869821480583059
-0.002790834467172954,-9.833856848325341,-0.3859657077678838
-0.002790344467172954,-9.830142626635105,-0.3846104540473204
-0.002789854467172954,-9.826428404944874,-0.3832552003267582
-0.002789364467172954,-9.826428404944874,-0.3822387600363362
-0.002788874467172954,-9.826428404944874,-0.3805446928856323
-0.002788384467172954,-9.826428404944874,-0.3795282525952111
-0.002787894467172954,-9.822714183254639,-0.3781729988746478
-0.002787404467172954,-9.822714183254636,-0.3764789317239438
-0.002786914467172955,-9.815285739874176,-0.3751236780033822
-0.002786424467172954,-9.811571518183937,-0.3737684242828189
-0.002785934467172954,-9.807857296493705,-0.3724131705622561
-0.002785444467172955,-9.804143074803472,-0.3707191034115534
-0.002784954467172954,-9.800428853113237,-0.3693638496909892
-0.002784464467172954,-9.80414307480347,-0.3680085959704271
-0.002783974467172955,-9.80414307480347,-0.367330969110146
-0.002783484467172954,-9.800428853113235,-0.3656369019594414
-0.002782994467172954,-9.800428853113235,-0.3639428348087387
-0.002782504467172954,-9.796714631423002,-0.3632652079484573
-0.002782014467172954,-9.793000409732768,-0.3615711407977534
-0.002781524467172954,-9.793000409732768,-0.3605547005073318
-0.002781034467172954,-9.7855719663523,-0.3595382602169097
-0.002780544467172954,-9.789286188042533,-0.3581830064963462
-0.002780054467172955,-9.785571966352302,-0.3564889393456442
-0.002779564467172954,-9.781857744662066,-0.3554724990552214
-0.002779074467172954,-9.778143522971833,-0.3544560587647994
-0.002778584467172955,-9.778143522971833,-0.3527619916140967
-0.002778094467172954,-9.778143522971833,-0.3510679244633924
-0.002777604467172954,-9.778143522971833,-0.3497126707428296
-0.002777114467172955,-9.770715079591369,-0.348696230452408
-0.002776624467172954,-9.767000857901127,-0.3473409767318442
-0.002776134467172954,-9.759572414520663,-0.345985723011282
-0.002775644467172954,-9.755858192830429,-0.3442916558605785
-0.002775154467172954,-9.752143971140194,-0.3429364021400151
-0.002774664467172954,-9.748429749449961,-0.341581148419453
-0.002774174467172954,-9.748429749449961,-0.3402258946988902
-0.002773684467172954,-9.744715527759727,-0.3385318275481861
-0.002773194467172954,-9.744715527759727,-0.3371765738276246
-0.002772704467172954,-9.744715527759727,-0.3364989469673426
-0.002772214467172954,-9.744715527759727,-0.3351436932467792
-0.002771724467172955,-9.744715527759727,-0.3337884395262177
