3.2.2 TiefpassAktiv/messwerte/100Hz.csv

#Digilent WaveForms Oscilloscope Acquisition
#Device Name: Discovery2
#Serial Number: SN:210321AA2AFF
#Date Time: 2023-12-05 19:38:12.193
#Sample rate: 13428.2Hz
#Samples: 8192
#Trigger: Source: Channel 1 Type: Edge Condition: Rising Level: 0 V Hyst.: Auto HoldOff: 0 s
#Channel 1: Range: 200 mV/div Offset: 0 V Attenuation: 1 X Sample Mode: Average
#Channel 2: Range: 2 V/div Offset: 0 V Attenuation: 1 X Sample Mode: Average

Time (s),Channel 1 (V),Channel 2 (V)
-0.2253470696655803,0.1053150015536819,-0.3077436008098867
-0.2252725996655803,0.08199934468715731,-0.2928571071993847
-0.2251981296655803,0.05902159589117253,-0.2816922369915134
-0.2251236596655803,0.03570593902464813,-0.2668057433810131
-0.2250491896655802,0.01205237408757302,-0.2481976263678722
-0.2249747196655802,-0.01126328277894093,-0.233311132757377
-0.2249002496655803,-0.03424103157493615,-0.2147030157442496
-0.2248257796655803,-0.05755668844146071,-0.1998165221337477
-0.2247513096655803,-0.08087234530798526,-0.1812084051206203
-0.2246768396655803,-0.1031742779629218,-0.1663219115101184
-0.2246023696655803,-0.1258141186883774,-0.1477137944969994
-0.2245278996655803,-0.1481160513433141,-0.129105677483872
-0.2244534296655802,-0.1707558920687999,-0.1104975604707277
-0.2243789596655802,-0.1923820085826775,-0.09188944345760026
-0.2243044896655803,-0.2133323089554871,-0.07328132644448132
-0.2242300196655803,-0.2339447012577769,-0.05095158602872843
-0.2241555496655803,-0.2545570935600667,-0.03234346901560102
-0.2240810796655803,-0.2741557616507686,-0.01001372859984813
-0.2240066096655803,-0.2937544297414614,0.008594388413270818
-0.2239321396655803,-0.3126772816911049,0.02720250542639823
-0.2238576696655802,-0.3302485013586471,0.04581062243954256
-0.2237831996655802,-0.347481812955643,0.06441873945267167
-0.2237087296655803,-0.363701400341044,0.0867484798684144
-0.2236342596655803,-0.3795830796559231,0.1016349734789163
-0.2235597896655803,-0.3944510347592141,0.1202430904920437
-0.2234853196655803,-0.4083052656509171,0.1388512075051712
-0.2234108496655803,-0.4214836804015614,0.1574593245182986
-0.2233363796655803,-0.4339862790111414,0.1760674415314175
-0.2232619096655802,-0.4451372453386199,0.1909539351419363
-0.2231874396655802,-0.4552744874544997,0.2095620521550621
-0.2231129696655803,-0.4643980053587877,0.2244485457655572
-0.2230384996655803,-0.4728457071220213,0.2430566627786847
-0.2229640296655803,-0.4799417766031375,0.2542215329865611
-0.2228895596655803,-0.4856862138021363,0.269108026597063
-0.2228150896655803,-0.4910927429306058,0.2839945202075649
-0.2227406196655803,-0.495147639776956,0.2951593904154363
-0.2226661496655802,-0.4978509043411934,0.3063242606233246
-0.2225916796655802,-0.4995404446938396,0.3212107542338248
-0.2225172096655803,-0.500216260834898,0.3323756244416962
-0.2224427396655803,-0.4998783527643686,0.3398188712469472
-0.2223682696655803,-0.4985267204822512,0.3509837414548236
-0.2222937996655803,-0.4958234559180166,0.3584269882600746
-0.2222193296655803,-0.4924443752127231,0.3658702350653256
-0.2221448596655803,-0.4880515702958437,0.3733134818705731
-0.2220703896655802,-0.4823071330968399,0.3807567286758291
-0.2219959196655802,-0.4755489716862524,0.3844783520784563
-0.2219214496655803,-0.4674391779935518,0.3919215988837039
-0.2218469796655803,-0.458653568159789,0.3956432222863294
-0.2217725096655803,-0.448854234114438,0.3956432222863294
-0.2216980396655803,-0.4383790839280285,0.3993648456889549
-0.2216235696655803,-0.4262143933889722,0.3993648456889549
-0.2215490996655803,-0.413373886708863,0.3993648456889549
-0.2214746296655802,-0.3998575638876771,0.3993648456889532
-0.2214001596655802,-0.3856654249254441,0.3956432222863294
-0.2213256896655802,-0.3701216536811015,0.3956432222863294
-0.2212512196655803,-0.3539020662956931,0.3919215988837039
-0.2211767496655803,-0.3373445708397554,0.3844783520784529
-0.2211022796655803,-0.3194354431017004,0.3807567286758274
-0.2210278096655803,-0.3011884072931159,0.3733134818705765
-0.2209533396655803,-0.2819276472729522,0.365870235065329
-0.2208788696655803,-0.2619910711117213,0.3621486116627017
-0.2208043996655802,-0.2420544949504717,0.3509837414548202
-0.2207299296655802,-0.2214421026481913,0.3435404946495726
-0.2206554596655803,-0.2001538942048428,0.3323756244416962
-0.2205809896655803,-0.1792035938320236,0.3212107542338197
-0.2205065196655803,-0.1572395692476164,0.3063242606233179
-0.2204320496655803,-0.1345997285221505,0.2951593904154414
-0.2203575796655803,-0.1116219797261658,0.2802728968049462
-0.2202831096655803,-0.08932004707122894,0.2691080265970681
-0.2202086396655802,-0.06668020634574233,0.254221532986556
-0.2201341696655802,-0.04336454947922837,0.2430566627786847
-0.2200596996655803,-0.02004889261270381,0.2244485457655572
-0.2199852296655803,0.003266764253820748,0.2095620521550553
-0.2199107596655803,0.02624451304981596,0.1909539351419279
-0.2198362896655803,0.04956016991634053,0.1760674415314259
-0.2197618196655803,0.07287582678285448,0.157459324518307
-0.2196873496655803,0.09585357557884985,0.1388512075051796
-0.2196128796655802,0.1188313243748657,0.1239647138946608
-0.2195384096655802,0.141133257029792,0.1053565968815418
-0.2194639396655803,0.1634351896847286,0.0867484798684144
-0.2193894696655803,0.1853992142691358,0.06814036285528699
-0.2193149996655803,0.2070253307830136,0.04953224584215958
-0.2192405296655803,0.2279756311558328,0.03092412882903217
-0.2191660596655803,0.2485880234581132,0.008594388413289435
-0.2190915896655803,0.2685245996193447,-0.01001372859983967
-0.2190171196655802,0.2877853596395345,-0.02862184561298569
-0.2189426496655802,0.3060323954481188,-0.05095158602873689
-0.2188681796655803,0.3239415231861658,-0.06955970304185584
-0.2187937096655803,0.3418506509242208,-0.09188944345760873
-0.2187192396655803,0.358746054450688,-0.1067759370681107
-0.2186447696655803,0.3742898256950377,-0.1253840540812381
-0.2185702996655803,0.3894956888688511,-0.143992171094357
-0.2184958296655803,0.4036878278310839,-0.1626002881074844
-0.2184213596655802,0.416528334511211,-0.1812084051206271
-0.2183468896655802,0.4290309331207959,-0.196094898731129
-0.2182724196655803,0.4401818994482593,-0.2109813923416242
-0.2181979496655803,0.4509949577051982,-0.2295895093547516
-0.2181234796655803,0.459780567538961,-0.2444760029652535
-0.2180490096655803,0.4682282693021945,-0.2630841199783809
-0.2179745396655803,0.4756622468538401,-0.2779706135888828
-0.2179000696655803,0.4817445921233654,-0.292857107199378
-0.2178255996655802,0.4871511212518395,-0.304021977407268
-0.2177511296655802,0.4912060180981911,-0.3189084710177699
-0.2176766596655803,0.4942471907329539,-0.3337949646282651
-0.2176021896655803,0.4962746391561299,-0.3449598348361415
-0.2175277196655803,0.4969504552971885,-0.3561247050440179
-0.2174532496655803,0.4966125472266593,-0.3672895752518944
-0.2173787796655803,0.4955988230150712,-0.3747328220571454
-0.2173043096655803,0.4932334665213668,-0.3858976922650167
-0.2172298396655802,0.4898543858160704,-0.3933409390702762
-0.2171553696655802,0.4854615808991884,-0.4007841858755271
-0.2170808996655803,0.4797171437001921,-0.4082274326807747
-0.2170064296655803,0.4732968903601347,-0.4119490560834002
-0.2169319596655803,0.4658629128084891,-0.4156706794860257
-0.2168574896655803,0.4570773029747263,-0.4193923028886511
-0.2167830196655803,0.4472779689293753,-0.4193923028886511
-0.2167085496655803,0.4368028187429706,-0.423113926291275
-0.2166340796655802,0.4249760362744331,-0.4268355496939021
-0.2165596096655802,0.4124734376648471,-0.4268355496939021
-0.2164851396655803,0.3989571148436796,-0.4268355496939021
-0.2164106696655803,0.3844270678109178,-0.4268355496939021
-0.2163361996655803,0.3692212046370975,-0.4231139262912766
-0.2162617296655803,0.3530016172516891,-0.4193923028886511
-0.2161872596655803,0.3361062137252221,-0.4156706794860257
-0.2161127896655803,0.3185349940577042,-0.408227432680778
-0.2160383196655803,0.299950050178591,-0.4007841858755271
-0.2159638496655802,0.2813651062994598,-0.3970625624728948
-0.2158893796655802,0.2617664382087669,-0.3896193156676473
-0.2158149096655803,0.2418298620475358,-0.3784544454597708
-0.2157404396655803,0.221217469745246,-0.3710111986545199
-0.2156659696655803,0.1999292613018974,-0.3598463284466434
-0.2155914996655803,0.1783031447880196,-0.348681458238767
-0.2155170296655803,0.1560012121330932,-0.3375165880308956
-0.2154425596655803,0.1336992794781567,-0.3263517178230191
-0.2153680896655802,0.1113973468231996,-0.3114652242125071
-0.2152936196655802,0.08841959802721479,-0.3003003540046357
-0.2152191496655803,0.06510394116069022,-0.2854138603941338
-0.2151446796655803,0.04212619236469501,-0.2668057433810064
-0.2150702096655803,0.01881053549817045,-0.2519192497705044
-0.2149957396655803,-0.004505121368354104,-0.2370327561600025
-0.2149212696655803,-0.02782077823486806,-0.2184246391468836
-0.2148467996655803,-0.05113643510139262,-0.2035381455363799
-0.2147723296655802,-0.07445209196793823,-0.1886516519258628
-0.2146978596655802,-0.097429840763923,-0.1700435349127438
-0.2146233896655803,-0.1193938653483302,-0.1514354178996165
-0.2145489196655803,-0.1416957980032667,-0.1291056774838635
-0.2144744496655803,-0.1646735467992619,-0.1142191838733616
-0.2143999796655803,-0.1862996633131398,-0.09561106686023421
-0.2143255096655803,-0.2075878717564786,-0.07700294984711527
-0.2142510396655803,-0.2282002640587688,-0.05467320943136407
-0.2141765696655802,-0.2484747482905477,-0.03606509241821804
-0.2141020996655802,-0.2684113244517697,-0.01745697540509909
-0.2140276296655803,-0.2880099925424715,0.004872765010653798
-0.2139531596655803,-0.307270752562644,0.02348088202378121
-0.2138786896655803,-0.3251798803006991,0.04208899903690862
-0.2138042196655803,-0.3427510999682248,0.06069711605003603
-0.2137297496655803,-0.3593085954241551,0.07930523306315497
-0.2136552796655803,-0.3748523666685052,0.09791335007628238
-0.2135808096655802,-0.3903961379128684,0.1165214670894267
-0.2135063396655802,-0.4045882768751003,0.1351295841025524
-0.2134318696655803,-0.4177666916257387,0.1500160777130476
-0.2133573996655803,-0.4302692902353243,0.168624194726175
-0.2132829296655803,-0.4417581646333218,0.1872323117393024
-0.2132084596655803,-0.4525712228902609,0.2058404287524298
-0.2131339896655803,-0.4616947407945489,0.220726922362925
-0.2130595196655803,-0.4704803506283119,0.2393350393760507
-0.2129850496655802,-0.4779143281799642,0.2504999095839424
-0.2129105796655802,-0.4839966734494922,0.2653864031944426
-0.2128361096655803,-0.4897411106484884,0.276551273402314
-0.2127616396655803,-0.4937960074948404,0.2914377670128159
-0.2126871696655803,-0.4971750882001339,0.3026026372206924
-0.2126126996655803,-0.4992025366233099,0.3174891308311943
-0.2125382296655803,-0.500216260834898,0.3286540010390707
-0.2124637596655803,-0.500216260834898,0.3398188712469421
-0.2123892896655802,-0.499202536623309,0.3472621180522032
-0.2123148196655802,-0.4971750882001323,0.358426988260078
-0.2122403496655803,-0.4937960074948404,0.3658702350653256
-0.2121658796655803,-0.489403202577959,0.3733134818705765
-0.2120914096655803,-0.484334581520019,0.377035105273202
-0.2120169396655803,-0.4775764201094321,0.3844783520784529
-0.2119424696655803,-0.4698045344872572,0.3881999754810784
-0.2118679996655803,-0.4616947407945567,0.395643222286326
-0.2117935296655802,-0.4518954067491975,0.3956432222863294
-0.2117190596655802,-0.4417581646333166,0.3956432222863294
-0.2116445896655803,-0.4302692902353243,0.3956432222863294
-0.2115701196655803,-0.4170908754846799,0.3993648456889549
-0.2114956496655803,-0.4035745526635063,0.3993648456889549
-0.2114211796655803,-0.3900582298423326,0.3956432222863294
-0.2113467096655803,-0.3745144585979829,0.3956432222863294
-0.2112722396655803,-0.3586327792831111,0.3919215988837056
-0.2111977696655802,-0.3420752838271582,0.388199975481075
-0.2111232996655802,-0.3245040641596321,0.3807567286758258
-0.2110488296655803,-0.3062570283510559,0.377035105273202
-0.2109743596655803,-0.2876720844719423,0.369591858467951
-0.2108998896655803,-0.267735508310711,0.3621486116627001
-0.2108254196655803,-0.2477989321494799,0.3547053648574491
-0.2107509496655803,-0.2271865398471901,0.3435404946495726
-0.2106764796655803,-0.2065741475449097,0.3360972478443251
-0.2106020096655803,-0.1852859391015614,0.3249323776364503
-0.2105275396655802,-0.1636598225876636,0.313767507428562
-0.2104530696655803,-0.141019981862208,0.2988810138180669
-0.2103785996655803,-0.1177043249956835,0.2877161436101904
-0.2103041296655803,-0.09540239234074695,0.2728296499996885
-0.2102296596655803,-0.07310045968581041,0.2579431563891866
-0.2101551896655803,-0.05012271088981519,0.2467782861813101
-0.2100807196655803,-0.02646914595277205,0.231891792570815
-0.2100062496655803,-0.003153489086247342,0.2132836755576893
-0.2099317796655802,0.02016216778029827,0.1983971819471704
-0.2098573096655802,0.04313991657628304,0.1797890649340514
-0.2097828396655803,0.0664555734428076,0.1649025713235495
-0.2097083696655803,0.08943332223880281,0.1462944543104221
-0.2096338996655803,0.1127489791053274,0.1276863372972947
-0.2095594296655803,0.1350509117602639,0.1090782202841673
-0.2094849596655803,0.1573528444151903,0.09047010327104835
-0.2094104896655803,0.1789789609290685,0.07186198625792094
-0.2093360196655802,0.2009429855134952,0.0532538692447766
-0.2092615496655802,0.222231193956834,0.03464575223165765
-0.2091870796655803,0.2428435862591238,0.01603763521853024
-0.2091126096655803,0.2631180704908843,-0.006292105197222647
-0.2090381396655803,0.2823788305110567,-0.02490022221035006
-0.2089636696655803,0.3009637743901705,-0.04350833922347747
-0.2088891996655803,0.3188729021282175,-0.0658380796392202
-0.2088147296655803,0.3367820298662725,-0.0844461966523493
-0.2087402596655802,0.353677433392755,-0.1030543136654936
-0.2086657896655802,0.3695591127076269,-0.1216624306786126
-0.2085913196655803,0.3851028839519766,-0.14027054769174
-0.2085168496655803,0.3996329309847382,-0.1588786647048674
-0.2084423796655803,0.4128113457353826,-0.1774867817179948
-0.2083679096655803,0.4253139443449682,-0.1923732753284967
-0.2082934396655803,0.4368028187429606,-0.2072597689389919
-0.2082189696655803,0.447953785070429,-0.2258678859521176
-0.2081444996655802,0.4574152110452596,-0.2407543795626348
-0.2080700296655802,0.4662008208790219,-0.2556408731731367
-0.2079955596655803,0.473634798430664,-0.2705273667836319
-0.2079210896655803,0.4800550517707215,-0.2891354837967592
-0.2078466196655803,0.4857994889697203,-0.3040219774072612
-0.2077721496655803,0.4901922938866017,-0.3151868476151377
-0.2076976796655803,0.4932334665213644,-0.3300733412256328
-0.2076232096655803,0.4959367310855993,-0.341238211433511
-0.2075487396655802,0.4969504552971885,-0.3524030816413975
-0.2074742696655802,0.4969504552971881,-0.3635679518492723
-0.2073997996655803,0.4959367310856005,-0.3710111986545199
-0.2073253296655803,0.4942471907329539,-0.3821760688623963
-0.2072508596655803,0.4912060180981898,-0.3896193156676473
-0.2071763896655803,0.4868132131813083,-0.3970625624728982
-0.2071019196655803,0.4814066840528388,-0.4045058092781492
-0.2070274496655803,0.4749864307127843,-0.4119490560833968
-0.2069529796655802,0.4678903612316613,-0.4156706794860273
-0.2068785096655802,0.4594426594684273,-0.4193923028886528
-0.2068040396655803,0.4499812334936101,-0.4231139262912766
-0.2067295696655803,0.4398439913777299,-0.4231139262912766
-0.2066550996655803,0.4283551169797323,-0.4268355496939021
-0.2065806296655803,0.4161904264406759,-0.4268355496939021
-0.2065061596655803,0.4026741036195023,-0.4231139262912766
-0.2064316896655803,0.3888198727278056,-0.4268355496939004
-0.2063572196655802,0.3736140095539717,-0.423113926291275
-0.2062827496655802,0.3577323302390923,-0.4193923028886495
-0.2062082796655803,0.3411748347831621,-0.4156706794860257
-0.2061338096655803,0.3236036151156364,-0.4119490560834002
-0.2060593396655803,0.305356579307052,-0.4045058092781492
-0.2059848696655803,0.2867716354279382,-0.3970625624728982
-0.2059103996655803,0.2678487834782951,-0.3896193156676473
-0.2058359296655803,0.247912207317073,-0.3821760688623997
-0.2057614596655802,0.2272998150147644,-0.3710111986545165
-0.2056869896655802,0.2060116065714159,-0.3635679518492639
-0.2056125196655803,0.1847233981280771,-0.3524030816413924
-0.2055380496655803,0.1620835574026112,-0.341238211433516
-0.2054635796655803,0.140119532818204,-0.3300733412256396
-0.2053891096655803,0.1178176001632675,-0.3151868476151377
-0.2053146396655803,0.09517775943780162,-0.3040219774072612
-0.2052401696655803,0.07186210257128765,-0.289135483796766
-0.2051656996655803,0.04888435377529229,-0.2742489901862641
-0.2050912296655802,0.02523078883821734,-0.2593624965757469
-0.2050167596655803,0.001915131971703382,-0.240754379562628
-0.2049422896655803,-0.02106261682429184,-0.2258678859521261
-0.2048678196655803,-0.04404036562028705,-0.2072597689389987
-0.2047933496655803,-0.06769393055734095,-0.1923732753284967
-0.2047188796655803,-0.0910095874238655,-0.1737651583153693
-0.2046444096655803,-0.1126357039377335,-0.1551570413022504
-0.2045699396655803,-0.1352755446631989,-0.136548924289123
-0.2044954696655802,-0.1579153853886852,-0.1216624306786041
-0.2044209996655802,-0.1802173180436116,-0.1030543136654852
-0.2043465296655803,-0.2015055264869602,-0.08072457324973228
-0.2042720596655803,-0.2224558268597793,-0.06211645623660488
-0.2041975896655803,-0.2430682191620691,-0.04350833922347747
-0.2041231196655803,-0.2633427033938296,-0.02490022221035006
-0.2040486496655803,-0.2826034634139933,-0.00257048179460732
-0.2039741796655803,-0.3022021315046949,0.01603763521852178
-0.2038997096655802,-0.3201112592427671,0.0383673756342916
-0.2038252396655802,-0.338020386980814,0.05697549264741054
-0.2037507696655803,-0.3549157905072812,0.07558360966053795
-0.2036762996655803,-0.3707974698221602,0.09419172667366536
-0.2036018296655803,-0.3860033329959806,0.1127998436867928
-0.2035273596655803,-0.4008712880992716,0.1314079606999202
-0.2034528896655803,-0.4140497028499099,0.1500160777130391
-0.2033784196655803,-0.426890209530025,0.1649025713235427
-0.2033039496655802,-0.4387169919985629,0.1835106883366837
-0.2032294796655802,-0.4498679583260261,0.1983971819471789
-0.2031550096655803,-0.4593293843008477,0.2170052989603063
-0.2030805396655803,-0.4681149941346106,0.2356134159734337
-0.2030060696655803,-0.4758868797567853,0.2467782861813101
-0.2029315996655803,-0.4826450411673722,0.261664779791812
-0.2028571296655803,-0.4883894783663684,0.2765512734023072
-0.2027826596655803,-0.4931201913537797,0.2877161436101854
-0.2027081896655802,-0.4964992720590762,0.3026026372206974
-0.2026337196655802,-0.4988646285527812,0.3137675074285738
-0.2025592496655803,-0.500216260834898,0.3249323776364452
-0.2024847796655803,-0.500216260834898,0.3360972478443217
-0.2024103096655803,-0.4995404446938393,0.3472621180521981
-0.2023358396655803,-0.4978509043411926,0.3547053648574491
-0.2022613696655803,-0.4948097317064285,0.3621486116627001
-0.2021868996655803,-0.4907548348600783,0.3695918584679476
-0.2021124296655802,-0.4856862138021333,0.3770351052732054
-0.2020379596655802,-0.4792659604620756,0.3844783520784546
-0.2019634896655803,-0.4721698909809626,0.3881999754810784
-0.2018890196655803,-0.4640600972882585,0.3919215988837039
-0.2018145496655803,-0.4545986713134369,0.3956432222863294
-0.2017400796655803,-0.4444614291975566,0.3993648456889549
-0.2016656096655803,-0.4333104628700883,0.3993648456889549
-0.2015911396655803,-0.4208078642605084,0.3993648456889549
-0.2015166696655802,-0.4076294495098522,0.3993648456889549
-0.2014421996655802,-0.3937752186181487,0.3993648456889532
-0.2013677296655803,-0.3789072635148644,0.3956432222863294
-0.2012932596655803,-0.3630255841999853,0.3919215988837039
-0.2012187896655803,-0.3468059968145769,0.3881999754810784
-0.2011443196655803,-0.3292347771470512,0.3844783520784529
-0.2010698496655803,-0.3113256494089961,0.3807567286758274
-0.2009953796655803,-0.2927407055298907,0.3733134818705799
-0.2009209096655802,-0.2731420374391716,0.3621486116626984
-0.2008464396655802,-0.2535433693484694,0.3584269882600695
