3.2.2 TiefpassAktiv/messwerte/100khz.csv

#Digilent WaveForms Oscilloscope Acquisition
#Device Name: Discovery2
#Serial Number: SN:210321AA2AFF
#Date Time: 2023-12-05 19:42:15.076
#Sample rate: 3.33333e+07Hz
#Samples: 8192
#Trigger: Source: Channel 1 Type: Edge Condition: Rising Level: 0 V Hyst.: Auto HoldOff: 0 s
#Channel 1: Range: 5 V/div Offset: 0 V Attenuation: 1 X Sample Mode: Average
#Channel 2: Range: 5 mV/div Offset: 0 V Attenuation: 1 X Sample Mode: Average

Time (s),Channel 1 (V),Channel 2 (V)
0.0001247446190819051,0.8742442846189878,-0.01327093461312129
0.0001247746190819051,0.7739602989826726,-0.01259330775283991
0.0001248046190819051,0.6885332001072456,-0.0129321211829806
0.0001248346190819051,0.5845349927807437,-0.0129321211829806
0.0001248646190819051,0.4991078939053202,-0.01225449432269937
0.0001248946190819051,0.4025381299593266,-0.01259330775283975
0.0001249246190819051,0.3096825877034353,-0.01394856147340268
0.0001249546190819051,0.2205412671378623,-0.01360974804326214
0.0001249846190819051,0.1165430598112726,-0.01327093461312129
0.0001250146190819051,0.02368751755538288,-0.01360974804326168
0.0001250446190819051,-0.06916802470042235,-0.0129321211829806
0.0001250746190819051,-0.173166232027007,-0.01360974804326153
0.0001251046190819051,-0.2511648875218479,-0.01259330775284037
0.0001251346190819051,-0.3514488731581986,-0.0129321211829806
0.0001251646190819051,-0.4554470804847005,-0.01360974804326168
0.0001251946190819051,-0.5520168444308291,-0.01259330775283991
0.0001252246190819051,-0.6411581649964849,-0.0125933077528396
0.0001252546190819051,-0.7340137072522902,-0.01191568089255852
0.0001252846190819051,-0.830583471198412,-0.01327093461312129
0.0001253146190819051,-0.9197247917639446,-0.01327093461312129
0.0001253446190819051,-1.016294555710066,-0.01327093461312129
0.0001253746190819051,-1.116578541346336,-0.0115768674624186
0.0001254046190819051,-1.209434083602229,-0.01327093461312129
0.0001254346190819051,-1.29857540416788,-0.01394856147340222
0.0001254646190819051,-1.380288281352988,-0.0129321211829806
0.0001254946190819051,-1.480572266989304,-0.0129321211829806
0.0001255246190819051,-1.573427809245109,-0.01327093461312114
0.0001255546190819051,-1.673711794881466,-0.01225449432269922
0.0001255846190819051,-1.762853115447039,-0.01157686746241814
0.0001256146190819051,-1.844565992632226,-0.01191568089255852
0.0001256446190819051,-1.929993091507646,-0.01225449432269952
0.0001256746190819051,-2.019134412073219,-0.0129321211829806
0.0001257046190819051,-2.108275732638832,-0.01327093461312129
0.0001257346190819051,-2.197417053204485,-0.01259330775283945
0.0001257646190819051,-2.282844152079826,-0.01157686746241783
0.0001257946190819051,-2.364557029264934,-0.01157686746241783
0.0001258246190819051,-2.442555684759883,-0.01191568089255852
0.0001258546190819051,-2.527982783635302,-0.0125933077528396
0.0001258846190819051,-2.613409882510643,-0.01191568089255852
0.0001259146190819051,-2.687694316315321,-0.01157686746241783
0.0001259446190819051,-2.765692971810277,-0.01123805403227745
0.0001259746190819051,-2.862262735756314,-0.01191568089255852
0.0001260046190819051,-2.94026139125119,-0.01157686746241798
0.0001260346190819051,-3.01083160336567,-0.01157686746241783
0.0001260646190819051,-3.088830258860612,-0.01022161374185521
0.0001260946190819051,-3.155686249284792,-0.01056042717199575
0.0001261246190819051,-3.241113348160171,-0.01123805403227714
0.0001261546190819051,-3.304255116894182,-0.01089924060213644
0.0001261846190819051,-3.378539550698826,-0.01089924060213644
0.0001262146190819051,-3.445395541123006,-0.009543986881574287
0.0001262446190819051,-3.523394196617948,-0.01123805403227714
0.0001262746190819051,-3.586535965351954,-0.01056042717199544
0.0001263046190819051,-3.653391955776135,-0.009882800311714363
0.0001263346190819051,-3.723962167890578,-0.009543986881573671
0.0001263646190819051,-3.790818158314819,-0.009205173451433285
0.0001263946190819051,-3.857674148738999,-0.009882800311714363
0.0001264246190819051,-3.928244360853411,-0.009205173451433285
0.0001264546190819051,-3.980243464516717,-0.008527546591151592
0.0001264846190819051,-4.03224256818002,-0.009543986881573671
0.0001265146190819051,-4.095384336913968,-0.009543986881573671
0.0001265446190819051,-4.15481188395771,-0.008527546591151592
0.0001265746190819051,-4.195668322550309,-0.008527546591151283
0.0001266046190819051,-4.251381647903791,-0.007849919730870205
0.0001266346190819051,-4.307094973257274,-0.007172292870589126
0.0001266646190819051,-4.355379855230341,-0.007172292870588818
0.0001266946190819051,-4.403664737203401,-0.007849919730869896
0.0001267246190819051,-4.444521175795936,-0.007172292870589126
0.0001267546190819051,-4.485377614388527,-0.007849919730870205
0.0001267846190819051,-4.537376718051823,-0.006833479440447971
0.0001268146190819051,-4.581947378334609,-0.006494666010307432
0.0001268446190819051,-4.622803816927163,-0.006494666010307432
0.0001268746190819051,-4.652517590449053,-0.006494666010307432
0.0001269046190819051,-4.700802472422105,-0.005817039150026046
0.0001269346190819051,-4.726802024253719,-0.005817039150026046
0.0001269646190819051,-4.76394424115607,-0.005817039150026046
0.0001269946190819051,-4.793658014677956,-0.004122971999322426
0.0001270246190819051,-4.827086009890046,-0.003784158569181887
0.0001270546190819051,-4.860514005102136,-0.004800598859603504
0.0001270846190819051,-4.886513556933789,-0.00412297199932258
0.0001271146190819051,-4.916227330455663,-0.00412297199932258
0.0001271446190819051,-4.923655773836124,-0.00412297199932258
0.0001271746190819051,-4.942226882287297,-0.003784158569181887
0.0001272046190819051,-4.971940655809175,-0.003784158569181578
0.0001272346190819051,-4.986797542570104,-0.0031065317089005
0.0001272646190819051,-5.009082872711497,-0.003784158569181579
0.0001272946190819051,-5.023939759472443,-0.0031065317089005
0.0001273246190819051,-5.03136820285292,-0.002767718278759961
0.0001273546190819051,-5.053653532994304,-0.003106531708900346
0.0001273846190819051,-5.057367754684548,-0.001751277988337727
0.0001274146190819051,-5.064796198065014,-0.001412464558197034
0.0001274446190819051,-5.061081976374782,-0.001412464558197034
0.0001274746190819051,-5.083367306516175,-0.001073651128056495
0.0001275046190819051,-5.075938863135717,-0.001073651128056341
0.0001275346190819051,-5.061081976374787,-0.0007348376979151857
0.0001275646190819051,-5.072224641445478,0.0002816025925059694
0.0001275946190819051,-5.061081976374782,-0.0007348376979156479
0.0001276246190819051,-5.064796198065008,0.0002816025925061235
0.0001276546190819051,-5.04993931130408,-0.0003960242677749547
0.0001276846190819051,-5.057367754684544,0.0006204160226466626
0.0001277146190819051,-5.042510867923612,0.0002816025925064317
0.0001277446190819051,-5.020225537782205,-5.721083763410744e-05
0.0001277746190819051,-5.012797094401744,0.0002816025925062776
0.0001278046190819051,-4.997940207640806,0.001298042882928511
0.0001278346190819051,-4.971940655809161,0.0009592294527881261
0.0001278646190819051,-4.957083769048232,0.001636856313069204
0.0001278946190819051,-4.934798438906839,0.001636856313069204
0.0001279246190819051,-4.908798887075192,0.000959229452787818
0.0001279546190819051,-4.890227778624022,0.002314483173350591
0.0001279846190819051,-4.860514005102164,0.001975669743210051
0.0001280146190819051,-4.838228674960748,0.001975669743209897
0.0001280446190819051,-4.812229123129097,0.002992110033631977
0.0001280746190819051,-4.782515349607239,0.002992110033631977
0.0001281046190819051,-4.749087354395149,0.002992110033631977
0.0001281346190819051,-4.711945137492795,0.003669736893913363
0.0001281646190819051,-4.67851714228069,0.00333092346377267
0.0001281946190819051,-4.641374925378368,0.004008550324053749
0.0001282246190819051,-4.596804265095544,0.005024990614476136
0.0001282546190819051,-4.563376269883417,0.004008550324054519
0.0001282846190819051,-4.515091387910399,0.005024990614476136
0.0001283146190819051,-4.46680650593738,0.004686177184335598
0.0001283446190819051,-4.429664289035019,0.005363804044616829
0.0001283746190819051,-4.385093628752212,0.005702617474757522
0.0001284046190819051,-4.333094525088962,0.006041430904898061
0.0001284346190819051,-4.284809643115897,0.005702617474757522
0.0001284646190819051,-4.221667874381898,0.006041430904898216
0.0001284946190819051,-4.17338299240888,0.006041430904898216
0.0001285246190819051,-4.110241223674932,0.007396684625460372
0.0001285546190819051,-4.065670563392096,0.006719057765179602
0.0001285846190819051,-4.009957238038588,0.006719057765179602
0.0001286146190819051,-3.943101247614408,0.006380244335039064
0.0001286446190819051,-3.879959478880402,0.006380244335038909
0.0001286746190819051,-3.827960375217092,0.008751938346023145
0.0001287046190819051,-3.749961719722216,0.007396684625460988
0.0001287346190819051,-3.690534172678501,0.007396684625460988
0.0001287646190819051,-3.627392403944497,0.006719057765179602
0.0001287946190819051,-3.560536413520287,0.007735498055601682
0.0001288246190819051,-3.486251979715643,0.00807431148574222
0.0001288546190819051,-3.426824432671866,0.00976837863644584
0.0001288846190819051,-3.345111555486685,0.007735498055602144
0.0001289146190819051,-3.267112899991809,0.008751938346023761
0.0001289446190819051,-3.196542687877397,0.009429565206304839
0.0001289746190819051,-3.129686697453154,0.008751938346023761
0.0001290046190819051,-3.047973820268009,0.009090751776164455
0.0001290346190819051,-2.981117829843829,0.009090751776164455
0.0001290646190819051,-2.895690730968419,0.00976837863644584
0.0001290946190819051,-2.821406297163701,0.01044600549672707
0.0001291246190819051,-2.732264976598128,0.01010719206658653
0.0001291546190819051,-2.650552099413019,0.009090751776164918
0.0001291846190819051,-2.568839222227802,0.009090751776164916
0.0001292146190819051,-2.494554788423158,0.01010719206658653
0.0001292446190819051,-2.41284191123805,0.009768378636445994
0.0001292746190819051,-2.316272147291931,0.00976837863644584
0.0001293046190819051,-2.23827349179698,0.01078481892686746
0.0001293346190819051,-2.152846392921639,0.00976837863644584
0.0001293646190819051,-2.067419294046298,0.00976837863644584
0.0001293946190819051,-1.981992195170833,0.01112363235700877
0.0001294246190819051,-1.877993987844331,0.01146244578714931
0.0001294546190819051,-1.803709554039687,0.01044600549672769
0.0001294846190819051,-1.703425568403338,0.01044600549672723
0.0001295146190819051,-1.617998469527916,0.01078481892686808
0.0001295446190819051,-1.525142927272111,0.01112363235700861
0.0001295746190819051,-1.436001606706538,0.01112363235700861
0.0001296046190819051,-1.343146064450602,0.01146244578714915
0.0001296346190819051,-1.2391478571241,0.01112363235700861
0.0001296646190819051,-1.157434979938992,0.01078481892686808
0.0001296946190819051,-1.064579437683107,0.01146244578714931
0.0001297246190819051,-0.9642954520467547,0.01146244578714946
0.0001297546190819051,-0.8825825748616462,0.01180125921729
0.0001297846190819051,-0.7822985892253765,0.01078481892686838
0.0001298146190819051,-0.6894430469694446,0.01112363235700861
0.0001298446190819051,-0.6040159480941037,0.01112363235700861
0.0001298746190819051,-0.5000177407676019,0.01146244578714915
0.0001299046190819051,-0.410876420201941,0.01180125921729
0.0001299346190819051,-0.306878212875353,0.01146244578714931
0.0001299646190819051,-0.2214511140000122,0.01146244578714931
0.0001299946190819051,-0.1211671283637425,0.01214007264743038
0.0001300246190819051,-0.03202580779803607,0.01146244578714946
0.0001300546190819051,0.07197239952846579,0.01180125921729
0.0001300846190819051,0.1796848285451998,0.01247888607757108
0.0001301146190819051,0.2688261491108624,0.01180125921729
0.0001301446190819051,0.3579674696765148,0.01180125921728954
0.0001301746190819051,0.4433945685518556,0.01078481892686792
0.0001302046190819051,0.5362501108076609,0.01180125921728954
0.0001302346190819051,0.6402483181342927,0.01146244578714946
0.0001302646190819051,0.7293896386998658,0.01180125921729
0.0001302946190819051,0.8333878460263676,0.01146244578714946
0.0001303246190819051,0.9188149449017946,0.01247888607757139
0.0001303546190819051,1.015384708847923,0.01180125921729015
0.0001303846190819051,1.119382916174425,0.01214007264743069
0.0001304146190819051,1.208524236739998,0.01180125921729015
0.0001304446190819051,1.286522892234989,0.01281769950771177
0.0001304746190819051,1.37194999111033,0.01214007264743069
0.0001305046190819051,1.479662420127064,0.01180125921729015
0.0001305346190819051,1.565089519002493,0.01146244578714931
0.0001305646190819051,1.665373504638849,0.01247888607757108
0.0001305946190819051,1.754514825204422,0.01180125921729
0.0001306246190819051,1.843656145770035,0.01146244578714931
0.0001306546190819051,1.917940579574762,0.01214007264743038
0.0001306846190819051,2.025653008591497,0.01146244578714931
0.0001307146190819051,2.099937442396141,0.01078481892686823
0.0001307446190819051,2.189078762961788,0.01010719206658653
0.0001307746190819051,2.267077418456742,0.01010719206658715
0.0001308046190819051,2.359932960712547,0.01146244578714931
0.0001308346190819051,2.434217394517225,0.01044600549672723
0.0001308646190819051,2.519644493392643,0.01078481892686808
0.0001308946190819051,2.605071592267985,0.01112363235700861
0.0001309246190819051,2.683070247762861,0.01112363235700861
0.0001309546190819051,2.757354681567574,0.00976837863644584
0.0001309846190819051,2.835353337062523,0.01044600549672723
0.0001310146190819051,2.917066214247632,0.01044600549672723
0.0001310446190819051,3.002493313123011,0.01078481892686792
0.0001310746190819051,3.076777746927723,0.01010719206658607
0.0001311046190819051,3.151062180732367,0.009090751776164455
0.0001311346190819051,3.229060836227243,0.009429565206304993
0.0001311646190819051,3.288488383271022,0.009429565206305147
0.0001311946190819051,3.355344373695269,0.009768378636445378
0.0001312246190819051,3.437057250880378,0.008751938346023761
0.0001312546190819051,3.51505590637529,0.009090751776164455
0.0001312846190819051,3.574483453419062,0.008413124915883223
0.0001313146190819051,3.641339443843242,0.008751938346023761
0.0001313446190819051,3.70448121257719,0.008413124915883223
0.0001313746190819051,3.778765646381896,0.008074311485742374
0.0001314046190819051,3.838193193425662,0.007396684625461296
0.0001314346190819051,3.890192297088913,0.008074311485742374
0.0001314646190819051,3.953334065822889,0.007396684625460988
0.0001314946190819051,4.020190056247124,0.00807431148574222
0.0001315246190819051,4.072189159910375,0.007735498055601682
0.0001315546190819051,4.124188263573625,0.007396684625461143
0.0001315846190819051,4.179901588927158,0.006719057765179602
0.0001316146190819051,4.224472249209988,0.006719057765179139
0.0001316446190819051,4.276471352873239,0.005702617474757522
0.0001316746190819051,4.328470456536514,0.005363804044616829
0.0001317046190819051,4.380469560199807,0.006380244335038909
0.0001317346190819051,4.421325998792361,0.006380244335038909
0.0001317646190819051,4.469610880765379,0.006380244335038909
0.0001317946190819051,4.517895762738442,0.005702617474757522
0.0001318246190819051,4.5550379796408,0.005702617474756598
0.0001318546190819051,4.595894418233335,0.003669736893914288
0.0001318846190819051,4.633036635135693,0.004686177184335443
0.0001319146190819051,4.666464630347817,0.005363804044616059
0.0001319446190819051,4.707321068940371,0.003669736893913363
0.0001319746190819051,4.740749064152461,0.004686177184334981
0.0001320046190819051,4.777891281054815,0.00333092346377267
0.0001320346190819051,4.796462389505996,0.004347363754194442
0.0001320646190819051,4.82246194133761,0.003669736893913671
0.0001320946190819051,4.859604158239961,0.003669736893913363
0.0001321246190819051,4.867032601620444,0.002992110033631823
0.0001321546190819051,4.900460596832534,0.002653296603491284
0.0001321846190819051,4.92646014866416,0.003330923463772362
0.0001322146190819051,4.945031257115341,0.002992110033631977
0.0001322446190819051,4.959888143876286,0.003330923463772208
0.0001322746190819051,4.98217347401767,0.002314483173351053
0.0001323046190819051,4.997030360778616,0.001636856313069204
0.0001323346190819051,5.000744582468853,0.001975669743209744
0.0001323646190819051,5.008173025849317,0.001636856313069204
0.0001323946190819051,5.023029912610245,0.0009592294527881261
0.0001324246190819051,5.030458355990721,-5.721083763426152e-05
0.0001324546190819051,5.034172577680954,0.0009592294527870477
0.0001324846190819051,5.034172577680954,-0.0007348376979148774
0.0001325146190819051,5.045315242751656,0.000959229452787818
0.0001325446190819051,5.041601021061425,0.000959229452787818
0.0001325746190819051,5.04902946444189,0.000959229452787818
0.0001326046190819051,5.034172577680962,0.0006204160226472788
0.0001326346190819051,5.041601021061422,-0.0007348376979156479
0.0001326646190819051,5.023029912610254,-0.001073651128056187
0.0001326946190819051,5.026744134300484,-0.000734837697915802
0.0001327246190819051,5.011887247539551,-0.0003960242677749547
0.0001327546190819051,4.997030360778612,-0.001412464558197034
0.0001327846190819051,4.989601917398147,-0.001412464558197034
0.0001328146190819051,4.978459252327451,-0.002428904848618651
0.0001328446190819051,4.956173922186043,-0.00412297199932258
0.0001328746190819051,4.94131703542509,-0.003106531708901116
0.0001329046190819051,4.904174818522785,-0.004461785429462656
0.0001329346190819051,4.889317931761832,-0.00412297199932258
0.0001329646190819051,4.859604158239947,-0.003445345139041347
0.0001329946190819051,4.82989038471809,-0.003784158569181887
0.0001330246190819051,4.818747719647393,-0.004122971999322426
0.0001330546190819051,4.770462837674348,-0.004461785429463272
0.0001330846190819051,4.737034842462243,-0.005139412289744659
0.0001331146190819051,4.714749512320849,-0.005817039150025738
0.0001331446190819051,4.670178852038032,-0.005817039150026046
0.0001331746190819051,4.636750856825908,-0.00547822571988566
0.0001332046190819051,4.595894418233354,-0.006155852580166738
0.0001332346190819051,4.5550379796408,-0.006494666010307277
0.0001332646190819051,4.503038875977507,-0.006494666010307432
0.0001332946190819051,4.47703932414587,-0.006833479440448125
0.0001333246190819051,4.425040220482619,-0.007849919730869744
0.0001333546190819051,4.384183781890022,-0.008527546591151592
0.0001333846190819051,4.332184678226729,-0.007849919730869896
0.0001334146190819051,4.291328239634175,-0.007172292870588818
0.0001334446190819051,4.231900692590459,-0.007511106300729357
0.0001334746190819051,4.176187367236924,-0.007172292870588818
0.0001335046190819051,4.120474041883416,-0.008188733161010897
0.0001335346190819051,4.061046494839699,-0.008527546591151437
0.0001335646190819051,4.0201900562471,-0.007849919730870205
0.0001335946190819051,3.953334065822859,-0.008866360021292439
0.0001336246190819051,3.88647807539868,-0.009205173451432977
0.0001336546190819051,3.827050528354965,-0.0085275465911519
0.0001336846190819051,3.767622981311194,-0.008188733161010897
0.0001337146190819051,3.708195434267452,-0.009543986881573671
0.0001337446190819051,3.641339443843273,-0.009205173451433131
0.0001337746190819051,3.574483453419032,-0.01022161374185506
0.0001338046190819051,3.503913241304552,-0.01089924060213598
0.0001338346190819051,3.425914585809676,-0.009882800311714363
0.0001338646190819051,3.366487038765961,-0.009882800311714363
0.0001338946190819051,3.292202604961256,-0.01157686746241783
0.0001339246190819051,3.225346614537045,-0.01056042717199575
0.0001339546190819051,3.151062180732401,-0.009543986881574134
0.0001339846190819051,3.073063525237456,-0.01056042717199575
0.0001340146190819051,2.991350648052275,-0.01022161374185567
0.0001340446190819051,2.913351992557399,-0.01157686746241783
0.0001340746190819051,2.842781780442986,-0.01089924060213675
0.0001341046190819051,2.761068903257808,-0.01056042717199575
0.0001341346190819051,2.671927582692195,-0.01089924060213644
0.0001341646190819051,2.601357370577783,-0.01089924060213644
0.0001341946190819051,2.512216050012137,-0.01123805403227714
0.0001342246190819051,2.423074729446491,-0.01123805403227729
