3.2.2 TiefpassAktiv/messwerte/160hz.csv

#Digilent WaveForms Oscilloscope Acquisition
#Device Name: Discovery2
#Serial Number: SN:210321AA2AFF
#Date Time: 2023-12-05 19:38:57.217
#Sample rate: 43840.4Hz
#Samples: 8192
#Trigger: Source: Channel 1 Type: Edge Condition: Rising Level: 0 V Hyst.: Auto HoldOff: 0 s
#Channel 1: Range: 200 mV/div Offset: 0 V Attenuation: 1 X Sample Mode: Average
#Channel 2: Range: 100 mV/div Offset: 0 V Attenuation: 1 X Sample Mode: Average

Time (s),Channel 1 (V),Channel 2 (V)
-0.1868483410519536,0.3209003505513937,0.03246887845587937
-0.1868255310519536,0.3296859603851645,0.02467616956263634
-0.1868027210519536,0.3384715702189312,0.01688346066939685
-0.1867799110519536,0.3465813639116316,0.009090751776164455
-0.1867571010519536,0.3553669737453865,0.001298042882935598
-0.1867342910519536,0.3628009512970367,-0.006494666010303888
-0.1867114810519536,0.3705728369192148,-0.01462618833368407
-0.1866886710519536,0.378006814470857,-0.02208008379677593
-0.1866658610519536,0.3854407920225059,-0.03021160612015595
-0.1866430510519536,0.3928747695741546,-0.03800431501339544
-0.1866202410519536,0.3999708390552675,-0.04579702390662784
-0.1865974310519536,0.4067290004658482,-0.0535897327998567
-0.1865746210519536,0.4128113457353798,-0.06104362826295565
-0.1865518110519536,0.4192315990754428,-0.06883633715619851
-0.1865290010519536,0.4253139443449654,-0.07662904604942737
-0.1865061910519536,0.431058381543967,-0.08408294151252618
-0.1864833810519536,0.4368028187429682,-0.09187565040576566
-0.1864605710519536,0.4422093478714353,-0.09966835929899806
-0.1864377610519536,0.4476158769998997,-0.1067834413319461
-0.1864149510519536,0.4523465899873133,-0.114576150225185
-0.1863921410519536,0.4564014868336697,-0.1216912322581465
-0.1863693310519536,0.4611321998210762,-0.129145127721235
-0.1863465210519536,0.4651870966674305,-0.1362602097541929
-0.1863237110519536,0.4689040854432551,-0.1433752917871507
-0.1863009010519536,0.4729589822896053,-0.150490373820102
-0.1862780910519536,0.4763380629948957,-0.1576054558530501
-0.1862552810519536,0.4793792356296628,-0.1643817244558705
-0.1862324710519536,0.4817445921233697,-0.1711579930586876
-0.1862096610519536,0.4851236728286601,-0.1782730750916356
-0.1861868510519536,0.487489029322367,-0.1850493436944528
-0.1861640410519536,0.489516477745544,-0.1914867988671287
-0.1861412310519536,0.4915439261687191,-0.1975854406096584
-0.1861184210519536,0.4932334665213642,-0.2043617092124661
-0.1860956110519536,0.4945850988034832,-0.2104603509550047
-0.1860728010519536,0.4955988230150715,-0.2168978061276807
-0.1860499910519536,0.4962746391561296,-0.2229964478702076
-0.1860271810519536,0.4969504552971885,-0.2287562761826022
-0.1860043710519536,0.4972883633677179,-0.2341772910648585
-0.1859815610519536,0.4972883633677179,-0.239937119377245
-0.1859587510519536,0.4969504552971888,-0.246035761119772
-0.1859359410519536,0.4966125472266593,-0.2511179625718879
-0.1859131310519536,0.4962746391561295,-0.2565389774541413
-0.1858903210519536,0.4952609149445423,-0.2616211789062471
-0.1858675110519536,0.4942471907329539,-0.2667033803583598
-0.1858447010519536,0.4925576503803052,-0.2714467683803338
-0.1858218910519536,0.490530201957131,-0.2761901564022992
-0.1857990810519536,0.4888406616044851,-0.2805947309941262
-0.1857762710519536,0.4868132131813083,-0.2853381190160979
-0.1857534610519536,0.4841099486170722,-0.2897426936079286
-0.1857306510519536,0.4810687759823108,-0.2934696413394728
-0.1857078410519536,0.4780276033475455,-0.2978742159313036
-0.1856850310519536,0.4746485226422489,-0.301939977092995
-0.1856622210519536,0.4712694419369586,-0.3053281113943988
-0.1856394110519536,0.4678903612316667,-0.3090550591259447
-0.1856166010519536,0.4634975563147837,-0.3124431934273534
-0.1855937910519536,0.4594426594684295,-0.315492514298621
-0.1855709810519536,0.454711946481023,-0.3185418351698845
-0.1855481710519536,0.4499812334936079,-0.3212523426110126
-0.1855253610519536,0.4452505205061947,-0.3239628500521391
-0.1855025510519536,0.4401818994482593,-0.3263345440631218
-0.1854797410519536,0.434437462249263,-0.3287062380741056
-0.1854569310519536,0.4286930250502616,-0.3314167455152322
-0.1854341210519536,0.4226106797807306,-0.3334496260960771
-0.1854113110519536,0.4165283345112081,-0.3351436932467791
-0.1853885010519536,0.4101080811711448,-0.3364989469673434
-0.1853656910519536,0.4033499197605552,-0.3381930141180473
-0.1853428810519536,0.3969296664205035,-0.3395482678386088
-0.1853200710519536,0.3898335969393906,-0.3405647081290304
-0.1852972610519536,0.3823996193877418,-0.341581148419453
-0.1852744510519536,0.3753035499066221,-0.3425975887098754
-0.1852516410519536,0.3675316642844508,-0.3432752155701564
-0.1852288310519536,0.359421870591754,-0.3436140290002968
-0.1852060210519536,0.351312076899035,-0.3439528424304382
-0.1851832110519536,0.3432022832063382,-0.3442916558605785
-0.1851604010519536,0.3350924895136377,-0.343952842430438
-0.1851375910519536,0.3263068796798712,-0.3436140290002971
-0.1851147810519536,0.317521269846104,-0.3429364021400154
-0.1850919710519536,0.3080598438712867,-0.3422587752797344
-0.1850691610519536,0.2992742340375318,-0.3415811484194536
-0.1850463510519536,0.290150716133223,-0.3405647081290297
-0.1850235410519536,0.28068929015841,-0.3392094544084681
-0.1850007310519536,0.271565772254122,-0.3378542006879059
-0.1849779210519536,0.2617664382087669,-0.3361601335372019
-0.1849551110519536,0.2519671041634116,-0.3344660663864977
-0.1849323010519536,0.2421677701180651,-0.332771999235795
-0.1849094910519536,0.2323684360727231,-0.3307391186549526
-0.1848866810519536,0.2222311939568242,-0.3283674246439638
-0.1848638710519536,0.2114181356998951,-0.3259957306329811
-0.1848410610519536,0.2012808935840194,-0.3232852231918568
-0.1848182510519536,0.1908057433976052,-0.3209135291808707
-0.1847954410519536,0.1799926851406612,-0.3178642083096029
-0.1847726310519536,0.168841718813198,-0.3144760740081975
-0.1847498210519536,0.1580286605562689,-0.3114267531369341
-0.1847270110519536,0.1475535103698543,-0.3080386188355259
-0.1847042010519536,0.1364025440423762,-0.304311671103975
-0.1846813910519536,0.1252515777149181,-0.3005847233724309
-0.1846585810519536,0.1144385194579741,-0.2965189622107408
-0.1846357710519536,0.1036254612010298,-0.2924532010490505
-0.1846129610519536,0.0917986787325082,-0.2880486264572235
-0.1845901510519536,0.08064771240505007,-0.2839828652955388
-0.1845673410519536,0.06915883800704756,-0.2792394772735676
-0.1845445310519536,0.05800787167956883,-0.2744960892515936
-0.1845217210519536,0.04651899728158167,-0.2697527012296282
-0.1844989110519536,0.03536803095410818,-0.2646704997775156
-0.1844761010519536,0.02387915655610535,-0.2595882983254028
-0.1844532910519536,0.01239028215811297,-0.2541672834431541
-0.1844304810519536,0.000901407760125806,-0.2490850819910484
-0.1844076710519536,-0.01058746663787703,-0.2433252536786546
-0.1843848610519536,-0.02173843296535559,-0.2379042387963981
-0.1843620510519536,-0.03288939929281371,-0.2318055970538712
-0.1843392410519536,-0.04471618176134573,-0.2263845821716173
-0.1843164310519536,-0.05620505615934857,-0.2202859404290821
-0.1842936210519536,-0.06769393055734095,-0.2141872986865524
-0.1842708110519536,-0.0791828049553281,-0.207749843513885
-0.1842480010519536,-0.09033377128280683,-0.201312388341206
-0.1842251910519536,-0.1008089214692213,-0.1948749331685299
-0.1842023810519536,-0.1116219797261504,-0.1884374779958626
-0.1841795710519536,-0.1227729460536236,-0.1820000228231865
-0.1841567610519536,-0.1339239123810968,-0.1752237542203696
-0.1841339510519536,-0.1447369706380308,-0.1684474856175588
-0.1841111410519536,-0.156225845036018,-0.1616712170147511
-0.1840883310519536,-0.1673768113634967,-0.1545561349817904
-0.1840655210519536,-0.1778519615499112,-0.1474410529488326
-0.1840427110519536,-0.1886650198068403,-0.1403259709158845
-0.1840199010519536,-0.1988022619227254,-0.132872075452786
-0.1839970910519536,-0.2089395040386152,-0.1257569934198247
-0.1839742810519536,-0.2194146542250152,-0.1183030979567362
-0.1839514710519536,-0.2295518963408909,-0.1108492024936443
-0.1839286610519536,-0.2393512303862464,-0.1037341204606864
-0.1839058510519536,-0.2494884725021311,-0.09628022499758758
-0.1838830410519536,-0.2592878065474731,-0.08848751610435872
-0.1838602310519536,-0.2690871405928285,-0.08069480721111924
-0.1838374210519536,-0.2785485665676586,-0.0732409117480169
-0.1838146110519536,-0.2880099925424715,-0.06544820285478806
-0.1837918010519536,-0.297809326587818,-0.05799430739169618
-0.1837689910519536,-0.307270752562644,-0.05054041192859755
-0.1837461810519536,-0.3157184543258815,-0.04240888960521736
-0.1837233710519536,-0.3245040641596364,-0.03461618071198851
-0.1837005610519536,-0.3332896739934071,-0.02648465838860479
-0.1836777510519536,-0.3417373757566445,-0.0186919494953653
-0.1836549410519536,-0.3501850775198704,-0.01089924060213644
-0.1836321310519536,-0.3579569631420417,-0.003106531708904044
-0.1836093210519536,-0.3657288487642201,0.004686177184335443
-0.1835865110519536,-0.3735007343863984,0.01247888607757509
-0.1835637010519536,-0.380934711938037,0.02061040840094432
-0.1835408910519536,-0.3890445056307479,0.02806430386404682
-0.1835180810519536,-0.396140575111867,0.0358570127572863
-0.1834952710519536,-0.4028987365224477,0.04364972165051516
-0.1834724610519536,-0.4093189898625022,0.05144243054374756
-0.1834496510519536,-0.4157392432025626,0.05923513943698704
-0.1834268410519536,-0.4221594965426229,0.06702784833022638
-0.1834040310519536,-0.4282418418121454,0.07448174379331485
-0.1833812210519536,-0.4343241870816789,0.08227445268655756
-0.1833584110519536,-0.439730716210151,0.08972834814965651
-0.1833356010519536,-0.4454751534091447,0.09752105704288538
-0.1833127910519536,-0.4502058663965533,0.1049749525059772
-0.1832899810519536,-0.4552744874544955,0.1124288479690759
-0.1832671710519536,-0.459667292371379,0.1195439300020338
-0.1832443610519536,-0.4640600972882585,0.1269978254651257
-0.1832215510519536,-0.4684529022051359,0.1344517209282141
-0.1831987410519536,-0.472507799051495,0.141566802961182
-0.1831759310519536,-0.4758868797567853,0.14868188499413
-0.1831531210519536,-0.4792659604620773,0.1557969670270813
-0.1831303110519536,-0.4823071330968429,0.1625732356298984
-0.1831075010519536,-0.485010397661079,0.1693495042327156
-0.1830846910519536,-0.4880515702958417,0.1764645862656669
-0.1830618810519536,-0.4904169267895449,0.1829020414383342
-0.1830390710519536,-0.492782283283254,0.1896783100411595
-0.1830162610519536,-0.4944718236358991,0.1957769517836864
-0.1829934510519536,-0.496161363988545,0.2022144069563566
-0.1829706410519536,-0.4975129962706633,0.208313048698892
-0.1829478310519536,-0.4985267204822517,0.2147505038715678
-0.1829250210519536,-0.4995404446938393,0.220510332183957
-0.1829022110519536,-0.5002162608348973,0.2262701604963435
-0.1828794010519536,-0.500554168905427,0.2323688022388865
-0.1828565910519536,-0.500216260834898,0.238128630551273
-0.1828337810519536,-0.500216260834898,0.2432108320033811
-0.1828109710519536,-0.4998783527643686,0.2486318468856345
-0.1827881610519536,-0.4992025366233095,0.254052861767888
-0.1827653510519536,-0.498188812411722,0.2594738766501367
-0.1827425410519536,-0.4968371801296058,0.2645560781022425
-0.1827197310519536,-0.4954855478474878,0.2692994661242146
-0.1826969210519536,-0.4937960074948395,0.2740428541461888
-0.1826741110519536,-0.4917685590716653,0.2791250555982946
-0.1826513010519536,-0.4897411106484884,0.2831908167599853
-0.1826284910519536,-0.4873757541547816,0.2875953913518161
-0.1826056810519536,-0.484334581520019,0.2916611525135026
-0.1825828710519536,-0.4812934088852576,0.2957269136751872
-0.1825600610519536,-0.4779143281799629,0.2994538614067368
-0.1825372510519536,-0.4745352474746662,0.3031808091382878
-0.1825144410519536,-0.4704803506283178,0.306907756869832
-0.1824916310519536,-0.4667633618524931,0.3102958911712407
-0.1824688210519536,-0.4627084650061387,0.3133452120425083
-0.1824460110519536,-0.4576398439482009,0.3163945329137732
-0.1824232010519536,-0.4529091309607945,0.3194438537850366
-0.1824003910519536,-0.4481784179733816,0.3221543612261637
-0.1823775810519536,-0.4431097969154368,0.3248648686672914
-0.1823547710519536,-0.4377032677869722,0.3268977492481337
-0.1823319610519536,-0.431958830587971,0.3289306298289788
-0.1823091510519536,-0.4255385772479108,0.3309635104098239
-0.1822863410519536,-0.4194562319783853,0.3329963909906671
-0.1822635310519536,-0.4130359786383337,0.3343516447112287
-0.1822407210519536,-0.406277817227741,0.3360457118619334
-0.1822179110519536,-0.3995196558171513,0.3370621521523561
-0.1821951010519536,-0.3930994024770997,0.3384174058729176
-0.1821722910519536,-0.3856654249254512,0.3394338461633403
-0.1821494810519536,-0.3778935393032729,0.3401114730236218
-0.1821266710519536,-0.3701216536811015,0.3404502864537624
-0.1821038610519536,-0.3626876761294627,0.3411279133140431
-0.1820810510519536,-0.3545778824367518,0.3411279133140437
-0.1820582410519536,-0.3464680887440438,0.3414667267441843
-0.1820354310519536,-0.3380203869808179,0.3411279133140439
-0.1820126210519536,-0.3295726852175805,0.340789099883903
-0.1819898110519536,-0.3207870753838094,0.3404502864537617
-0.1819670010519536,-0.3116635574795255,0.339772659593481
-0.1819441910519536,-0.3028779476457666,0.3390950327331999
-0.1819213810519536,-0.2937544297414704,0.3377397790126369
-0.1818985710519536,-0.2842930037666442,0.3367233387222142
-0.1818757610519536,-0.2741557616507732,0.3353680850016526
-0.1818529510519536,-0.2650322437464764,0.3336740178509485
-0.1818301410519536,-0.2548950016305871,0.3323187641303839
-0.1818073310519536,-0.2450956675852452,0.3302858835495416
-0.1817845210519536,-0.2349584254693696,0.3282530029686984
-0.1817617110519536,-0.2251590914240141,0.3262201223878533
-0.1817389010519536,-0.2146839412375998,0.3238484283768672
-0.1817160910519536,-0.2045466991217288,0.3211379209357441
-0.1816932810519536,-0.19407154893531,0.3180886000644753
-0.1816704710519536,-0.1839343068194246,0.3150392791932076
-0.1816476610519536,-0.1731212485624955,0.3119899583219441
-0.1816248510519536,-0.1623081903055615,0.3089406374506793
-0.1816020410519536,-0.151833040119147,0.305552503149271
-0.1815792310519536,-0.1403441657211443,0.3018255554177215
-0.1815564210519536,-0.1291931993936862,0.2977597942560369
-0.1815336110519536,-0.1177043249956786,0.2940328465244856
-0.1815108010519536,-0.1068912667387344,0.2899670853627951
-0.1814879910519536,-0.09574030041127629,0.2855625107709701
-0.1814651810519536,-0.08526515022487147,0.2814967496092836
-0.1814423710519536,-0.07377627582686909,0.2767533615873121
-0.1814195610519536,-0.06262530949939561,0.2723487869954809
-0.1813967510519536,-0.05113643510140845,0.2676053989735155
-0.1813739410519536,-0.03930965263287105,0.2625231975214006
-0.1813511310519536,-0.02782077823486852,0.2574409960692876
-0.1813283210519536,-0.0166698119074104,0.2520199811870414
-0.1813055110519536,-0.005180937509418011,0.2465989663047928
-0.1812827010519536,0.00597002881805548,0.2411779514225393
-0.1812598910519536,0.01745890321605816,0.2354181231101449
-0.1812370810519536,0.02860986954352136,0.2296582947977557
-0.1812142710519536,0.03976083587097948,0.2238984664853692
-0.1811914610519536,0.05158761833952702,0.2181386381729663
-0.1811686510519536,0.06307649273751417,0.211701183000299
-0.1811458410519536,0.07422745906497738,0.2056025412577693
-0.1811230310519536,0.08537842539245072,0.199503899515234
-0.1811002210519536,0.09686729979045371,0.1930664443425579
-0.1810774110519536,0.1086940822589753,0.1866289891698877
-0.1810546010519536,0.1195071405159044,0.17985272056708
-0.1810317910519536,0.1303201987728632,0.1730764519642538
-0.1810089810519536,0.1414711651003214,0.1663001833614461
-0.1809861710519536,0.1519463152867262,0.1591851013284948
-0.1809633610519536,0.1630972816141992,0.1524088327256777
-0.1809405510519536,0.1735724318006137,0.1452937506927199
-0.1809177410519536,0.1843854900575478,0.1381786686597685
-0.1808949310519536,0.1951985483144769,0.1307247731966801
-0.1808721210519536,0.2056736985009058,0.1236096911637123
-0.1808493110519536,0.2161488486873059,0.1164946091307642
-0.1808265010519536,0.2259481827326523,0.1093795270978129
-0.1808036910519536,0.2367612409895957,0.1015868182045737
-0.1807808810519536,0.246560575034951,0.09379410931133436
-0.1807580710519536,0.2563599090802975,0.0863402138482425
-0.1807352610519536,0.2658213350551105,0.07854750495501366
-0.1807124510519536,0.2752827610299362,0.07109360949191468
-0.1806896410519536,0.2850820950752955,0.06363971402881236
-0.1806668310519536,0.2938677049090503,0.05550819170544312
-0.1806440210519536,0.3033291308838759,0.04805429624234417
-0.1806212110519536,0.3121147407176428,0.04026158734910468
-0.1805984010519536,0.3209003505514016,0.03246887845587228
-0.1805755910519536,0.3296859603851565,0.02467616956264343
-0.1805527810519536,0.3381336621483943,0.01688346066940394
-0.1805299710519536,0.3465813639116355,0.009090751776160911
-0.1805071610519536,0.3550290656748613,0.001298042882932055
-0.1804843510519536,0.36280095129704,-0.006833479440448125
-0.1804615410519536,0.3705728369192182,-0.01428737490354692
-0.1804387310519536,0.3780068144708604,-0.02208008379677932
-0.1804159210519536,0.3854407920224991,-0.03021160612014856
-0.1803931110519536,0.3925368615036189,-0.03800431501338835
-0.1803703010519536,0.3999708390552705,-0.04579702390663139
-0.1803474910519536,0.4063910923953222,-0.05358973279986023
-0.1803246810519536,0.4128113457353826,-0.06138244169309973
-0.1803018710519536,0.4188936910049136,-0.06883633715619851
-0.1802790610519536,0.4253139443449682,-0.07662904604943091
-0.1802562510519536,0.4310583815439618,-0.08442175494265976
-0.1802334410519536,0.4364649106724364,-0.09187565040576212
-0.1802106310519536,0.4418714398009084,-0.09932954586886075
-0.1801878210519536,0.4472779689293729,-0.1067834413319492
-0.1801650110519536,0.4520086819167861,-0.1142373367950479
-0.1801422010519536,0.4564014868336715,-0.1216912322581499
-0.1801193910519536,0.460794291750549,-0.1291451277212384
-0.1800965810519536,0.4648491885968975,-0.1362602097541865
-0.1800737710519536,0.4692419935137826,-0.1433752917871475
-0.1800509610519536,0.4729589822896069,-0.1504903738201053
-0.1800281510519536,0.4763380629948972,-0.1576054558530534
-0.1800053410519536,0.4790413275591334,-0.1643817244558705
-0.1799825310519536,0.4820825001939003,-0.1711579930586908
-0.1799597210519536,0.4851236728286616,-0.1782730750916389
-0.1799369110519536,0.4871511212518367,-0.1847105302643091
-0.1799141010519536,0.4895164777455431,-0.1911479854369852
-0.1798912910519536,0.4912060180981905,-0.197924254039802
-0.1798684810519536,0.4928955584508357,-0.2043617092124694
-0.1798456710519536,0.4942471907329539,-0.2104603509550047
-0.1798228610519536,0.4952609149445424,-0.2165589926975431
-0.1798000510519536,0.4959367310856005,-0.2229964478702104
-0.1797772410519536,0.4966125472266589,-0.2287562761825996
-0.1797544310519536,0.4969504552971885,-0.2345161044949939
-0.1797316210519536,0.4966125472266593,-0.2402759328073883
-0.1797088110519536,0.4966125472266593,-0.2460357611197749
-0.1796860010519536,0.4962746391561297,-0.2511179625718902
-0.1796631910519536,0.4959367310855996,-0.2562001640240029
-0.1796403810519536,0.4949230068740125,-0.2612823654761087
-0.1796175710519536,0.493909282662425,-0.2667033803583573
-0.1795947610519536,0.4925576503803071,-0.2714467683803295
-0.1795719510519536,0.4905302019571301,-0.2761901564023012
-0.1795491410519536,0.4885027535339559,-0.2805947309941262
-0.1795263310519536,0.4861373970402486,-0.2853381190160999
-0.1795035210519536,0.4837720405465414,-0.2897426936079306
-0.1794807110519536,0.4807308679117802,-0.2938084547696153
-0.1794579010519536,0.4776896952770175,-0.2978742159313018
-0.1794350910519536,0.474648522642252,-0.3016011636628512
-0.1794122810519536,0.471269441936957,-0.3053281113944005
-0.1793894710519536,0.4675524531611375,-0.3090550591259447
-0.1793666610519536,0.4634975563147819,-0.3121043799972142
-0.1793438510519536,0.4594426594684273,-0.3154925142986227
