3.2.2 TiefpassAktiv/messwerte/1khz.csv

#Digilent WaveForms Oscilloscope Acquisition
#Device Name: Discovery2
#Serial Number: SN:210321AA2AFF
#Date Time: 2023-12-05 19:39:47.354
#Sample rate: 3.44828e+06Hz
#Samples: 8192
#Trigger: Source: Channel 1 Type: Edge Condition: Rising Level: 0 V Hyst.: Auto HoldOff: 0 s
#Channel 1: Range: 100 mV/div Offset: 0 V Attenuation: 1 X Sample Mode: Average
#Channel 2: Range: 20 mV/div Offset: 0 V Attenuation: 1 X Sample Mode: Average

Time (s),Channel 1 (V),Channel 2 (V)
-0.00224717875638051,-0.5008920769759567,0.01349532636799347
-0.00224688875638051,-0.5008920769759567,0.01349532636799347
-0.00224659875638051,-0.5008920769759564,0.01349532636799331
-0.00224630875638051,-0.5002162608348981,0.01315651293785293
-0.00224601875638051,-0.5005541689054277,0.01349532636799377
-0.00224572875638051,-0.501229985046486,0.01417295322827485
-0.00224543875638051,-0.5012299850464855,0.01417295322827516
-0.00224514875638051,-0.5002162608348983,0.01485058008855593
-0.00224485875638051,-0.5008920769759567,0.01417295322827501
-0.00224456875638051,-0.5008920769759567,0.01451176665841585
-0.00224427875638051,-0.5008920769759567,0.01518939351869693
-0.00224398875638051,-0.5008920769759564,0.01518939351869693
-0.00224369875638051,-0.5005541689054265,0.01518939351869693
-0.00224340875638051,-0.4995404446938402,0.01518939351869724
-0.00224311875638051,-0.5005541689054267,0.01552820694883762
-0.00224282875638051,-0.499878352764369,0.01552820694883762
-0.00224253875638051,-0.500216260834898,0.01552820694883793
-0.00224224875638051,-0.500216260834898,0.01586702037897801
-0.00224195875638051,-0.5002162608348973,0.01552820694883793
-0.00224166875638051,-0.4995404446938402,0.01586702037897832
-0.00224137875638051,-0.5005541689054269,0.01586702037897832
-0.00224108875638051,-0.499878352764369,0.01620583380911886
-0.00224079875638051,-0.4998783527643686,0.01586702037897847
-0.00224050875638051,-0.4998783527643686,0.01552820694883778
-0.00224021875638051,-0.500216260834898,0.0165446472392597
-0.00223992875638051,-0.4995404446938393,0.01722227409954109
-0.00223963875638051,-0.4998783527643686,0.01756108752968178
-0.00223934875638051,-0.4985267204822512,0.01756108752968178
-0.00223905875638051,-0.4992025366233099,0.01756108752968178
-0.00223876875638051,-0.4995404446938393,0.01722227409954109
-0.00223847875638051,-0.4992025366233099,0.01756108752968178
-0.00223818875638051,-0.4985267204822512,0.01789990095982248
-0.00223789875638051,-0.4992025366233099,0.01789990095982248
-0.00223760875638051,-0.4992025366233099,0.01756108752968178
-0.00223731875638051,-0.4988646285527809,0.01823871438996302
-0.00223702875638051,-0.4995404446938388,0.01789990095982294
-0.00223673875638051,-0.4985267204822511,0.01891634125024456
-0.00223644875638051,-0.498188812411722,0.01891634125024471
-0.002236158756380511,-0.498188812411722,0.01925515468038494
-0.002235868756380511,-0.498188812411722,0.01857752782010448
-0.002235578756380511,-0.4978509043411929,0.01891634125024425
-0.002235288756380511,-0.4981888124117216,0.01857752782010417
-0.002234998756380511,-0.4975129962706639,0.01925515468038463
-0.00223470875638051,-0.4978509043411923,0.01959396811052563
-0.00223441875638051,-0.4981888124117216,0.01959396811052594
-0.00223412875638051,-0.498188812411722,0.01993278154066633
-0.00223383875638051,-0.4971750882001348,0.01993278154066664
-0.00223354875638051,-0.497850904341192,0.01993278154066664
-0.00223325875638051,-0.496837180129605,0.02027159497080717
-0.00223296875638051,-0.4968371801296045,0.02061040840094787
-0.00223267875638051,-0.4978509043411922,0.02094922183108856
-0.00223238875638051,-0.4975129962706634,0.02094922183108872
-0.00223209875638051,-0.4971750882001341,0.02128803526122926
-0.00223180875638051,-0.4978509043411923,0.02094922183108887
-0.00223151875638051,-0.4971750882001342,0.02128803526122926
-0.00223122875638051,-0.4971750882001339,0.02128803526122941
-0.00223093875638051,-0.4978509043411923,0.02128803526122941
-0.00223064875638051,-0.4964992720590758,0.02094922183108887
-0.00223035875638051,-0.4961613639885458,0.0216268486913701
-0.00223006875638051,-0.4964992720590752,0.02128803526122941
-0.00222977875638051,-0.4958234559180166,0.0216268486913701
-0.00222948875638051,-0.4958234559180166,0.02196566212151079
-0.00222919875638051,-0.4961613639885458,0.02196566212151079
-0.00222890875638051,-0.4958234559180166,0.02264328898179218
-0.00222861875638051,-0.4958234559180166,0.02196566212151079
-0.00222832875638051,-0.4958234559180166,0.02230447555165149
-0.00222803875638051,-0.4961613639885458,0.02264328898179218
-0.00222774875638051,-0.4954855478474872,0.02298210241193287
-0.00222745875638051,-0.4958234559180166,0.02298210241193287
-0.00222716875638051,-0.4948097317064285,0.02332091584207357
-0.00222687875638051,-0.4948097317064287,0.02332091584207357
-0.00222658875638051,-0.4951476397769574,0.02332091584207357
-0.00222629875638051,-0.4941339155653693,0.02332091584207357
-0.00222600875638051,-0.4931201913537823,0.02332091584207372
-0.00222571875638051,-0.49413391556537,0.02365972927221426
-0.00222542875638051,-0.4944718236358988,0.02365972927221411
-0.00222513875638051,-0.4937960074948406,0.02332091584207388
-0.00222484875638051,-0.4941339155653698,0.02399854270235526
-0.00222455875638051,-0.4941339155653696,0.02467616956263634
-0.00222426875638051,-0.493796007494841,0.02467616956263634
-0.00222397875638051,-0.4944718236358982,0.02467616956263665
-0.00222368875638051,-0.4934580994243102,0.02501498299277703
-0.00222339875638051,-0.4924443752127243,0.02501498299277672
-0.00222310875638051,-0.4937960074948404,0.02467616956263696
-0.00222281875638051,-0.4937960074948401,0.02535379642291742
-0.00222252875638051,-0.4934580994243112,0.02501498299277734
-0.00222223875638051,-0.4934580994243112,0.02535379642291742
-0.00222194875638051,-0.4934580994243108,0.02501498299277734
-0.00222165875638051,-0.4931201913537818,0.02535379642291834
-0.00222136875638051,-0.4931201913537809,0.0260314232831988
-0.00222107875638051,-0.4921064671421942,0.02569260985305857
-0.00222078875638051,-0.4910927429306062,0.02603142328319896
-0.00222049875638051,-0.4917685590716641,0.02603142328319911
-0.00222020875638051,-0.4914306510011351,0.02637023671333981
-0.00221991875638051,-0.4914306510011351,0.0267090501434805
-0.00221962875638051,-0.4914306510011351,0.0267090501434805
-0.00221933875638051,-0.4914306510011351,0.0267090501434805
-0.00221904875638051,-0.4914306510011351,0.0267090501434805
-0.00221875875638051,-0.4907548348600764,0.0267090501434805
-0.00221846875638051,-0.4907548348600764,0.0267090501434805
-0.00221817875638051,-0.489403202577959,0.02738667700376188
-0.00221788875638051,-0.4904169267895471,0.02704786357362119
-0.00221759875638051,-0.4904169267895471,0.02704786357362119
-0.00221730875638051,-0.4897411106484884,0.02704786357362119
-0.00221701875638051,-0.4894032025779592,0.02704786357362119
-0.00221672875638051,-0.4897411106484879,0.0270478635736215
-0.00221643875638051,-0.4887273864369007,0.02772549043390273
-0.002216148756380511,-0.4894032025779584,0.02806430386404296
-0.002215858756380511,-0.489403202577959,0.02806430386404327
-0.002215568756380511,-0.4890652945074301,0.02840311729418366
-0.002215278756380511,-0.4883894783663716,0.02840311729418396
-0.002214988756380511,-0.488051570295842,0.02806430386404358
-0.00221469875638051,-0.4877136622253126,0.02840311729418366
-0.00221440875638051,-0.4877136622253123,0.02874193072432435
-0.00221411875638051,-0.4887273864368994,0.02840311729418427
-0.00221382875638051,-0.4873757541547842,0.02840311729418396
-0.00221353875638051,-0.4880515702958411,0.02806430386404358
-0.00221324875638051,-0.4873757541547833,0.02840311729418381
-0.00221295875638051,-0.4870378460842538,0.02874193072432451
-0.00221266875638051,-0.4873757541547828,0.02874193072432466
-0.00221237875638051,-0.4877136622253122,0.02874193072432466
-0.00221208875638051,-0.4860241218726664,0.02941955758460573
-0.00221179875638051,-0.4856862138021364,0.02975837101474658
-0.00221150875638051,-0.4850103976610779,0.02975837101474674
-0.00221121875638051,-0.4846724895905484,0.02975837101474674
-0.00221092875638051,-0.4853483057316066,0.03009718444488728
-0.00221063875638051,-0.4850103976610777,0.02975837101474689
-0.00221034875638051,-0.48399667344949,0.03009718444488728
-0.00221005875638051,-0.484334581520019,0.03043599787502813
-0.00220976875638051,-0.4846724895905482,0.03043599787502813
-0.00220947875638051,-0.4839966734494896,0.03077481130516882
-0.00220918875638051,-0.4836587653789602,0.03077481130516882
-0.00220889875638051,-0.4833208573084309,0.03111362473530951
-0.00220860875638051,-0.4826450411673722,0.03111362473530951
-0.00220831875638051,-0.4826450411673722,0.03145243816545021
-0.00220802875638051,-0.4829829492379015,0.03145243816545021
-0.00220773875638051,-0.4819692250263136,0.03145243816545021
-0.00220744875638051,-0.4823071330968429,0.03145243816545021
-0.00220715875638051,-0.4826450411673718,0.03145243816545036
-0.00220686875638051,-0.4819692250263134,0.03179125159559105
-0.00220657875638051,-0.4816313169557844,0.03213006502573159
-0.00220628875638051,-0.4819692250263132,0.03213006502573174
-0.00220599875638051,-0.481293408885255,0.03246887845587244
-0.00220570875638051,-0.4816313169557839,0.03280769188601298
-0.00220541875638051,-0.4809555008147252,0.03280769188601313
-0.00220512875638051,-0.4802796846736664,0.03314650531615383
-0.00220483875638051,-0.4796038685326086,0.03348531874629421
-0.00220454875638051,-0.4806175927441957,0.03314650531615367
-0.00220425875638051,-0.4796038685326082,0.03314650531615367
-0.00220396875638051,-0.4796038685326078,0.03314650531615398
-0.00220367875638051,-0.4792659604620785,0.03348531874629436
-0.00220338875638051,-0.4789280523915488,0.03348531874629436
-0.00220309875638051,-0.4782522362504917,0.03348531874629498
-0.00220280875638051,-0.4792659604620773,0.03416294560657575
-0.00220251875638051,-0.4775764201094321,0.03416294560657575
-0.00220222875638051,-0.4775764201094321,0.03416294560657544
-0.00220193875638051,-0.4775764201094315,0.03382413217643567
-0.00220164875638051,-0.4769006039683737,0.03450175903671614
-0.00220135875638051,-0.4772385120389031,0.03416294560657575
-0.00220106875638051,-0.477576420109432,0.03416294560657575
-0.00220077875638051,-0.4765626958978445,0.03450175903671629
-0.00220048875638051,-0.4765626958978441,0.03450175903671644
-0.00220019875638051,-0.4765626958978441,0.03484057246685698
-0.00219990875638051,-0.4755489716862561,0.03484057246685714
-0.00219961875638051,-0.4752110636157267,0.03517938589699783
-0.00219932875638051,-0.4748731555451974,0.03517938589699783
-0.00219903875638051,-0.4741973394041387,0.03517938589699783
-0.00219874875638051,-0.474535247474668,0.03517938589699783
-0.00219845875638051,-0.474535247474668,0.03585701275727921
-0.00219816875638051,-0.4738594313336093,0.03585701275727921
-0.00219787875638051,-0.4738594313336093,0.03551819932713852
-0.00219758875638051,-0.4738594313336093,0.03585701275727921
-0.00219729875638051,-0.4728457071220213,0.03619582618741991
-0.00219700875638051,-0.4728457071220213,0.0365346396175606
-0.00219671875638051,-0.4728457071220209,0.0365346396175606
-0.00219642875638051,-0.4718319829104333,0.03653463961756091
-0.00219613875638051,-0.4718319829104333,0.03721226647784199
-0.002195848756380511,-0.4718319829104333,0.03721226647784199
-0.002195558756380511,-0.4708182586988462,0.0368734530477016
-0.002195268756380511,-0.4711561667693742,0.03687345304770129
-0.002194978756380511,-0.4714940748399036,0.03687345304770129
-0.002194688756380511,-0.4701424425577878,0.03755107990798207
-0.00219439875638051,-0.4694666264167285,0.03721226647784229
-0.00219410875638051,-0.4694666264167279,0.03755107990798238
-0.00219381875638051,-0.4691287183461988,0.03822870676826345
-0.00219352875638051,-0.4687908102756696,0.03788989333812368
-0.00219323875638051,-0.4684529022051402,0.03822870676826376
-0.00219294875638051,-0.4681149941346107,0.03755107990798299
-0.00219265875638051,-0.4674391779935522,0.03755107990798268
-0.00219236875638051,-0.467777086064081,0.03788989333812322
-0.00219207875638051,-0.4667633618524936,0.03788989333812338
-0.00219178875638051,-0.4671012699230223,0.03788989333812338
-0.00219149875638051,-0.4664254537819642,0.03822870676826391
-0.00219120875638051,-0.466763361852493,0.03822870676826406
-0.00219091875638051,-0.4654117295703764,0.03856752019840461
-0.00219062875638051,-0.4650738214998466,0.0389063336285453
-0.00219033875638051,-0.4640600972882589,0.03958396048882654
-0.00219004875638051,-0.4647359134293171,0.03924514705868615
-0.00218975875638051,-0.4647359134293171,0.03924514705868615
-0.00218946875638051,-0.4643980053587877,0.03958396048882684
-0.00218917875638051,-0.4637221892177291,0.03924514705868615
-0.00218888875638051,-0.4637221892177291,0.03992277391896754
-0.00218859875638051,-0.4623705569356117,0.03992277391896754
-0.00218830875638051,-0.4630463730766704,0.03992277391896754
-0.00218801875638051,-0.4630463730766704,0.03992277391896754
-0.00218772875638051,-0.4616947407945531,0.04026158734910822
-0.00218743875638051,-0.460681016582965,0.03992277391896754
-0.00218714875638051,-0.4613568327240237,0.03992277391896754
-0.00218685875638051,-0.4606810165829648,0.04093921420938946
-0.00218656875638051,-0.4603431085124357,0.04060040077924876
-0.00218627875638051,-0.460343108512435,0.04026158734910838
-0.00218598875638051,-0.4589914762303187,0.04060040077924907
-0.00218569875638051,-0.4596672923713772,0.04093921420938961
-0.00218540875638051,-0.4600052004419058,0.04093921420938961
-0.00218511875638051,-0.4589914762303183,0.04093921420938961
-0.00218482875638051,-0.4589914762303182,0.04093921420938961
-0.00218453875638051,-0.4586535681597885,0.04093921420938976
-0.00218424875638051,-0.4576398439482007,0.04127802763953031
-0.00218395875638051,-0.4573019358776717,0.04127802763953061
-0.00218366875638051,-0.4573019358776704,0.04195565449981139
-0.00218337875638051,-0.4559503035955542,0.04161684106967192
-0.00218308875638051,-0.4559503035955546,0.04263328136009277
-0.00218279875638051,-0.4562882116660824,0.04229446792995269
-0.00218250875638051,-0.4549365793839669,0.04263328136009308
-0.00218221875638051,-0.4556123955250245,0.04263328136009277
-0.00218192875638051,-0.4552744874544949,0.04229446792995239
-0.00218163875638051,-0.4545986713134369,0.04229446792995269
-0.00218134875638051,-0.4545986713134372,0.04263328136009308
-0.00218105875638051,-0.4549365793839647,0.04263328136009338
-0.00218076875638051,-0.4532470390313202,0.04297209479023362
-0.00218047875638051,-0.4535849471018487,0.04297209479023377
-0.00218018875638051,-0.453922855172378,0.04297209479023377
-0.00217989875638051,-0.4522333148197315,0.04364972165051516
-0.00217960875638051,-0.4522333148197315,0.04364972165051516
-0.00217931875638051,-0.4522333148197315,0.04364972165051516
-0.00217902875638051,-0.4512195906081434,0.04364972165051516
-0.00217873875638051,-0.4505437744670848,0.04398853508065585
-0.00217844875638051,-0.4512195906081434,0.04432734851079655
-0.00217815875638051,-0.4495300502554967,0.04432734851079655
-0.00217786875638051,-0.4495300502554967,0.04466616194093724
-0.00217757875638051,-0.4491921421849674,0.04432734851079655
-0.00217728875638051,-0.448854234114438,0.04432734851079655
-0.00217699875638051,-0.4478405099028501,0.04466616194093724
-0.00217670875638051,-0.448178417973379,0.04432734851079655
-0.00217641875638051,-0.4471646937617915,0.0443273485107967
-0.00217612875638051,-0.4475026018323205,0.04466616194093724
-0.002175838756380511,-0.4471646937617917,0.04466616194093724
-0.002175548756380511,-0.4468267856912623,0.04466616194093724
-0.002175258756380511,-0.445813061479675,0.04500497537107762
-0.002174968756380511,-0.446488877620732,0.04534378880121832
-0.002174678756380511,-0.4451372453386165,0.04568260223135901
-0.00217438875638051,-0.4451372453386153,0.04568260223135932
-0.00217409875638051,-0.4447993372680863,0.04602141566149971
-0.00217380875638051,-0.4437856130564989,0.0463602290916404
-0.00217351875638051,-0.443447704985969,0.0463602290916407
-0.00217322875638051,-0.4434477049859686,0.04669904252178109
-0.00217293875638051,-0.4420960727038518,0.04636022909164086
-0.00217264875638051,-0.4420960727038512,0.0463602290916407
-0.00217235875638051,-0.4424339807743804,0.04669904252178125
-0.00217206875638051,-0.4417581646333222,0.0466990425217814
-0.00217177875638051,-0.4417581646333218,0.04636022909164086
-0.00217148875638051,-0.4410823484922636,0.0463602290916407
-0.00217119875638051,-0.4404065323512049,0.04669904252178125
-0.00217090875638051,-0.4400686242806753,0.0466990425217814
-0.00217061875638051,-0.4400686242806752,0.0466990425217814
-0.00217032875638051,-0.4380411758575001,0.0466990425217814
-0.00217003875638051,-0.4383790839280283,0.04737666938206248
-0.00216974875638051,-0.4380411758574991,0.04703785595192209
-0.00216945875638051,-0.4377032677869698,0.04771548281220347
-0.00216916875638051,-0.4370274516459112,0.04737666938206278
-0.00216887875638051,-0.4370274516459112,0.04737666938206278
-0.00216858875638051,-0.4360137274343231,0.04703785595192209
-0.00216829875638051,-0.4360137274343231,0.04771548281220347
-0.00216800875638051,-0.4360137274343231,0.04771548281220347
-0.00216771875638051,-0.4343241870816764,0.04771548281220347
-0.00216742875638051,-0.4343241870816764,0.04805429624234417
-0.00216713875638051,-0.4339862790111471,0.04873192310262556
-0.00216684875638051,-0.4329725547995588,0.04873192310262556
-0.00216655875638051,-0.4326346467290297,0.04873192310262556
-0.00216626875638051,-0.4326346467290293,0.04873192310262556
-0.00216597875638051,-0.4316209225174417,0.04873192310262571
-0.00216568875638051,-0.4316209225174415,0.0490707365327664
-0.00216539875638051,-0.431283014446912,0.04940954996290694
-0.00216510875638051,-0.4306071983058536,0.04940954996290679
-0.00216481875638051,-0.4306071983058536,0.04907073653276625
-0.00216452875638051,-0.4306071983058531,0.0490707365327664
-0.00216423875638051,-0.429593474094265,0.04940954996290694
-0.00216394875638051,-0.4282418418121482,0.04940954996290709
-0.00216365875638051,-0.4282418418121476,0.04974836339304763
-0.00216336875638051,-0.4275660256710893,0.04974836339304763
-0.00216307875638051,-0.4272281176005599,0.04974836339304763
-0.00216278875638051,-0.4268902095300297,0.04974836339304794
-0.00216249875638051,-0.4255385772479129,0.05008717682318833
-0.00216220875638051,-0.4248627611068548,0.05008717682318894
-0.00216191875638051,-0.4248627611068545,0.05076480368346941
-0.00216162875638051,-0.4245248530363245,0.05042599025332933
-0.00216133875638051,-0.4235111288247378,0.05076480368347002
-0.00216104875638051,-0.4238490368952652,0.05110361711360979
-0.00216075875638051,-0.4221594965426209,0.05042599025332933
-0.00216046875638051,-0.4221594965426201,0.0511036171136101
-0.00216017875638051,-0.4221594965426201,0.05144243054375095
-0.00215988875638051,-0.4214836804015617,0.0514424305437511
-0.00215959875638051,-0.4204699561899734,0.0514424305437511
-0.00215930875638051,-0.4211457723310321,0.0514424305437511
-0.00215901875638051,-0.4204699561899734,0.05178124397389179
-0.00215872875638051,-0.4194562319783853,0.05178124397389179
-0.00215843875638051,-0.4197941400489147,0.0514424305437511
-0.00215814875638051,-0.419118323907856,0.05178124397389179
-0.00215785875638051,-0.4184425077667974,0.05178124397389179
-0.00215756875638051,-0.4187804158373267,0.05212005740403249
-0.00215727875638051,-0.4177666916257387,0.05178124397389179
-0.00215698875638051,-0.4167529674141507,0.05245887083417318
-0.00215669875638051,-0.4174287835552088,0.05212005740403264
-0.00215640875638051,-0.4164150593436209,0.05245887083417333
-0.00215611875638051,-0.4154013351320331,0.05279768426431372
-0.00215582875638051,-0.4150634270615035,0.05245887083417318
-0.002155538756380511,-0.4140497028499169,0.05245887083417318
-0.002155248756380511,-0.4133738867088578,0.05245887083417318
-0.002154958756380511,-0.4140497028499153,0.05212005740403279
-0.002154668756380511,-0.4123601624972707,0.05212005740403249
