3.2.2 TiefpassAktiv/messwerte/500khz.csv

#Digilent WaveForms Oscilloscope Acquisition
#Device Name: Discovery2
#Serial Number: SN:210321AA2AFF
#Date Time: 2023-12-05 19:45:47.069
#Sample rate: 3.33333e+07Hz
#Samples: 8192
#Trigger: Source: Channel 1 Type: Edge Condition: Rising Level: 0 V Hyst.: Auto HoldOff: 0 s
#Channel 1: Range: 5 V/div Offset: 0 V Attenuation: 1 X Sample Mode: Average
#Channel 2: Range: 5 mV/div Offset: 0 V Attenuation: 1 X Sample Mode: Average

Time (s),Channel 1 (V),Channel 2 (V)
0.0001247547596893292,3.819622084974469,-0.01225449432269922
0.0001247847596893292,3.503913241304588,-0.01360974804326199
0.0001248147596893292,3.139919515661492,-0.01564262862410754
0.0001248447596893292,2.757354681567574,-0.01869194949537238
0.0001248747596893292,2.337647630570951,-0.0190307629255137
0.0001249047596893292,1.914226357884672,-0.02038601664607523
0.0001249347596893292,1.464805533366178,-0.02106364350635724
0.0001249647596893292,1.01538470884808,-0.02241889722691939
0.0001249947596893292,0.5436785541881709,-0.0230965240872014
0.0001250247596893292,0.0756866212184818,-0.02377415094748278
0.0001250547596893292,-0.4034479768214732,-0.02377415094748278
0.0001250847596893292,-0.8714399097911606,-0.02445177780776432
0.0001251147596893292,-1.346860286140667,-0.02479059123790471
0.0001251447596893292,-1.792566888968951,-0.02445177780776417
0.0001251747596893292,-2.22713082672612,-0.02275771065706148
0.0001252047596893292,-2.650552099412982,-0.02343533751734209
0.0001252347596893292,-3.025688490126782,-0.02140245693649747
0.0001252647596893292,-3.411967545910931,-0.02038601664607585
0.0001252947596893292,-3.749961719722356,-0.01970838978579431
0.0001253247596893292,-4.058242120011489,-0.01936957635565393
0.0001253547596893292,-4.3070949732573,-0.018014322635091
0.0001253847596893292,-4.544805161432161,-0.01598144205424776
0.0001254147596893292,-4.737944689324433,-0.01496500176382476
0.0001254447596893292,-4.875370891863136,-0.01293212118297952
0.0001254747596893292,-4.98308332087987,-0.01056042717199575
0.0001255047596893292,-5.053653532994314,-0.007511106300729512
0.0001255347596893292,-5.068510419755242,-0.006494666010307894
0.0001255647596893292,-5.042510867923612,-0.00412297199932258
0.0001255947596893292,-4.968226434118968,-0.002428904848619884
0.0001256247596893292,-4.853085561721683,0.0002816025925064317
0.0001256547596893292,-4.678517142280598,0.003669736893914288
0.0001256847596893292,-4.47794917100806,0.005702617474757522
0.0001257147596893292,-4.236524761142856,0.007396684625460988
0.0001257447596893292,-3.961672356065406,0.008751938346024994
0.0001257747596893292,-3.6496777340859,0.01146244578714931
0.0001258047596893292,-3.304255116894305,0.01247888607757092
0.0001258347596893292,-2.932832947870758,0.01451176665841554
0.0001258647596893292,-2.531697005325299,0.01654464723926001
0.0001258947596893292,-2.097133067568131,0.01722227409954109
0.0001259247596893292,-1.666283351500999,0.01857752782010386
0.0001259547596893292,-1.209434083602015,0.02061040840094848
0.0001259847596893292,-0.737727928942524,0.0216268486913701
0.0001260147596893292,-0.2623075525928013,0.0216268486913701
0.0001260447596893292,0.20939860206712,0.02230447555165149
0.0001260747596893292,0.677390535036804,0.02332091584207372
0.0001261047596893292,1.145382468006062,0.02365972927221426
0.0001261347596893292,1.594803292524364,0.02264328898179218
0.0001261647596893292,2.047938338733091,0.02230447555165195
0.0001261947596893292,2.467645389729331,0.02332091584207357
0.0001262247596893292,2.865067110584177,0.02162684869137087
0.0001262547596893292,3.243917722988215,0.02027159497080733
0.0001262847596893292,3.593054561870347,0.01993278154066633
0.0001263147596893292,3.912477627230317,0.01925515468038525
0.0001263447596893292,4.187330032307625,0.0165446472392597
0.0001263747596893292,4.436182885553385,0.01586702037897662
0.0001264047596893292,4.629322413445459,0.01214007264743069
0.0001264347596893292,4.800176611196141,0.01146244578714961
0.0001264647596893292,4.919031705283704,0.00976837863644584
0.0001264947596893292,5.004458804159096,0.007396684625459756
0.0001265247596893292,5.034172577680954,0.004686177184335443
0.0001265547596893292,5.008173025849317,0.002992110033631977
0.0001265847596893292,4.956173922185996,0.0009592294527864313
0.0001266147596893292,4.852175714859493,-0.00209009141847842
0.0001266447596893292,4.707321068940437,-0.003106531708900038
0.0001266747596893292,4.517895762738442,-0.006494666010307432
0.0001267047596893292,4.280185574563358,-0.007511106300730744
0.0001267347596893292,4.027618499627683,-0.01022161374185383
0.0001267647596893292,3.71562387764792,-0.01327093461312129
0.0001267947596893292,3.373915482146237,-0.01496500176382538
0.0001268247596893292,3.013635978193713,-0.01632025548438753
0.0001268547596893292,2.616214257338867,-0.01835313606523077
0.0001268847596893292,2.200221428032489,-0.01767550920495031
0.0001269147596893292,1.769371711965151,-0.01970838978579523
0.0001269447596893292,1.316236665757028,-0.02140245693649716
0.0001269747596893292,0.8593873978580523,-0.02241889722692001
0.0001270047596893292,0.3876812431981293,-0.02241889722692063
0.0001270347596893292,-0.09145335484182575,-0.02377415094748278
0.0001270647596893292,-0.5668737311915485,-0.02445177780776386
0.0001270947596893292,-1.034865664161236,-0.0230965240872014
0.0001271247596893292,-1.491714932060211,-0.02377415094748278
0.0001271547596893292,-1.944849978268335,-0.02377415094748278
0.0001271847596893292,-2.379413916025907,-0.02445177780776417
0.0001272147596893292,-2.787978301951812,-0.02309652408720063
0.0001272447596893292,-3.174257357735962,-0.02140245693649793
0.0001272747596893292,-3.519679974927556,-0.01970838978579523
0.0001273047596893292,-3.865102592119467,-0.01903076292551308
0.0001273347596893292,-4.151097662267589,-0.01767550920494954
0.0001273647596893292,-4.399950515513035,-0.01598144205424761
0.0001273947596893292,-4.615375373546714,-0.01428737490354337
0.0001274247596893292,-4.793658014678002,-0.01191568089255837
0.0001274547596893292,-4.927369995526361,-0.01157686746241783
0.0001274847596893292,-5.012797094401702,-0.009882800311715133
0.0001275147596893292,-5.068510419755249,-0.008188733161010897
0.0001275447596893292,-5.07222464144546,-0.004800598859603349
0.0001275747596893292,-5.020225537782233,-0.00344534513904181
0.0001276047596893292,-4.931084217216595,-0.0003960242677749547
0.0001276347596893292,-4.786229571297398,0.0009592294527888966
0.0001276647596893292,-4.622803816927181,0.00333092346377267
0.0001276947596893292,-4.411093180583945,0.006041430904896983
0.0001277247596893292,-4.151097662267476,0.008413124915883068
0.0001277547596893292,-3.865102592119315,0.009090751776165534
0.0001277847596893292,-3.530822639998568,0.01146244578714823
0.0001278147596893292,-3.181685801116429,0.01417295322827485
0.0001278447596893292,-2.802835188712383,0.01518939351869801
0.0001278747596893292,-2.386842359406375,0.01756108752968178
0.0001279047596893292,-1.963421086719903,0.01789990095982233
0.0001279347596893292,-1.514000262201409,0.01993278154066664
0.0001279647596893292,-1.049722550922171,0.02027159497080733
0.0001279947596893292,-0.5817306179529131,0.02094922183108841
0.0001280247596893292,-0.1137386849832291,0.02230447555165149
0.0001280547596893292,0.3616816913669261,0.02264328898179249
0.0001280847596893292,0.8371020677166489,0.02332091584207357
0.0001281147596893292,1.290237113924978,0.02230447555165195
0.0001281447596893292,1.754514825204422,0.02196566212151079
0.0001281747596893292,2.196507206342256,0.02196566212151079
0.0001282047596893292,2.608785813958031,0.02196566212151079
0.0001282347596893292,3.002493313123011,0.02196566212151079
0.0001282647596893292,3.366487038766089,0.01959396811052563
0.0001282947596893292,3.708195434267452,0.01891634125024456
0.0001283247596893292,4.005333169486029,0.01789990095982294
0.0001283547596893292,4.287614017943941,0.0165446472392597
0.0001283847596893292,4.503038875977507,0.01451176665841554
0.0001284147596893292,4.699892625559814,0.01281769950771285
0.0001284447596893292,4.837318828098558,0.01112363235700861
0.0001284747596893292,4.9487454788056,0.009090751776163376
0.0001285047596893292,5.004458804159083,0.006719057765179602
0.0001285347596893292,5.026744134300476,0.004008550324055289
0.0001285647596893292,4.997030360778616,0.001636856313069204
0.0001285947596893292,4.922745926973938,0.0006204160226471248
0.0001286247596893292,4.811319276266971,-0.002428904848617727
0.0001286547596893292,4.647893521896629,-0.005478225719885352
0.0001286847596893292,4.447325550623888,-0.00683347944044905
0.0001287147596893292,4.205901140758795,-0.008866360021292284
0.0001287447596893292,3.923620292301147,-0.01123805403227606
0.0001287747596893292,3.615339892011605,-0.01327093461312129
0.0001288047596893292,3.269917274819853,-0.01428737490354337
0.0001288347596893292,2.898495105796631,-0.01665906891452715
0.0001288647596893292,2.493644941560968,-0.018014322635091
0.0001288947596893292,2.066509447183868,-0.018691949495373
0.0001289247596893292,1.624517066046235,-0.02004720321593516
0.0001289547596893292,1.167667798147674,-0.02241889722691893
0.0001289847596893292,0.7071043085584624,-0.0227577106570607
0.0001290147596893292,0.2428265972792251,-0.0227577106570607
0.0001290447596893292,-0.2437364441411943,-0.02343533751734178
0.0001290747596893292,-0.7154425988011207,-0.02343533751734209
0.0001291047596893292,-1.179720310080566,-0.02343533751734194
0.0001291347596893292,-1.636569577979127,-0.0230965240872014
0.0001291647596893292,-2.085990402497225,-0.02445177780776355
0.0001291947596893292,-2.50198323180381,-0.02275771065706024
0.0001292247596893292,-2.90683339603912,-0.02174127036663863
0.0001292547596893292,-3.289398230133038,-0.02072483007621701
0.0001292847596893292,-3.623678182254263,-0.01936957635565377
0.0001293147596893292,-3.946815469304737,-0.01869194949537146
0.0001293447596893292,-4.221667874381921,-0.01665906891452823
0.0001293747596893292,-4.466806505937246,-0.01530381519396607
0.0001294047596893292,-4.671088698900295,-0.01428737490354245
0.0001294347596893292,-4.83080023158028,-0.01225449432269922
0.0001294647596893292,-4.94965532566771,-0.009882800311715442
0.0001294947596893292,-5.027653981162676,-0.008188733161010897
0.0001295247596893292,-5.068510419755239,-0.00547822571988489
0.0001295547596893292,-5.046225089613846,-0.004461785429463272
0.0001295847596893292,-4.983083320879898,-0.002428904848620038
0.0001296147596893292,-4.886513556933719,0.0002816025925076642
0.0001296447596893292,-4.734230467634198,0.002992110033631977
0.0001296747596893292,-4.541090939742124,0.00536380404461575
0.0001297047596893292,-4.325666081708469,0.006719057765179602
0.0001297347596893292,-4.05824212001149,0.009429565206305918
0.0001297647596893292,-3.75367594141245,0.01112363235700861
0.0001297947596893292,-3.408253324220854,0.01214007264743023
0.0001298247596893292,-3.05168804195806,0.01518939351869724
0.0001298547596893292,-2.650552099412982,0.01586702037897832
0.0001298847596893292,-2.238273491797206,0.01688346066939993
0.0001299147596893292,-1.796281110659185,0.01891634125024456
0.0001299447596893292,-1.354288729521142,0.0195939681105261
0.0001299747596893292,-0.8937252399323478,0.01993278154066664
0.0001300047596893292,-0.418304863582625,0.02162684869136933
0.0001300347596893292,0.04968706938728366,0.02332091584207326
0.0001300647596893292,0.5362501108077031,0.02264328898179218
0.0001300947596893292,0.9893851570160327,0.0236597292722138
0.0001301247596893292,1.449948646605242,0.02230447555165149
0.0001301547596893292,1.895655249433504,0.02298210241193287
0.0001301847596893292,2.322790743810208,0.02298210241193287
0.0001302147596893292,2.738783573116216,0.0223044755516518
0.0001302447596893292,3.125062628900894,0.02027159497080702
0.0001302747596893292,3.485342132853418,0.01959396811052594
0.0001303047596893292,3.808479419903621,0.01823871438996379
0.0001303347596893292,4.090760268361544,0.01756108752968178
0.0001303647596893292,4.354470008368248,0.01485058008855578
0.0001303947596893292,4.569894866401717,0.01383413979813416
0.0001304247596893292,4.748177507532863,0.01214007264743146
0.0001304547596893292,4.885603710071641,0.009768378636445378
0.0001304847596893292,4.978459252327446,0.008751938346023761
0.0001305147596893292,5.023029912610232,0.006041430904899448
0.0001305447596893292,5.011887247539551,0.004008550324054057
0.0001305747596893292,4.978459252327407,0.001975669743208665
0.0001306047596893292,4.893032153452066,-0.0007348376979156479
0.0001306347596893292,4.755605950913412,-0.002767718278759807
0.0001306647596893292,4.581037531472321,-0.00581703915002697
0.0001306947596893292,4.365612673438853,-0.007849919730870205
0.0001307247596893292,4.116759820193294,-0.009543986881572901
0.0001307547596893292,3.815907863284235,-0.01089924060213644
0.0001307847596893292,3.50019901961419,-0.01462618833368499
0.0001308147596893292,3.139919515661666,-0.01665906891452823
0.0001308447596893292,2.746212016496873,-0.01699788234466892
0.0001308747596893292,2.341361852261185,-0.01936957635565377
0.0001309047596893292,1.917940579574713,-0.01936957635565377
0.0001309347596893292,1.468519755056616,-0.02004720321593485
0.0001309647596893292,1.011670487157642,-0.02140245693649793
0.0001309947596893292,0.5473927758781902,-0.02275771065706055
0.0001310247596893292,0.07568662121869968,-0.02241889722692001
0.0001310547596893292,-0.4071621985117071,-0.02377415094748278
0.0001310847596893292,-0.8751541314813928,-0.02445177780776386
0.0001311147596893292,-1.346860286140883,-0.02377415094748278
0.0001311447596893292,-1.796281110658981,-0.0247905912379044
0.0001311747596893292,-2.238273491797019,-0.02377415094748278
0.0001312047596893292,-2.646837877722928,-0.02309652408720094
0.0001312347596893292,-3.044259598577775,-0.02208008379677932
0.0001312647596893292,-3.404539102530463,-0.02004720321593516
0.0001312947596893292,-3.746247498032123,-0.01970838978579385
0.0001313247596893292,-4.054527898321395,-0.01835313606523169
0.0001313547596893292,-4.307094973257185,-0.01598144205424792
0.0001313847596893292,-4.54480516143227,-0.01530381519396545
0.0001314147596893292,-4.74165891101473,-0.01360974804326106
0.0001314447596893292,-4.882799335243554,-0.01157686746241783
0.0001314747596893292,-4.990511764260337,-0.01089924060213644
0.0001315047596893292,-5.042510867923624,-0.008188733161009973
0.0001315347596893292,-5.068510419755249,-0.006155852580166738
0.0001315647596893292,-5.03508242454316,-0.003106531708901886
0.0001315947596893292,-4.957083769048232,-0.00209009141847842
0.0001316247596893292,-4.849371340031373,0.0006204160226478951
0.0001316547596893292,-4.682231363970924,0.002314483173350591
0.0001316847596893292,-4.489091836078761,0.005363804044616829
0.0001317147596893292,-4.240238982832974,0.007057871195321065
0.0001317447596893292,-3.983957686206951,0.008751938346023761
0.0001317747596893292,-3.657106177466517,0.01112363235700753
0.0001318047596893292,-3.304255116894148,0.01349532636799347
0.0001318347596893292,-2.936547169560809,0.01383413979813493
0.0001318647596893292,-2.535411227015913,0.01552820694883685
0.0001318947596893292,-2.1157041760193,0.0168834606694004
0.0001319247596893292,-1.669997573191025,0.01959396811052594
0.0001319547596893292,-1.213148305292463,0.01959396811052594
0.0001319847596893292,-0.7302994855622758,0.02027159497080702
0.0001320147596893292,-0.2697359959730529,0.02196566212151079
0.0001320447596893292,0.2131128237575735,0.02162684869137025
0.0001320747596893292,0.6959616434875411,0.02196566212151064
0.0001321047596893292,1.141668246315829,0.02196566212151079
0.0001321347596893292,1.602231735905035,0.02196566212151187
0.0001321647596893292,2.0479383387329,0.02433735613249565
0.0001321947596893292,2.46764538972914,0.02162684869137133
0.0001322247596893292,2.879923997345293,0.02128803526122941
0.0001322547596893292,3.258774609749306,0.01993278154066602
0.0001322847596893292,3.600483005250513,0.01857752782010448
0.0001323147596893292,3.91619184892055,0.01789990095982248
0.0001323447596893292,4.198472697378437,0.01654464723925878
0.0001323747596893292,4.439897107243531,0.01451176665841554
0.0001324047596893292,4.636750856825837,0.01214007264743177
0.0001324347596893292,4.803890832886452,0.01044600549672723
0.0001324647596893292,4.930174370354437,0.007735498055600911
0.0001324947596893292,5.000744582468817,0.006041430904898986
0.0001325247596893292,5.015601469229785,0.004686177184335443
0.0001325547596893292,5.023029912610224,0.002992110033630745
0.0001325847596893292,4.959888143876277,0.0002816025925064317
0.0001326147596893292,4.855889936549774,-0.001751277988336803
0.0001326447596893292,4.707321068940371,-0.003445345139041193
0.0001326747596893292,4.517895762738338,-0.006494666010308202
0.0001327047596893292,4.287614017944046,-0.008188733161010127
0.0001327347596893292,4.023904277937334,-0.01089924060213644
0.0001327647596893292,3.715623877647769,-0.01327093461312207
0.0001327947596893292,3.38134392552687,-0.01496500176382476
0.0001328247596893292,3.021064421574345,-0.01598144205424638
0.0001328547596893292,2.631071144099622,-0.01733669577480961
0.0001328847596893292,2.207649871412764,-0.01835313606523293
0.0001329147596893292,1.780514377036253,-0.02106364350635601
0.0001329447596893292,1.312522444066588,-0.02241889722692001
0.0001329747596893292,0.8631016195480716,-0.02241889722692047
0.0001330047596893292,0.3913954648885811,-0.02343533751734209
0.0001330347596893292,-0.08402491146114172,-0.02275771065706101
0.0001330647596893292,-0.559445287811297,-0.02343533751734209
0.0001330947596893292,-1.034865664161236,-0.02411296437762348
0.0001331247596893292,-1.484286488679333,-0.02411296437762348
0.0001331547596893292,-1.944849978268541,-0.02445177780776417
0.0001331847596893292,-2.368271250955392,-0.02479059123790455
0.0001332147596893292,-2.780549858571169,-0.02411296437762348
0.0001332447596893292,-3.159400470974854,-0.0217412703666397
0.0001332747596893292,-3.523394196617948,-0.02174127036663863
0.0001333047596893292,-3.857674148738999,-0.02072483007621655
0.0001333347596893292,-4.143669218886879,-0.01801432263509223
0.0001333647596893292,-4.396236293822914,-0.01835313606523169
0.0001333947596893292,-4.611661151856553,-0.01564262862410492
0.0001334247596893292,-4.771372684536537,-0.0129321211829806
0.0001334547596893292,-4.919941552145826,-0.0129321211829806
0.0001334847596893292,-5.001654429331039,-0.01056042717199575
0.0001335147596893292,-5.053653532994314,-0.006833479440448125
0.0001335447596893292,-5.06479619806501,-0.005478225719885968
0.0001335747596893292,-5.016511316091975,-0.003445345139041193
0.0001336047596893292,-4.923655773836064,-0.001751277988336341
0.0001336347596893292,-4.782515349607239,0.001298042882928511
0.0001336647596893292,-4.61537537354679,0.004008550324052824
0.0001336947596893292,-4.399950515513147,0.006380244335038909
0.0001337247596893292,-4.151097662267476,0.007396684625460988
0.0001337547596893292,-3.857674148739132,0.009429565206304223
0.0001337847596893292,-3.534536861688649,0.01112363235700861
0.0001338147596893292,-3.177971579426019,0.01281769950771285
0.0001338447596893292,-2.79169252364187,0.01451176665841554
0.0001338747596893292,-2.386842359406559,0.01620583380911824
0.0001339047596893292,-1.952278421649009,0.01756108752968178
0.0001339347596893292,-1.510286040511175,0.01959396811052594
0.0001339647596893292,-1.034865664161452,0.02027159497080702
0.0001339947596893292,-0.5668737311917648,0.02061040840094802
0.0001340247596893292,-0.08773913315137734,0.02128803526122972
0.0001340547596893292,0.3839670215081132,0.02196566212151079
0.0001340847596893292,0.8445305110969072,0.02264328898179187
0.0001341147596893292,1.312522444066588,0.02365972927221426
0.0001341447596893292,1.761943268584889,0.02264328898179218
0.0001341747596893292,2.196507206342058,0.02264328898179218
0.0001342047596893292,2.608785813958218,0.0216268486913701
0.0001342347596893292,3.009921756503647,0.02162684869136918
0.0001342647596893292,3.377629703836635,0.01959396811052594
